@relation nitrate_mass_during_winter_to_area_of_watershed_ratio_of_reach_instances

@attribute nitrate_mass_during_winter_to_area_of_watershed_ratio_of_reach numeric
@attribute area_of_watershed numeric
@attribute riparian_broadleaf_forest_proportion_area_of_watershed numeric
@attribute broadleaf_forest_proportion_area_of_watershed numeric
@attribute high_stream_flow_event_count numeric

@data
0,0,0,0,0
600000,750,1,0.45,10.5
600000,548.60681,0.055255,0.21608,8.066989
600000,547.20142,0.186815,0.21649,8.047882
232096.8257,52.3832,0.064775,0.20939,6.92717
213649.6666,44.6188,0,0.20996,7.108327
214799.1118,44.4605,0,0.21063,7.121038
121167.1142,11.1833,0.076925,0.30211,6.50042
112771.9517,11.1317,0,0.30385,6.518342
109354.525,11.0555,0.185185,0.30556,6.521093
113596.2218,9.7057,0.188935,0.31693,6.495977
111497.3117,9.65,0.136365,0.31769,6.48932
117756.6271,8.7313,0.111115,0.30786,6.504946
119410.9262,8.6068,0.44463,0.30301,6.525432
120744.2191,8.4123,0.45,0.29803,6.533095
133520.206,7.9303,0.45,0.26845,6.476003
133479.8722,7.8093,0.45,0.26208,6.485748
134733.3569,7.542,0.45,0.26562,6.475801
123894.2124,7.3697,0.45,0.25214,6.593903
116573.0946,7.0373,0.325,0.24815,6.600374
108441.754,6.5474,0.14815,0.25189,6.618461
110833.8285,6.179,0.45,0.23127,6.602759
180256.1311,32.7868,0.059315,0.18263,7.457494
181211.4538,32.6283,0.117145,0.18328,7.461063
600000,494.77759,0,0.21725,8.277711
600000,494.49249,0,0.21738,8.280221
600000,494.31009,0.09918,0.21745,8.280221
0,0,0,0,0
600000,750,1,0.45,10.5
600000,548.60681,0.055255,0.21608,8.066989
600000,547.20142,0.186815,0.21649,8.047882
232096.8257,52.3832,0.064775,0.20939,6.92717
213649.6666,44.6188,0,0.20996,7.108327
214799.1118,44.4605,0,0.21063,7.121038
121167.1142,11.1833,0.076925,0.30211,6.50042
112771.9517,11.1317,0,0.30385,6.518342
109354.525,11.0555,0.185185,0.30556,6.521093
113596.2218,9.7057,0.188935,0.31693,6.495977
111497.3117,9.65,0.136365,0.31769,6.48932
117756.6271,8.7313,0.111115,0.30786,6.504946
119410.9262,8.6068,0.44463,0.30301,6.525432
120744.2191,8.4123,0.45,0.29803,6.533095
133520.206,7.9303,0.45,0.26845,6.476003
133479.8722,7.8093,0.45,0.26208,6.485748
134733.3569,7.542,0.45,0.26562,6.475801
123894.2124,7.3697,0.45,0.25214,6.593903
116573.0946,7.0373,0.325,0.24815,6.600374
108441.754,6.5474,0.14815,0.25189,6.618461
110833.8285,6.179,0.45,0.23127,6.602759
180256.1311,32.7868,0.059315,0.18263,7.457494
181211.4538,32.6283,0.117145,0.18328,7.461063
600000,494.77759,0,0.21725,8.277711
600000,494.49249,0,0.21738,8.280221
600000,494.31009,0.09918,0.21745,8.280221
