{
  "urn" : "local:stefano.balbi:alice.sandbox:bn.no3.load.high.simple.cutchange",
  "version" : "0.0.1",
  "adapterType" : "weka",
  "localPath" : "im.alice.spain/resources/bn.no3.load.high.simple.cutchange",
  "geometry" : "T1(1){ttype=INITIALIZATION}S2(386,195){bbox=[-3.448020335811165 -3.3526711955310153 43.32647713804974 43.36147332705292],proj=EPSG:4326,shape=00000000030000000100000005C00B958BAF9203E04045A9CA00BB685CC00AD2454698601E4045A9CA00BB685CC00AD2454698601E4045AE44C20B08C8C00B958BAF9203E04045AE44C20B08C8C00B958BAF9203E04045A9CA00BB685C}",
  "projectName" : "im.alice.spain",
  "localName" : "bn.no3.load.high.simple.cutchange",
  "type" : "NUMBER",
  "resourceTimestamp" : 1602508488579,
  "metadata" : { },
  "parameters" : {
    "predicted.range" : "[0.0,600000.0]",
    "predictor.high_stream_flow_event_count.discretizer.options" : "-R 5  -B 3 -Y",
    "submitNodata" : "true",
    "predictor.broadleaf_forest_proportion_area_of_watershed.range" : "[0.0,0.45]",
    "classifier.file" : "classifier2577862515235649537.bin",
    "predictor.high_stream_flow_event_count.range" : "[0.0,10.5]",
    "predictor.riparian_broadleaf_forest_proportion_area_of_watershed.discretizer.cutpoints" : "[0.3333333333333333, 0.6666666666666666]",
    "instances.file.raw" : "rawinstances7615612625061720061.arff",
    "predicted.index" : "1",
    "predictor.high_stream_flow_event_count.index" : "5",
    "predictor.area_of_watershed.discretizer" : "weka.filters.unsupervised.attribute.Discretize",
    "predictor.riparian_broadleaf_forest_proportion_area_of_watershed.discretizer" : "weka.filters.unsupervised.attribute.Discretize",
    "classifier" : "weka.classifiers.bayes.BayesNet",
    "predictor.area_of_watershed.range" : "[0.0,750.0]",
    "predictor.riparian_broadleaf_forest_proportion_area_of_watershed.discretizer.options" : "-R 3  -B 3 -Y",
    "predicted.discretizer.options" : "-R 1  -B 3 -Y",
    "predictor.broadleaf_forest_proportion_area_of_watershed.discretizer" : "weka.filters.unsupervised.attribute.Discretize",
    "model" : "ml.waterq.high.ratio-of-nitrate-mass-during-winter-to-area-of-watershed-within-reach-learner",
    "classifier.options" : " -Q weka.classifiers.bayes.net.search.local.K2 -- -P 1 -E weka.classifiers.bayes.net.estimate.SimpleEstimator -- -A 1.0",
    "predicted.discretizer" : "weka.filters.unsupervised.attribute.Discretize",
    "predicted.name" : "nitrate_mass_during_winter_to_area_of_watershed_ratio_of_reach",
    "predictor.area_of_watershed.discretizer.cutpoints" : "[250.0, 500.0]",
    "instances.file" : "instances5328943318685972264.arff",
    "predictor.broadleaf_forest_proportion_area_of_watershed.discretizer.file" : "d_broadleaf_forest_proportion_area_of_watershed4966002365379885993.bin",
    "predictor.broadleaf_forest_proportion_area_of_watershed.discretizer.options" : "-R 4  -B 3 -Y",
    "predictor.riparian_broadleaf_forest_proportion_area_of_watershed.index" : "3",
    "predictor.high_stream_flow_event_count.discretizer.file" : "d_high_stream_flow_event_count4311694091352674578.bin",
    "predicted.discretizer.file" : "d_nitrate_mass_during_winter_to_area_of_watershed_ratio_of_reach9081942330468147358.bin",
    "predictor.area_of_watershed.discretizer.file" : "d_area_of_watershed2525613418611728549.bin",
    "classifier.probabilistic" : "true",
    "predictor.riparian_broadleaf_forest_proportion_area_of_watershed.range" : "[0.0,1.0]",
    "predictor.riparian_broadleaf_forest_proportion_area_of_watershed.discretizer.file" : "d_riparian_broadleaf_forest_proportion_area_of_watershed8939847217694770790.bin",
    "predictor.high_stream_flow_event_count.discretizer" : "weka.filters.unsupervised.attribute.Discretize",
    "predictor.broadleaf_forest_proportion_area_of_watershed.discretizer.cutpoints" : "[0.15, 0.3]",
    "predictor.high_stream_flow_event_count.discretizer.cutpoints" : "[3.5, 7.0]",
    "wekaVersion" : "3.8.3",
    "predictor.area_of_watershed.index" : "2",
    "predictor.area_of_watershed.discretizer.options" : "-R 2  -B 3 -Y",
    "predictor.broadleaf_forest_proportion_area_of_watershed.index" : "4",
    "predicted.discretizer.cutpoints" : "[200000.0, 400000.0]"
  },
  "localPaths" : [ "im.alice.spain\\resources/bn.no3.load.high.simple.cutchange/d_nitrate_mass_during_winter_to_area_of_watershed_ratio_of_reach9081942330468147358.bin", "im.alice.spain\\resources/bn.no3.load.high.simple.cutchange/d_area_of_watershed2525613418611728549.bin", "im.alice.spain\\resources/bn.no3.load.high.simple.cutchange/d_riparian_broadleaf_forest_proportion_area_of_watershed8939847217694770790.bin", "im.alice.spain\\resources/bn.no3.load.high.simple.cutchange/d_broadleaf_forest_proportion_area_of_watershed4966002365379885993.bin", "im.alice.spain\\resources/bn.no3.load.high.simple.cutchange/d_high_stream_flow_event_count4311694091352674578.bin", "im.alice.spain\\resources/bn.no3.load.high.simple.cutchange/instances5328943318685972264.arff", "im.alice.spain\\resources/bn.no3.load.high.simple.cutchange/rawinstances7615612625061720061.arff", "im.alice.spain\\resources/bn.no3.load.high.simple.cutchange/classifier2577862515235649537.bin" ],
  "history" : [ ],
  "notifications" : [ ],
  "attributes" : [ ],
  "spatialExtent" : null,
  "dependencies" : [ {
    "name" : "area_of_watershed",
    "type" : "NUMBER",
    "key" : true,
    "optional" : true,
    "exampleValue" : null
  }, {
    "name" : "riparian_broadleaf_forest_proportion_area_of_watershed",
    "type" : "NUMBER",
    "key" : true,
    "optional" : true,
    "exampleValue" : null
  }, {
    "name" : "broadleaf_forest_proportion_area_of_watershed",
    "type" : "NUMBER",
    "key" : true,
    "optional" : true,
    "exampleValue" : null
  }, {
    "name" : "high_stream_flow_event_count",
    "type" : "NUMBER",
    "key" : true,
    "optional" : true,
    "exampleValue" : null
  } ],
  "outputs" : null,
  "exportFormats" : {
    "bif" : "BIF bayesian network (.bif)",
    "xdsl" : "GENIE bayesian network (.xdsl)",
    "arff" : "Training dataset (ARFF)",
    "arff#raw" : "Raw training dataset (ARFF)",
    "model" : "WEKA Classifier (.model)",
    "model#predicted" : "WEKA discretizer for the predicted variable (.model)",
    "model#area_of_watershed" : "WEKA Discretizer for Area of watershed (.model)",
    "model#riparian_broadleaf_forest_proportion_area_of_watershed" : "WEKA Discretizer for Riparian broadleaf forest proportion area of watershed (.model)",
    "model#broadleaf_forest_proportion_area_of_watershed" : "WEKA Discretizer for Broadleaf forest proportion area of watershed (.model)",
    "model#high_stream_flow_event_count" : "WEKA Discretizer for High stream flow event count (.model)"
  }
}