@relation phosphate_mass_to_area_of_watershed_ratio_of_reach_instances

@attribute phosphate_mass_to_area_of_watershed_ratio_of_reach numeric
@attribute area_of_watershed numeric
@attribute urban_proportion_area_of_watershed numeric
@attribute outgoing_stream_count numeric
@attribute riparian_broadleaf_forest_proportion_area_of_watershed numeric

@data
855.01,9.6166,0.119,0,0
844.59,9.6046,0.118,0,0
739.69,9.528,0.114,0,0
855.24,9.4565,0.112,0,0
721.43,8.8947,0.104,0,0
707.87,8.5826,0.103,0,0
707.68,8.5213,0.104,0,0
747.71,8.2126,0.106,0,0
742.12,7.7126,0.093,0,0
686.75,16.7315,0.139,0,0
695.55,16.6883,0.137,0,0
664.2,15.9613,0.118,0,0
655.02,15.9188,0.116,0,0
656.63,15.7176,0.114,0,0
655.9,15.6156,0.111,0,0
552.75,15.4748,0.109,0,0
628.13,14.2805,0.083,0,0
524.92,14.2019,0.082,0,0
528.03,14.003,0.082,0,0
519.09,13.7591,0.079,0,0
523.13,12.8565,0.084,0,0
522.63,12.7342,0.085,0,0
689.38,17.1304,0.096,0,0.07143
693.04,17.1012,0.095,0,0.36965
601.83,16.9816,0.091,0,0.306595
615.99,16.7924,0.091,0,0.408145
827.19,5.4491,0.15,0,0.3124
856.89,5.4212,0.15,0,0
855.14,5.3987,0.15,0,0
835.19,5.0798,0.15,0,0
828.33,4.9799,0.15,0,0
822.73,4.9232,0.15,0,0
821.36,4.916,0.15,0,0
821.56,4.9088,0.15,0,0
824.66,4.871,0.15,0,0
824.87,4.862,0.15,0,0
823.1,4.8503,0.15,0,0
823.23,4.8305,0.15,0,0
825.66,4.8173,0.15,0,0
831.76,4.7218,0.15,0,0
808.06,4.342,0.121,0,0
728.24,3.9696,0.059,0,0
682.31,3.8908,0.059,0,0
676.06,3.8638,0.06,0,0
654.97,3.7916,0.058,0,0
655.94,3.6923,0.053,0,0
667.01,3.6396,0.053,0,0
365.85,2.5233,0.028,0,0
350.43,2.4569,0.022,0,0
596.34,2.3616,0.018,0,0
593.02,2.2733,0.008,0,0
277.54,2.1878,0.007,0,0
339.42,2.0547,0.008,0,0
682.31,9.6766,0.006,0,0
294.44,9.6448,0.005,0,0
293.89,9.6131,0.005,0,0
600.01,9.4322,0.002,0,0.01515
581.63,9.3102,0.001,0,0.38711
291.34,9.1301,0,0,0.52121
291.43,9.0272,0,0,0.46991
281.37,8.402,0,0,0.01818
285.29,8.195,0,0,0
291.16,8.052,0,0,0
304.31,5.4196,0,0,0
308.49,5.258,0,0,0
302.46,4.3703,0,0,0
303.35,4.3279,0,0,0.21212
308.9,4.2854,0,0,0.37879
321.22,4.0268,0,0,0.18919
324.94,3.9633,0,0,0.10811
339.28,3.6831,0,0,0.20635
358.92,3.6029,0,0,0
362.36,3.5187,0,0,0
365.03,3.422,0,0,0
829.41,34.5003,0.087,0,0.015765
853.6,13.7603,0.15,0,0
835.69,13.6937,0.15,0,0
498.09,20.6829,0.024,0,0
524.02,20.2191,0.011,0,0
754.08,20.2056,0.011,0,0
466.23,20.0654,0.009,0,0
371.29,19.9814,0.008,0,0
266.08,19.8052,0.008,0,0
270.93,18.7706,0.008,0,0.274725
232.04,17.5198,0.009,0,0.22971
269.62,17.1028,0.008,0,0.175
217.53,16.6972,0.005,0,0.23498
209.17,16.48,0.005,0,0.05775
462.06,4.8184,0.004,0,0.084945
346.07,4.7395,0.001,0,0
192.77,4.7278,0,0,0
188.61,4.6451,0,0,0
189.37,4.5267,0,0,0
197.63,4.3858,0,0,0.268295
193.54,4.2595,0,0,0.36364
193.59,4.1737,0,0,0.479165
170.44,4.0734,0,0,0.75
173.93,3.8558,0,0,0.859375
168.1,3.7264,0,0,0.79487
189.2,3.5496,0,0,0.919355
211.9,3.2083,0,0,0.789475
215.78,3.0111,0,0,0.84
173.24,11.6032,0.006,0,0.07143
698.29,3.398,0.004,0,0
704.26,3.3796,0.001,0,0.01923
298.77,3.3374,0,0,0.31579
314.69,3.1881,0,0,0.62857
305.49,2.803,0,0,0.5438
307.46,2.7635,0,0,0.47773
306.85,2.6946,0,0,0.4
376.09,2.6363,0,0,0.503595
440.76,1.8789,0,0,0
436.8,1.8132,0,0,0
237.23,8.1458,0.006,0,0
223.58,8.1006,0.003,0,0
253.33,7.9639,0.001,0,0
128.98,7.787,0,0,0.153155
126.76,7.5674,0,0,0.24074
126.77,7.4954,0,0,0.457785
128.75,7.2038,0,0,0.51963
124.66,6.8787,0,0,0.114035
124.91,6.364,0,0,0.53654
123.48,6.3059,0,0,0.48991
124.74,5.5243,0,0,0.625
126.18,5.4737,0,0,0.57044
239.84,2.8335,0,0,0.507695
240.77,2.7375,0,0,0.85185
800.04,13.4144,0.065,0,0.41739
803.27,13.4,0.065,0,0.05263
676.66,13.3848,0.065,0,0
711.34,13.2277,0.066,0,0
715,13.0396,0.067,0,0
682.77,12.4041,0.07,0,0
744.21,12.1102,0.068,0,0
691.32,11.8456,0.065,0,0
570.2,5.0972,0.034,0,0
288.93,4.8781,0.011,0,0.35135
591.85,4.8535,0.011,0,0.04348
523.8,4.7954,0.006,0,0.088235
472.18,4.483,0.006,0,0
472.37,4.4735,0.006,0,0
469.73,4.4357,0.006,0,0.20408
464.8,4.3601,0.005,0,0.2907
454.57,4.2372,0.004,0,0.40625
455.41,4.2073,0.004,0,0.423075
467.04,4.0418,0,0,0.345455
369.39,3.9859,0,0,0.20641
626.23,6.5423,0.073,0,0
722.84,6.505,0.071,0,0
674.8,6.3132,0.061,0,0.233765
701.06,6.1531,0.048,0,0.19244
613.74,5.5568,0.028,0,0.826475
686.43,5.4469,0.026,0,0
687.45,3.6931,0.037,0,0.135595
326.69,3.4266,0.009,0,0
322.61,3.4131,0.009,0,0
319.32,3.3996,0.009,0,0
302.09,3.3344,0.004,0,0
314.65,3.3182,0.004,0,0
315.85,3.1842,0.004,0,0
308.2,3.1455,0.004,0,0.01695
297.1,3.0353,0.004,0,0.422615
294.72,2.9985,0.004,0,0.33431
292.28,1.8794,0.006,0,0
305.26,1.79,0.006,0,0
297.21,1.5978,0.003,0,0
300.65,1.4926,0.003,0,0
150.93,13.7137,0.007,1,0
149.54,13.677,0.007,0,0
135.76,12.3449,0.006,0,0.058825
135.93,12.2371,0.004,0,0.2783
137.34,11.8856,0.004,0,0.038835
135.36,11.7615,0.004,0,0
133.29,11.3343,0,0,0
135.67,11.0416,0,0,0
134.08,10.7465,0,0,0
136.58,10.3877,0,0,0.30128
140.35,10.306,0,0,0.547985
165.12,9.3928,0,0,0.82353
166.05,9.0344,0,0,0.897435
166.21,8.9656,0,0,0.74138
163.15,8.68,0,0,0.463015
162.99,8.5931,0,0,0.23448
162.81,7.907,0,0,0.830055
162.06,7.1442,0,0,0.953125
161.11,7.0615,0,0,0.532355
152.72,6.2106,0,0,0.522895
168.77,6.0032,0,0,0.682925
129.34,5.1543,0,0,0.99
129.54,5.0872,0,0,0.99
127,4.9611,0,0,0.99
125.57,4.6511,0,0,0.99
122.16,3.9929,0,0,0.99
138.47,2.7023,0,0,0.99
138.41,2.6895,0,0,0.99
287.77,6.336,0,0,0
276.7,6.3205,0,0,0
162.43,6.2801,0,0,0
164.75,6.1847,0,0,0
180.27,6.1121,0,0,0
154.42,6.0238,0,0,0
210.77,41.7883,0.007,0,0.57567
359.42,40.6449,0.007,0,0.59663
338.78,37.943,0.006,0,0.090045
324.17,36.3051,0.005,0,0.164855
208.71,35.4352,0.004,0,0.247085
321.23,35.0694,0.004,0,0.10651
205.38,34.3327,0.003,0,0.12685
203.14,33.6832,0.003,0,0.295455
194.86,32.3521,0.003,0,0.08374
290.69,32.0693,0.003,0,0.04712
302.88,31.4426,0.002,0,0.081185
200.39,28.1856,0,0,0.35942
175.13,24.5995,0,0,0.620485
187.19,24.0732,0,0,0.50367
166.62,18.8781,0,0,0.427275
174.01,18.289,0,0,0.624895
179.95,17.8265,0,0,0.57471
199.01,17.3663,0,0,0.316475
196.05,17.118,0,0,0.044445
209.5,15.4034,0,0,0.08911
208.77,15.2922,0,0,0
206.83,15.1714,0,0,0
211.55,13.8878,0,0,0
211.25,13.8293,0,0,0.016395
205.39,13.4538,0,0,0
202.41,13.2464,0,0,0.06
198.02,5.5543,0,0,0
197.68,5.5411,0,0,0.289475
194.43,5.322,0,0,0.477085
194.32,5.286,0,0,0.826765
197.4,5.0747,0,0,0.94737
182.09,2.4104,0,0,0.921055
174.59,2.3622,0,0,0.99
221.77,7.5931,0,0,0.08869
221.16,7.4924,0,0,0.44422
212.84,7.2347,0,0,0.90278
203.67,7.011,0,0,0.90727
206.76,6.8608,0,0,0.611345
189.02,6.1448,0,0,0.59091
162.62,5.2721,0,0,0.99
164.77,5.1642,0,0,0.99
172.48,4.8549,0,0,0.716325
166.07,4.3544,0,0,0.954545
164.05,4.1604,0,0,0.7
163,4.1076,0,0,0.772725
165.21,3.8099,0,0,0.61905
165.04,3.7547,0,0,0.564105
685.53,59.0377,0.014,0,0.24189
484.66,56.6791,0.009,0,0.197125
325.75,54.8215,0.006,0,0.144225
591.52,53.95,0.004,0,0.186875
378.2,53.703,0.003,0,0.255255
349.75,52.8563,0.002,0,0.14079
315.78,52.3808,0.002,0,0.105455
308.63,51.923,0.002,0,0.1346
299.82,49.8964,0.002,0,0.403505
333.58,47.7149,0.001,0,0.12022
368.58,46.2063,0.001,0,0.419445
643.92,45.2816,0.001,0,0.164765
407.78,44.051,0.001,0,0.576545
419.3,43.3428,0.001,0,0.43732
418.5,42.9171,0.001,0,0.112785
377.32,42.6103,0.001,0,0.372455
330.53,41.8051,0.001,0,0.99
289.49,17.3782,0.002,0,0.705985
240.65,17.2857,0.002,0,0.67596
238.39,16.9559,0.002,0,0.696205
265.77,16.1879,0.002,0,0.68148
321.4,15.6527,0.002,0,0.99
320.02,15.5049,0.002,0,0.99
318.79,15.2869,0.002,0,0.898735
318.01,14.8333,0.002,0,0.615385
330.76,14.6887,0.002,0,0.7907
339.95,11.0582,0,0,0.99
340.38,11.0349,0,0,0.962965
282.8,10.8542,0,0,0.72235
283.68,10.6892,0,0,0.757405
286.25,10.4726,0,0,0.958335
284.33,7.4627,0,0,0.99
286.7,7.343,0,0,0.99
292.04,7.1383,0,0,0.99
285.61,6.9692,0,0,0.60382
289.62,6.6818,0,0,0.613635
254.43,5.0489,0,0,0.13248
295.54,3.5241,0,0,0.538725
295.4,3.4931,0,0,0.57223
297.01,3.363,0,0,0.462965
348.68,3.2543,0,0,0.76287
348.17,3.0206,0,0,0.919445
267.97,24.4219,0,0,0.592325
267.41,24.3457,0,0,0.37679
269.08,23.7499,0,0,0.450485
268.46,23.3166,0,0,0.471655
251.28,22.6713,0,0,0.604785
247.4,22.0945,0,0,0.92381
169.59,7.1299,0,0,0.85366
170.08,7.0827,0,0,0.61798
167.61,7.0063,0,0,0.77778
178.95,6.7499,0,0,0.76923
268.42,14.5956,0,0,0.99
260.78,14.5014,0,0,0.99
266.7,14.1702,0,0,0.99
260.53,13.9812,0,0,0.99
259.52,13.6411,0,0,0.99
241.29,13.2364,0,0,0.99
246.63,13.1004,0,0,0.99
247.78,12.6175,0,0,0.99
253.79,11.4605,0,0,0.99
243.71,10.8614,0,0,0.99
243.35,10.8051,0,0,0.962265
271.68,10.6863,0,0,0.91892
273.92,10.5892,0,0,0.99
243.12,8.9299,0,0,0.99
222.45,7.8423,0,0,0.99
227,7.808,0,0,0.99
229.94,7.7339,0,0,0.99
234.19,7.4619,0,0,0.99
234.91,7.4146,0,0,0.76083
248.18,3.7126,0,0,0.99
262.64,3.5085,0,0,0.99
260.37,3.4215,0,0,0.99
324.44,25.7714,0.009,0,0.0438
230.49,25.5392,0.008,0,0.14866
230.69,25.2957,0.008,0,0.27166
246.28,23.6643,0.009,0,0.40906
250.07,22.5727,0.009,0,0.534775
249.51,22.2579,0.009,0,0.36676
249.68,21.8518,0.009,0,0.436385
253.06,21.2561,0.01,0,0.088495
250.74,20.9856,0.01,0,0
255.29,19.8329,0.009,0,0
256.27,19.6445,0.009,0,0
441.65,7.7277,0.002,0,0.291665
417.51,7.5449,0,0,0.190475
236.57,7.4884,0,0,0.17647
246.26,7.3865,0,0,0.15909
231.87,5.1581,0,0,0.383075
231.63,5.105,0,0,0.584475
236.39,5.0385,0,0,0.675
243.98,4.5519,0,0,0.742605
239.2,11.7627,0.013,0,0.170795
266.77,11.6925,0.013,0,0.255335
267.24,11.3403,0.013,0,0.196975
508.75,11.1333,0.013,0,0
472.06,7.4699,0.012,0,0
490.01,7.1491,0.011,0,0
347.47,4.9966,0.015,0,0
343.51,4.85,0.015,0,0
347.31,3.8501,0.019,0,0
669.05,3.7592,0.02,0,0
661.94,3.5578,0.014,0,0.042555
580.76,2.5349,0.004,0,0.09091
241.12,2.4952,0.001,0,0
542.69,5.4347,0.075,0,0
541.69,5.4227,0.075,0,0
535.43,5.2787,0.074,0,0
145.55,39.5224,0.004,0,0.36364
149.1,36.7807,0.004,0,0.0854
151.5,36.4188,0.004,0,0.0825
144.34,36.2021,0.004,0,0.109455
143.93,34.4534,0.004,0,0.302325
147.19,33.699,0.002,0,0.062935
145.91,32.9313,0,0,0.035295
145.48,32.7664,0,0,0.28673
123.47,11.771,0,0,0.385885
123.44,11.6531,0,0,0.109525
123.35,11.2822,0,0,0.78788
114.85,10.7368,0,0,0.99
113.44,10.6075,0,0,0.923915
112.72,10.5337,0,0,0.847755
117.05,10.2842,0,0,0.78873
120.04,9.6259,0,0,0.7
128.8,9.2835,0,0,0.719015
134.27,9.2138,0,0,0.65517
146.76,9.1363,0,0,0.82222
155.24,8.8096,0,0,0.99
153.64,8.2304,0,0,0.99
148.63,7.3791,0,0,0.99
157.97,7.1345,0,0,0.857145
165.63,4.9022,0,0,0.846155
169.15,4.4707,0,0,0.741935
172.33,4.3543,0,0,0.9
167.22,20.7794,0,0,0.69691
167.7,19.9674,0,0,0.672915
164.52,19.4945,0,0,0.782935
164.45,19.4371,0,0,0.93913
166.38,18.6547,0,0,0.848
175.57,18.3067,0,0,0.478515
179.99,18.0988,0,0,0.588165
179.82,17.8753,0,0,0.99
179.17,17.4085,0,0,0.968255
180.12,16.2457,0,0,0.357145
178.54,15.3182,0,0,0.99
181.62,14.9034,0,0,0.75269
180.32,14.7381,0,0,0.64348
183.67,14.2194,0,0,0.77049
184.8,14.065,0,0,0.647725
181.85,12.7153,0,0,0.604865
201.95,10.8074,0,0,0.83486
213.24,10.6824,0,0,0.99
212,10.034,0,0,0.989475
236.97,8.2636,0,0,0.99
231.92,8.1213,0,0,0.99
225.62,7.988,0,0,0.99
247.57,7.8274,0,0,0.875
332.3,12.1429,0.005,0,0.93719
161.44,12.0877,0.005,0,0.3506
161,11.9513,0.004,0,0.486215
160.37,11.911,0.004,0,0.20345
160.67,11.8219,0.004,0,0.332975
163.96,11.7071,0.004,0,0.188055
186.14,10.8341,0.004,0,0.23143
201.25,9.7924,0.003,0,0.49123
204.44,9.6957,0.003,0,0.54716
208.48,9.2921,0.001,0,0.459525
198.17,9.0902,0.001,0,0.434885
193.46,8.9331,0.001,0,0.57484
193.82,8.7919,0.001,0,0.52552
193.22,8.2154,0.001,0,0.66593
173.26,6.9621,0,0,0.77778
206.82,4.9818,0,0,0.63166
209.65,4.9441,0,0,0.615385
208.62,4.9357,0,0,0.607315
207.26,4.8284,0,0,0.71493
221.55,4.7205,0,0,0.566135
212.21,4.0676,0,0,0.51336
221.27,4.0096,0,0,0.467575
226.11,3.9369,0,0,0.26154
220.55,3.6002,0,0,0.666665
243.53,3.5438,0,0,0.311905
314.08,28.8889,0.025,0,0.185185
430.76,27.8971,0.021,0,0.06733
429.78,27.6365,0.019,0,0.09886
325.04,26.9068,0.018,0,0.078655
329.79,26.6866,0.018,0,0.08561
379.83,9.2059,0.019,0,0.213235
367.27,9.0212,0.02,0,0.489035
366.03,8.9217,0.019,0,0.35551
472.77,8.5779,0.012,0,0.41078
498.62,8.488,0.007,0,0.712645
384.23,7.2558,0.007,0,0.269435
715.49,6.536,0.005,0,0.1797
699.12,6.442,0.003,0,0.11225
348.92,6.3323,0,0,0.48365
317.81,4.6828,0,0,0.465325
326.43,4.6339,0,0,0.387785
265.11,17.0936,0.017,0,0.040815
262.6,16.6684,0.018,0,0.20779
225.73,16.1227,0.011,0,0
225.19,16.0683,0.011,0,0
225.94,15.9758,0.011,0,0
233.48,14.7085,0.012,0,0
228.47,14.5229,0.011,0,0
226.96,14.1075,0.01,0,0.1571
240.13,13.0844,0.009,0,0.520925
239.48,12.7532,0.008,0,0.59931
237.04,12.4617,0.006,0,0.60345
284.14,11.6046,0,0,0.714285
302.95,10.8872,0,0,0.53375
325.25,10.5218,0,0,0.212935
327.37,9.1612,0,0,0.333335
315.9,4.21,0,0,0.26329
362.32,4.1682,0,0,0.3625
363.96,4.1123,0,0,0.51339
327.78,4.0173,0,0,0.51844
327.37,3.9195,0,0,0.39623
384.47,3.3242,0,0,0.655115
386.5,3.2718,0,0,0.481835
383.69,3.2165,0,0,0.542375
376.22,3.0972,0,0,0.548385
373.35,3.009,0,0,0.708335
379.8,2.8935,0,0,0.898875
458.71,2.6692,0,0,0.866665
260.16,4.9388,0,0,0.666665
269.27,4.8969,0,0,0.54895
280.53,4.7889,0,0,0.527235
323.39,4.6754,0,0,0.594595
296.71,4.5978,0,0,0.538395
300.31,4.4831,0,0,0.675675
317.7,4.1981,0,0,0.99
324.01,3.9203,0,0,0.885245
322.34,3.7415,0,0,0.737705
326.31,3.6355,0,0,0.56962
322.42,3.4043,0,0,0.55675
319.57,3.2565,0,0,0.6
209.11,20.7606,0.004,0,0
162.96,12.8512,0.007,0,0
164.07,12.6451,0.007,0,0
164.8,12.4893,0.007,0,0
163.8,12.3683,0.007,0,0
169.84,11.9212,0.007,0,0
187.04,9.5031,0,0,0
224.31,8.6178,0,0,0
223.88,8.564,0,0,0
225.47,8.1227,0,0,0
196.26,7.8421,0,0,0
183.94,7.624,0,0,0
157.53,7.3787,0,0,0
169.34,6.5723,0,0,0
166.83,6.4677,0,0,0
165.83,6.1241,0,0,0
170.01,6.0136,0,0,0
169.26,5.1245,0,0,0.042525
202.5,4.0217,0,0,0.27972
204.2,3.9763,0,0,0.26783
203.36,3.9175,0,0,0.37931
209.03,3.8608,0,0,0.384885
179.83,5.2455,0,0,0.726745
182.96,5.154,0,0,0.17886
182.97,4.9646,0,0,0.13889
173.82,1.9854,0,0,0.6875
175.29,1.9674,0,0,0.87827
184.55,1.8687,0,0,0.85326
444.06,53.1343,0.044,0,0.2722
606.44,51.8533,0.042,0,0.18256
329.03,6.0625,0.03,0,0
330.02,6.0493,0.03,0,0
345.55,6.022,0.03,0,0
346.08,5.9131,0.031,0,0
533.82,5.7927,0.025,0,0
769.09,45.6242,0.044,0,0
688.73,43.097,0.046,0,0.03715
577.98,42.7785,0.046,0,0.717575
518.6,42.3074,0.046,0,0.53071
688.55,40.7396,0.044,0,0.263635
691.51,39.5017,0.04,0,0.106995
643.86,38.9126,0.041,0,0
643.16,37.5104,0.041,0,0
735.11,27.9714,0.052,0,0
670.03,27.0376,0.052,0,0
678.78,26.7644,0.052,0,0
761.4,26.2101,0.051,0,0.059525
391.22,6.5605,0.006,0,0.364585
246.56,6.5422,0.005,0,0.40211
420.67,19.4198,0.064,0,0.063585
458.68,18.8708,0.065,0,0
436.19,18.3049,0.065,0,0.31585
404.71,18.2286,0.065,0,0.46851
415.73,17.9342,0.064,0,0.207205
400.44,17.5147,0.063,0,0
396.17,17.2493,0.062,0,0
7089.85,486.05191,0.025,3,0.320055
5256.67,485.60291,0.024,3,0.2216
3954.47,484.36389,0.023,3,0.07275
3077.73,483.6871,0.023,3,0.224015
4980.34,480.4982,0.021,3,0.322765
2901.93,478.62549,0.02,3,0.423035
2740.73,473.50089,0.02,3,0.27544
3493.22,473.0603,0.019,3,0.362505
2195.85,467.16129,0.018,3,0.220335
2761.85,466.05042,0.017,3,0.266215
3109.64,465.6011,0.017,3,0.452065
1991.89,465.3483,0.017,3,0.50915
1963.59,463.73959,0.017,3,0.51789
1913.92,463.50171,0.017,3,0.344505
3397.1,462.86581,0.017,3,0.07725
2276.87,461.5123,0.017,3,0.743515
2760.97,460.3324,0.017,3,0.550345
3435.67,459.0759,0.017,3,0.771655
3551.91,458.0238,0.017,3,0.454585
4715.23,457.6777,0.016,3,0.4
3330.42,453.96741,0.016,3,0.18058
3463.79,449.22989,0.015,3,0.238605
3165.39,443.68149,0.015,3,0.313955
2637.8,443.03891,0.015,3,0.334945
2929.55,441.4324,0.014,3,0.25644
309.2,33.0999,0.018,0,0.408285
310.07,32.58,0.018,0,0.37307
543.04,32.4877,0.017,0,0.266385
312.69,32.2783,0.016,0,0
319.59,12.0141,0.017,0,0
315.75,11.8149,0.016,0,0.049585
313.39,11.6841,0.016,0,0.17808
320.65,11.2595,0.016,0,0
314.35,11.0954,0.015,0,0
541.34,9.9502,0.015,0,0
587.83,7.2901,0.014,0,0
537.57,7.2414,0.011,0,0
277.09,7.0973,0.005,0,0
282.35,7.0344,0.004,0,0
283.4,6.9742,0.004,0,0
281.05,6.8367,0.004,0,0
280.72,6.794,0.004,0,0
293.05,19.9123,0.014,0,0
486.74,19.855,0.014,0,0
273.05,19.6863,0.011,0,0
266.5,19.4269,0.01,0,0
299.45,18.4822,0.009,0,0
309.47,18.2772,0.008,0,0
313.23,17.7614,0.006,0,0
299.67,17.4183,0.006,0,0
292.69,17.1351,0.006,0,0
568.07,17.0661,0.005,0,0
561.63,16.8878,0.002,0,0
595.53,16.7622,0.001,0,0
291.22,16.3296,0,0,0
289.94,16.1964,0,0,0
283.55,15.313,0,0,0
329.42,15.1065,0,0,0
269.99,14.5768,0,0,0
270.34,14.5021,0,0,0
254.39,14.3358,0,0,0.15697
255.17,14.188,0,0,0.296825
255.39,13.8541,0,0,0.26523
258.35,13.6575,0,0,0.133335
253.48,13.1125,0,0,0.28822
322.39,4.2779,0,0,0
239.64,8.417,0,0,0
237.6,8.387,0,0,0
240.18,8.271,0,0,0
240.37,8.168,0,0,0.053765
2868.94,407.09811,0.014,3,0
2835.55,406.87921,0.014,3,0.2093
5618.92,406.45969,0.014,3,0.183335
3493.04,402.88699,0.013,3,0.21642
2814.81,400.93619,0.013,3,0.01802
2495.98,399.47559,0.012,2,0.074935
2221.04,398.39139,0.012,2,0.25862
1064.81,38.2155,0.063,1,0
1109.43,37.5507,0.062,1,0
1141.56,37.3535,0.06,1,0
1274.86,36.8822,0.06,1,0
791.57,36.7024,0.059,1,0
788.89,35.8912,0.058,0,0
729.29,11.6197,0.037,0,0
710.81,11.5855,0.036,0,0
730.36,11.4623,0.03,0,0
684.61,11.3781,0.025,0,0
684.62,11.3511,0.024,0,0
635.94,7.5073,0.029,0,0
320.01,7.1726,0.022,0,0
310.55,6.8707,0.016,0,0
294.96,6.7792,0.012,0,0
294.96,6.7756,0.012,0,0
577.05,6.7693,0.012,0,0
288.54,6.6717,0.012,0,0
614.78,6.5673,0.01,0,0
540.79,6.5281,0.007,0,0
601.59,6.5236,0.007,0,0
282.01,6.4525,0.006,0,0
804.95,23.0947,0.048,0,0
719.79,22.4707,0.043,0,0
860.91,22.3795,0.041,0,0
732.63,22.2943,0.04,0,0
845.13,22.1558,0.04,0,0
846.4,22.0465,0.04,0,0
844.26,21.9302,0.04,0,0
850.23,21.7769,0.04,0,0
918.75,21.2767,0.036,0,0.03
1054.1,20.9607,0.036,0,0
772.11,20.6261,0.031,0,0
741.64,20.093,0.031,0,0
386.88,15.5364,0.029,0,0.68681
395.72,15.3918,0.029,0,0.99
399.23,15.3689,0.029,0,0.62567
402.13,15.2008,0.029,0,0.016305
404.24,15.0067,0.029,0,0
403.35,13.8621,0.028,0,0
406.06,13.3834,0.027,0,0
416.32,9.2251,0.03,0,0.05932
637.45,8.2382,0.023,0,0
647.12,8.1938,0.023,0,0
785.55,8.0352,0.02,0,0
382.15,7.966,0.019,0,0
822.41,7.3701,0.015,0,0
870.66,7.0189,0.01,0,0
402.21,6.5132,0.007,0,0
1898.22,359.9191,0.007,1,0.263465
303.15,4.007,0.012,0,0.241665
298.45,3.9638,0.012,0,0
296.38,3.9566,0.012,0,0
298.55,3.95,0.012,0,0
308.76,3.9329,0.012,0,0
332.03,3.8068,0.012,0,0
329.89,3.7725,0.012,0,0
1870.04,355.35049,0.006,1,0.619425
1948.36,354.74881,0.006,1,0.503855
1993.09,354.3634,0.006,1,0.645145
276.18,10.6825,0.013,0,0.50909
262.03,10.6066,0.011,0,0
259.31,9.0924,0.001,0,0
284.08,9.0128,0,0,0
295.88,8.9329,0,0,0
294.07,8.8595,0,0,0
283.73,8.7561,0,0,0
281.7,8.6643,0,0,0
287.12,8.3776,0,0,0
288.82,8.293,0,0,0
271.9,8.1969,0,0,0
262.39,8.0907,0,0,0
267.23,5.854,0,0,0
256.75,5.6809,0,0,0
230.18,4.3079,0,0,0
236.54,4.2823,0,0,0
236.24,4.0236,0,0,0
233.05,3.9978,0,0,0
225.67,3.9561,0,0,0.33594
224.41,3.6693,0,0,0.302725
231.05,3.105,0,0,0.089965
199.6,2.9678,0,0,0.239765
188.56,2.9323,0,0,0.290215
154.59,2.7259,0,0,0.523285
148.49,2.3365,0,0,0.732145
2240.98,342.79861,0.005,1,0.817625
1395.8,342.4592,0.005,1,0.4456
1420.11,342.23129,0.005,1,0.234785
1835.63,341.63611,0.005,1,0.092105
2162.98,340.9137,0.005,1,0.190475
2252.7,340.62421,0.005,1,0.0061
1986.24,340.36609,0.005,1,0
2368.36,339.76129,0.005,1,0
2274.91,339.24429,0.005,1,0.019765
348.91,38.3095,0.005,0,0.47473
182.15,37.9495,0.003,0,0.215715
192.01,33.4298,0.002,0,0.19322
203.02,32.9808,0.002,0,0.178385
187.26,32.3801,0,0,0.239685
179.98,30.8688,0,0,0.31194
197.27,29.4069,0,0,0.23787
198.84,29.2152,0,0,0.29235
204.24,28.9165,0,0,0.214955
196.25,27.3941,0,0,0.18705
223.42,26.5136,0,0,0.29565
215.53,26.0519,0,0,0.465385
211.78,25.8368,0,0,0.809245
213.78,25.4152,0,0,0.79412
213.99,25.0021,0,0,0.547825
218.55,24.036,0,0,0.35676
218.53,23.8703,0,0,0.21839
222.87,21.9071,0,0,0.45283
235.98,5.6299,0,0,0
235.46,5.6066,0,0,0
233.2,5.5595,0,0,0.058825
230.82,5.5181,0,0,0.44762
233.77,5.4372,0,0,0.23077
208.54,3.7123,0,0,0.438595
208.53,3.6619,0,0,0.625
205.49,3.6203,0,0,0
205.27,3.6157,0,0,0.51265
204.96,3.5815,0,0,0.75862
206.92,3.5088,0,0,0.875
207.91,3.4554,0,0,0.76
214.66,3.3541,0,0,0.60465
263.4,3.1956,0,0,0.148715
202.84,16.1518,0,0,0.33818
202.83,16.0462,0,0,0.54003
195.91,12.8456,0,0,0.750165
208.4,12.6551,0,0,0.826085
173.02,10.2255,0,0,0.869695
172.33,10.0453,0,0,0.761975
173.32,9.9562,0,0,0.860345
203.89,6.0589,0,0,0.7193
203.3,6.008,0,0,0.563055
201.72,5.9391,0,0,0.73077
208.08,5.8169,0,0,0.90625
211.45,5.7202,0,0,0.646125
225.28,5.6256,0,0,0.455445
224.31,5.474,0,0,0.37736
219.62,4.3252,0,0,0.480905
236.79,3.7209,0,0,0.52738
218.18,3.6577,0,0,0.531705
232.59,3.5047,0,0,0.54762
233.27,3.4557,0,0,0.596155
228.77,3.3384,0,0,0.636365
230,3.1738,0,0,0.651165
230.91,3.1267,0,0,0.941175
2491.56,300.4527,0.005,1,0.009755
1381.28,300.04901,0.005,1,0
1571.22,299.56479,0.004,0,0
1554.08,298.08231,0.004,0,0.10649
1562.9,297.09171,0.004,0,0.367785
1417.26,294.978,0.004,0,0.285715
1399.03,294.47141,0.004,0,0.1875
1376.08,284.41629,0.004,0,0.198715
970.99,284.13281,0.004,0,0.263445
1064.45,282.54861,0.004,0,0.170145
1357.91,281.8887,0.004,0,0.107955
582.89,11.5301,0.003,0,0
1103.87,11.5106,0.003,0,0
1186.93,11.3299,0.002,0,0
1126.9,11.3022,0,0,0.074075
579.14,11.1997,0,0,0.30769
573.26,11.0108,0,0,0.759245
573.87,10.8948,0,0,0.697155
568.95,10.7176,0,0,0.569855
569.55,10.4941,0,0,0.374095
573.84,10.1096,0,0,0.538555
562.07,9.9342,0,0,0.663415
563.39,9.8089,0,0,0.602065
480.76,9.5153,0,0,0.489835
468.85,8.8118,0,0,0.01282
511.05,7.9657,0,0,0
590.04,7.7911,0,0,0
465.61,5.3404,0,0,0.22
470.42,5.2694,0,0,0.34375
475.44,5.0503,0,0,0.59896
459.58,4.7878,0,0,0.87619
453.93,4.6643,0,0,0.876925
453.43,4.2723,0,0,0.972975
454.15,4.2268,0,0,0.96
1186.77,269.72101,0.004,0,0
962.01,268.98691,0.004,0,0
1259.65,268.7742,0.004,0,0
480.41,12.7008,0.032,0,0.2093
478.83,12.5089,0.032,0,0.151515
884.21,12.4341,0.032,0,0.272725
953.46,9.361,0.033,0,0
531.81,7.0173,0.009,0,0
532.91,7.0056,0.009,0,0
460.48,6.9552,0.009,0,0
975.78,6.8927,0.008,0,0
1093.68,6.8542,0.007,0,0
969.11,6.6825,0.004,0,0
484.32,6.5643,0.004,0,0
454.79,6.2229,0.003,0,0
777.6,255.58949,0.002,0,0.07985
771.68,254.47639,0.002,0,0.25972
1053.36,253.25211,0.002,0,0.68234
1086.17,252.2554,0.002,0,0.510145
1087.01,251.6273,0.002,0,0.38589
621.27,250.3271,0.002,0,0.329895
613.05,248.97639,0.001,0,0.423075
621.97,247.19279,0.001,0,0.235295
369.15,21.0444,0.002,0,0.560955
379.74,20.9281,0.002,0,0.132055
391.77,20.4114,0.002,0,0
390.14,20.0737,0.002,0,0
387.12,19.8869,0.002,0,0
377.57,19.6535,0.002,0,0
376.84,19.2407,0.002,0,0
383.09,18.6273,0.003,0,0.0527
386.4,17.6821,0.003,0,0.31148
387.5,17.5028,0.003,0,0.43869
389.82,16.3338,0.003,0,0.36651
392.92,15.7745,0.003,0,0.522155
398.79,15.2636,0.003,0,0.635135
391.03,14.1282,0.003,0,0.588235
391.21,13.6431,0.003,0,0.613335
394.44,13.4815,0.002,0,0.54293
395.23,13.3435,0.001,0,0.58242
387.43,12.4411,0,0,0.692325
387.25,12.3088,0,0,0.9875
371.48,10.9951,0,0,0.882355
379.3,10.8932,0,0,0.9863
379.36,10.5102,0,0,0.99
363.77,10.3367,0,0,0.99
353.94,7.829,0,0,0.99
349.91,7.0961,0,0,0.99
350.13,7.0234,0,0,0.99
353.7,6.865,0,0,0.99
360.68,5.8837,0,0,0.608695
360.2,5.8383,0,0,0.89539
359.81,5.6202,0,0,0.89394
360.05,5.5398,0,0,0.9
366.16,5.2513,0,0,0.826925
363.64,5.1421,0,0,0.826925
361.38,5.0693,0,0,0.803155
352.97,4.8557,0,0,0.58581
351.68,4.7136,0,0,0.529365
360.14,4.4851,0,0,0.841125
369.2,4.2804,0,0,0.51738
371.44,4.18,0,0,0.35956
549.68,226.1209,0.001,0,0.434475
531.88,223.95531,0.001,0,0.39178
532.05,223.59039,0.001,0,0.214525
534.39,220.52901,0.001,0,0.0998
537.19,219.88589,0.001,0,0.00769
540.15,219.10201,0.001,0,0.348535
384.08,10.3397,0,0,0.763635
401.94,10.3032,0,0,0.660225
393.29,10.0344,0,0,0.603175
393.34,9.9752,0,0,0.57976
565.15,207.43739,0.001,0,0.68954
547.72,207.0473,0.001,0,0.32956
627.65,204.26019,0.001,0,0.243785
604.29,203.8009,0.001,0,0.75
353.68,77.9236,0,0,0.922985
369.54,77.77,0,0,0.8931
368.71,77.1748,0,0,0.969695
360.46,76.3097,0,0,0.865385
348.22,75.6782,0,0,0.86207
408.7,75.2935,0,0,0.80937
475.38,74.8452,0,0,0.604535
470.84,74.4037,0,0,0.408875
507.93,72.238,0,0,0.343145
526.17,71.0992,0,0,0.58621
334.27,70.3047,0,0,0.507225
299.22,69.7485,0,0,0.479005
312.82,68.714,0,0,0.621415
408.35,6.3589,0,0,0.147995
401.36,6.3385,0,0,0.392155
370.39,6.2626,0,0,0.733335
304.88,4.3532,0,0,0.55
306.98,4.2851,0,0,0.67852
278.89,3.9434,0,0,0.8
296.25,3.8484,0,0,0.7
302.13,61.7783,0,0,0.69958
295.67,60.4102,0,0,0.529635
206.83,24.1824,0,0,0.57569
201.45,21.6595,0,0,0.871705
200.14,21.5817,0,0,0.85
198.52,21.4926,0,0,0.866955
194.49,21.1917,0,0,0.99
195.61,20.9529,0,0,0.99
195.6,20.75,0,0,0.99
197.19,20.544,0,0,0.99
198.83,20.142,0,0,0.99
229.69,19.5149,0,0,0.99
218.67,17.5435,0,0,0.99
215.92,15.9124,0,0,0.88298
220.13,15.7865,0,0,0.698115
228.27,15.4721,0,0,0.714285
244.56,12.2632,0,0,0.63793
250.61,12.1979,0,0,0.649125
247.8,11.992,0,0,0.67164
262.53,11.8111,0,0,0.72174
254.04,11.4766,0,0,0.72381
258.51,11.2519,0,0,0.65278
263.93,11.0883,0,0,0.824175
264.3,10.897,0,0,0.915965
224.1,8.3215,0,0,0.95238
255.2,8.1613,0,0,0.627905
315.95,4.8627,0,0,0.75
261.94,4.3445,0,0,0.99
259.1,4.2975,0,0,0.99
256.3,4.1229,0,0,0.99
257.91,4.0941,0,0,0.99
257.43,4.0207,0,0,0.99
314.82,35.8227,0,0,0.385645
326.9,35.387,0,0,0.527335
325.76,35.1027,0,0,0.886365
324.1,31.8973,0,0,0.99
332.4,31.7562,0,0,0.99
306.74,31.5886,0,0,0.99
319.02,31.1495,0,0,0.99
315.23,30.886,0,0,0.99
308.55,29.8501,0,0,0.99
326.79,29.6013,0,0,0.99
290,20.4405,0,0,0.99
287.11,20.3218,0,0,0.99
286.85,20.0552,0,0,0.99
288.47,19.679,0,0,0.99
287.36,19.0995,0,0,0.99
400.53,125.3795,0.002,0,0.84112
385.97,124.7808,0.001,0,0.885415
378.08,123.5017,0.001,0,0.99
378.77,122.9628,0.001,0,0.973915
376.22,122.2491,0.001,0,0.710845
375.44,121.1095,0.001,0,0.80841
381.77,120.5288,0.001,0,0.625
388.68,118.7907,0.001,0,0.452775
374.11,117.2898,0.001,0,0.524895
361.96,113.7115,0,0,0.581045
350.14,111.4015,0,0,0.570155
394.34,17.4541,0,0,0.35459
394.14,17.399,0,0,0.433985
388.19,17.2064,0,0,0.769775
354.13,15.6985,0,0,0.406545
301.06,15.4657,0,0,0.521825
302.55,15.2055,0,0,0.663795
290.52,15.0079,0,0,0.99
371.4,2.5626,0,0,0.973685
379.67,2.5379,0,0,0.61884
381.23,2.5017,0,0,0.53515
377.8,2.4635,0,0,0.48534
376.83,2.371,0,0,0.576525
382.19,2.2505,0,0,0.68269
342.51,2.1678,0,0,0.714285
365.78,2.0392,0,0,0.903225
331.86,1.8705,0,0,0.81818
338.17,1.8586,0,0,0.57159
235.08,12.2409,0,0,0.957145
244.33,12.0699,0,0,0.98387
238.55,11.8514,0,0,0.89412
238.06,11.7489,0,0,0.99
247.97,11.1253,0,0,0.99
278.59,10.86,0,0,0.8123
262.69,10.7817,0,0,0.605255
280.58,10.3861,0,0,0.56473
329.43,10.2015,0,0,0.55172
419.02,4.5881,0,0,0
420.27,4.5513,0,0,0
420.11,4.519,0,0,0.035295
416.44,4.1049,0,0,0
436.22,4.0118,0,0,0
470.01,3.9356,0,0,0
440.13,3.8364,0,0,0
432.75,3.2422,0,0,0
447.24,3.1489,0,0,0
430.48,1.9937,0,0,0
430.13,1.9427,0,0,0
431.29,1.8891,0,0,0
431.95,1.8013,0,0,0
434.89,1.6,0,0,0
434.7,1.5277,0,0,0
241.27,5.5034,0,0,0.597485
233.25,5.4288,0,0,0.666665
226.51,5.1147,0,0,0.56604
229.85,4.8543,0,0,0.99
227.5,4.8342,0,0,0.580645
212.31,4.5342,0,0,0.41259
212.34,4.457,0,0,0.65909
212.08,4.4001,0,0,0.92857
200.73,3.9392,0,0,0.99
210.59,3.3898,0,0,0.99
210.54,3.3423,0,0,0.99
306.59,93.9025,0,0,0.706085
297.55,93.4079,0,0,0.755755
299.29,92.5861,0,0,0.763855
334.65,8.0363,0,0,0.902255
335.16,8.0218,0,0,0.930235
335.26,7.9883,0,0,0.67478
331.27,7.7706,0,0,0.99
392.19,7.5708,0,0,0.99
325.53,7.3554,0,0,0.88679
314.1,7.2931,0,0,0.80531
401.82,7.1119,0,0,0.99
399.23,6.8232,0,0,0.98734
398.96,6.6447,0,0,0.92857
399.79,6.3753,0,0,0.94231
391.53,5.9951,0,0,0.841465
389.01,5.9429,0,0,0.944445
369.32,5.0911,0,0,0.99
380.18,4.9421,0,0,0.99
371.91,4.3566,0,0,0.99
373.25,4.3225,0,0,0.99
304.55,3.7859,0,0,0.99
307.93,3.1158,0,0,0.99
280.2,84.2774,0.001,0,0.66164
281.32,82.2072,0.001,0,0.560855
281.98,81.8702,0.001,0,0.545675
278.32,80.0117,0.001,0,0.555235
275.53,79.3125,0.001,0,0.45598
275.75,78.5387,0.001,0,0.5158
454.7,77.5969,0,0,0.495555
272.17,75.9621,0,0,0.67806
268.45,75.6713,0,0,0.219285
236.46,28.5471,0,0,0.77698
235.12,28.3803,0,0,0.665445
238.68,28.0741,0,0,0.60417
231.44,26.8315,0,0,0.676925
231.16,26.5279,0,0,0.56224
228.2,26.1217,0,0,0.534245
233.8,25.5606,0,0,0.609755
228.32,24.8917,0,0,0.612905
231.15,23.1392,0,0,0.563025
217.45,22.8081,0,0,0.55944
210.79,21.9943,0,0,0.54535
210.08,21.8887,0,0,0.588235
215.23,21.3061,0,0,0.73077
194.08,19.1574,0,0,0.72222
194.11,18.4126,0,0,0.99
192.37,18.1994,0,0,0.718445
200.41,18.0648,0,0,0.80613
208.19,17.2755,0,0,0.78083
204.63,16.5642,0,0,0.80263
210.32,14.124,0,0,0.71554
197.83,13.9195,0,0,0.90687
196.88,13.8542,0,0,0.600915
209.83,2.4644,0,0,0
210.58,2.4578,0,0,0.99
205.43,2.4218,0,0,0.94872
206.3,2.3995,0,0,0.83721
208.48,2.3564,0,0,0.857145
257.83,2.2934,0,0,0.6875
248.28,2.215,0,0,0.601445
190.31,2.1244,0,0,0.503605
186.94,2.0011,0,0,0.814285
192.55,1.8505,0,0,0.61017
196,11.0234,0,0,0.3125
201.31,10.5102,0,0,0.73803
200.62,10.4555,0,0,0.85457
247.6,9.6531,0,0,0.60858
239.93,9.5679,0,0,0.545735
249.8,9.2448,0,0,0.99
212.33,3.8846,0,0,0.99
211.81,3.8614,0,0,0.97222
207.99,3.8285,0,0,0.592375
212.48,3.7894,0,0,0.44737
209.64,3.7363,0,0,0.329085
236.25,46.6372,0,0,0.538315
247.23,46.18,0,0,0.395175
266.16,45.6033,0,0,0.142425
268.36,44.9148,0,0,0.25791
290.48,43.6549,0,0,0.602275
291.48,41.5246,0,0,0.284485
278.01,41.1111,0,0,0.467855
259.11,40.6411,0,0,0.61634
228.36,37.9351,0,0,0.99
225.45,37.1891,0,0,0.99
253.48,34.3322,0,0,0.99
223.87,33.9993,0,0,0.99
225.49,33.5236,0,0,0.9802
218.18,32.496,0,0,0.99
238.02,32.1793,0,0,0.99
265.21,30.772,0,0,0.99
250.33,30.4659,0,0,0.99
247.5,30.174,0,0,0.99
230.28,29.8112,0,0,0.93048
252.61,28.558,0,0,0.99
225.77,27.0454,0,0,0.828125
231.41,26.688,0,0,0.98131
229.13,26.1286,0,0,0.778525
264.01,9.3103,0,0,0.955555
212.1,16.6075,0,0,0.959595
210.23,16.5297,0,0,0.89394
210.57,16.4401,0,0,0.913385
210.49,16.2387,0,0,0.99
246.09,15.0611,0,0,0.99
233.86,13.2507,0,0,0.99
233.37,13.1299,0,0,0.880435
219.23,12.8984,0,0,0.91971
220.99,12.7023,0,0,0.99
224.3,12.4765,0,0,0.82558
226.91,11.815,0,0,0.99
226.74,11.5521,0,0,0.99
274.91,10.6212,0,0,0.895835
271.02,9.8468,0,0,0.99
233.15,7.9136,0,0,0.666665
233.12,7.8943,0,0,0.258335
235.28,7.8269,0,0,0.492575
235.53,7.7334,0,0,0.538145
235.65,7.6818,0,0,0.441205
233.04,7.2412,0,0,0.42763
142.94,7.4839,0,0,0.31818
143.48,7.3589,0,0,0.373015
149.72,7.2354,0,0,0.677375
155.55,7.1562,0,0,0.672455
190.57,20.4768,0,0,0
186.98,9.8686,0,0,0
223.54,9.6977,0,0,0.02857
223.12,9.5391,0,0,0.141025
242.4,9.442,0,0,0
228.32,9.3125,0,0,0.065935
241.76,9.1584,0,0,0.3
155.3,8.5072,0,0,0.29285
156.64,8.4519,0,0,0.2403
153.93,8.3032,0,0,0.55714
185.61,6.943,0,0,0.397505
184.95,6.8895,0,0,0.115885
191.63,6.7408,0,0,0.1412
188.93,6.6513,0,0,0.379165
129.88,10.5189,0,0,0
129.88,10.4979,0,0,0
129.87,10.0737,0,0,0
135.17,9.5458,0,0,0.09434
133.79,9.4601,0,0,0.21416
127.21,6.9374,0,0,0.17051
129.69,6.8577,0,0,0.114955
139.74,6.0495,0,0,0.2037
150.17,5.8623,0,0,0.185725
149.35,5.763,0,0,0.15778
149.78,5.7135,0,0,0
141.73,4.4172,0,0,0
139.17,4.3913,0,0,0
144.8,4.1246,0,0,0
146.56,4.0818,0,0,0
706.44,122.803,0.044,3,0.34338
877.8,122.1368,0.044,3,0.66771
705.12,121.4806,0.044,3,0.40924
790.27,121.0923,0.043,3,0.2824
851.8,119.6545,0.042,3,0.081675
861.16,118.8819,0.041,3,0.10296
835.56,118.7781,0.041,3,0.13275
957.02,113.4751,0.041,3,0.109435
619.43,104.9948,0.043,3,0.077885
1051.89,104.1667,0.042,3,0.12137
785.93,101.5975,0.038,3,0.124035
531.88,94.9581,0.037,3,0.08298
372.44,92.0364,0.034,3,0.216255
570.8,91.6532,0.033,3,0.226205
692.6,90.6243,0.031,3,0.149745
2975.69,639.84741,0.033,3,0
2930.82,637.96808,0.033,3,0
3498.61,636.92139,0.033,3,0.299435
3341.36,636.05872,0.032,3,0.11837
3331.64,632.34167,0.032,3,0.1537
6784.39,631.45172,0.032,3,0
4384.16,625.89758,0.03,3,0
6846.86,625.65527,0.03,3,0
7395.89,622.25317,0.029,3,0.112405
7500,620.21021,0.029,3,0.00926
7500,618.49329,0.029,3,0.09091
7455.46,617.95947,0.029,3,0.0898
5598.89,613.78583,0.029,3,0.109695
4284.67,613.26349,0.029,3,0.28065
3639.5,612.28632,0.029,3,0.242025
3969.17,611.6076,0.029,3,0.27602
5101.35,610.94421,0.029,3,0.141175
4286.47,610.04651,0.029,3,0.09518
4095.96,606.91193,0.029,3,0.573085
4822.68,606.0733,0.029,3,0.298315
4214.84,605.78833,0.029,3,0.219445
1111.21,17.5881,0.059,2,0.068965
1115.45,17.4234,0.056,2,0.02778
1119.26,17.0899,0.053,2,0
1110.21,16.4774,0.044,2,0
1128.52,16.2806,0.039,2,0
1241.64,15.7705,0.03,2,0
1102.04,15.269,0.027,2,0
1028.16,15.0539,0.022,1,0
552.04,13.6992,0.023,1,0
569.18,13.6517,0.023,1,0
374.47,3.3963,0,0,0
329.88,3.3312,0,0,0
330.39,3.2365,0,0,0
329.94,3.1018,0,0,0
332.1,2.8756,0,0,0
333.73,2.7071,0,0,0
333.84,2.6076,0,0,0
335.03,2.491,0,0,0
371.19,1.313,0,0,0
371.19,1.2982,0,0,0
632.02,10.1286,0.03,1,0
760.98,10.1085,0.03,1,0
426.47,9.7211,0.03,1,0
4098.58,587.61469,0.027,3,0.074665
4397.87,587.1496,0.027,3,0.093215
3541.92,586.19263,0.027,3,0.092515
3648.76,585.03302,0.027,3,0.0424
4019.77,583.93201,0.027,3,0.013945
4014.73,582.72021,0.027,3,0.261435
3321.9,579.59692,0.026,3,0.239565
3443.29,578.93622,0.026,3,0.16235
3316.29,578.65942,0.026,3,0.25089
3444.32,575.57971,0.026,3,0.245775
353.51,10.0819,0.034,0,0
371.25,9.991,0.035,0,0
376.83,9.9454,0.035,0,0
374.59,9.9159,0.035,0,0
368.8,8.5948,0.033,0,0
381.12,8.5647,0.033,0,0
378.59,8.4165,0.033,0,0
558.32,6.0974,0.041,0,0
569.04,6.0291,0.038,0,0
606.04,5.5748,0.039,0,0
429.68,5.5347,0.034,0,0.309315
437.07,5.3519,0.022,0,0.205555
407.62,5.2814,0.021,0,0.121765
350.64,4.9336,0.021,0,0.216375
3604.09,565.36267,0.026,3,0.192185
3250.97,564.46539,0.025,3,0.112075
3418.3,564.12769,0.025,3,0.2456
4262.93,563.10107,0.025,3,0.052895
3592.19,562.82391,0.025,3,0.01348
1398.95,199.2063,0.044,3,0.238625
1329.4,198.6823,0.044,3,0.44187
1505.35,198.1642,0.044,3,0.203635
1535.86,197.55611,0.044,3,0.202615
1668.2,193.6947,0.044,3,0.174405
1693.42,193.19881,0.044,3,0.142545
1766.42,192.56779,0.044,3,0.128085
1765.9,191.28529,0.043,3,0.395385
1777.58,191.1485,0.043,3,0.21265
1711.16,190.45959,0.043,3,0.21212
1758.1,187.8696,0.042,3,0.0857
2304.7,187.5332,0.042,3,0.086545
2172.69,186.6778,0.042,3,0.25
2036.25,185.2756,0.043,3,0.12823
2394.65,184.5824,0.043,3,0.17509
2235.5,182.6189,0.042,3,0.234575
529.99,3.8625,0.018,0,0.145835
852.39,3.8257,0.018,0,0
972.33,3.8158,0.017,0,0
777.66,3.7502,0.012,0,0
773.59,3.7283,0.011,0,0
762.07,3.687,0.007,0,0
722.89,3.665,0.006,0,0
2530.2,178.2041,0.042,3,0.19479
2277.28,176.7375,0.042,3,0.26087
2332.35,175.9922,0.042,3,0.2034
2321.53,175.2285,0.042,3,0.17388
2746.86,173.8806,0.042,3,0.16255
2644.52,173.45419,0.041,3,0.15142
3137.41,169.0372,0.042,3,0.153795
2282.74,168.08411,0.04,3,0.18194
1406.1,32.529,0.126,1,0.097725
1332.83,32.4206,0.126,1,0.122335
1409.52,32.0175,0.125,1,0
1618.67,31.1519,0.12,1,0
938.03,27.5549,0.112,1,0
944.88,27.4553,0.111,0,0.068495
840.5,27.1904,0.104,0,0.06
842.15,27.1314,0.104,0,0.053045
1029.46,135.1031,0.019,3,0.10106
1165.57,134.11909,0.016,3,0.083085
2016.1,133.4446,0.014,3,0.12239
1180.81,132.8058,0.012,3,0.23843
1153.35,132.3324,0.012,3,0.38383
1264.46,131.7813,0.012,3,0.57639
1127.82,130.9512,0.012,3,0.458335
2164.44,129.3645,0.012,3,0.26694
1132.5,129.11659,0.012,3,0.230575
2481.33,128.2478,0.012,3,0.22222
470.24,7.1786,0.012,1,0.18216
521.46,7.1372,0.012,0,0.302945
468.64,7.054,0.013,0,0.381935
471.64,6.9286,0.013,0,0.67647
540.78,6.5931,0.014,0,0.67347
1147.36,120.5726,0.012,3,0.294835
1621.91,120.2723,0.012,3,0.396605
860.54,119.9191,0.012,3,0.49148
866.46,119.1146,0.012,3,0.269575
1606.96,118.3678,0.012,3,0.509195
1935.12,117.9306,0.012,3,0.676925
2060.22,117.2042,0.012,3,0.757575
1107.83,116.8884,0.012,3,0.892855
800.17,10.2957,0.039,0,0.96774
797.74,10.2558,0.039,0,0.76389
868.36,8.8298,0.042,0,0.20202
912.05,8.8211,0.042,0,0
953.7,8.8095,0.042,0,0
868.51,8.7168,0.04,0,0
891.62,8.585,0.038,0,0
766.98,3.9603,0.042,0,0
750.92,3.9395,0.041,0,0
731.03,3.7409,0.042,0,0
715.41,3.6638,0.043,0,0
731.37,3.6377,0.044,0,0
704.03,3.4095,0.046,0,0
683.61,2.8232,0.055,0,0
682.98,2.729,0.057,0,0
731.59,2.6182,0.05,0,0
714.9,2.5963,0.047,0,0
927.82,106.5532,0.009,3,0.57143
858.01,106.108,0.009,3,0.58837
622.78,20.3994,0.008,1,0.080555
651.55,20.3298,0.007,1,0.034105
658.95,20.172,0.006,1,0.078975
1325.28,20.0596,0.006,1,0.19591
660.99,19.68,0.005,1,0.39798
664.75,19.5012,0.005,1,0.194515
373.96,19.3307,0.005,1,0.12128
366.6,18.75,0.004,0,0.285715
364.85,18.4173,0.004,0,0.155645
359.58,18.201,0.004,0,0.398945
363.97,17.6144,0.004,0,0.42921
363.71,17.4445,0.004,0,0.16992
369.38,17.2852,0.005,0,0.087865
371.13,16.6335,0.005,0,0.15625
372.93,15.8488,0.005,0,0.088765
893.57,15.6432,0.005,0,0.08097
913.53,15.2738,0.004,0,0.3125
382.28,9.5194,0,0,0.296875
382.92,9.4839,0,0,0.20524
387.72,9.004,0,0,0.291665
390.85,8.7686,0,0,0.28125
394.9,8.4105,0,0,0.153845
396.17,8.3285,0,0,0.11453
400.86,7.8344,0,0,0.08034
402.41,7.4893,0,0,0.373335
426.26,7.1185,0,0,0.085105
426.31,7.0593,0,0,0.01449
425.53,6.9226,0,0,0
648.79,85.4363,0.01,2,0.32407
774.49,84.5007,0.01,2,0.164445
756.58,83.0271,0.01,2,0.127725
885.79,82.7247,0.01,2,0.110295
831.54,79.9815,0.01,2,0.129695
400.4,18.1832,0.012,0,0.11197
416.83,18.0039,0.012,0,0.18182
421.17,17.9315,0.012,0,0
426.76,17.6189,0.012,0,0
686.94,17.5472,0.012,0,0
391.5,17.4286,0.011,0,0.02659
334.69,13.1582,0.004,0,0.21235
332.21,13.0158,0.005,0,0
337.04,12.7753,0.005,0,0
336.33,12.678,0.005,0,0
341.7,12.276,0.005,0,0.06379
336.77,11.1133,0.005,0,0.282435
335.7,10.9395,0.005,0,0.361755
341.46,7.9691,0,0,0.291255
347.96,7.8013,0,0,0.19231
349.79,7.7325,0,0,0.392115
354.44,7.3081,0,0,0.31565
353.71,7.2379,0,0,0.27143
362.43,6.5242,0,0,0.313255
359.2,6.3983,0,0,0.38426
361.32,6.3275,0,0,0.363635
331.52,2.8637,0,0,0
343.18,2.7962,0,0,0
825.06,61.6058,0.009,2,0.22609
969.18,60.7618,0.009,2,0.190905
940.36,60.0697,0.009,2,0.134015
707.01,58.7377,0.009,1,0.171175
751.86,57.6525,0.009,1,0.24279
849.55,56.6351,0.009,1,0.0874
850.81,52.5516,0.008,1,0.346415
704.33,51.8647,0.007,1,0.265965
740.02,42.5338,0.006,0,0.165215
514.66,42.0624,0.006,0,0.180755
501.66,41.6361,0.003,0,0.11956
378.94,4.6032,0.004,0,0.09855
377.28,4.5783,0.004,0,0
377.26,4.5601,0.004,0,0
346.97,4.4357,0.004,0,0
351.15,4.2655,0.004,0,0
352.23,3.7061,0.005,0,0
353.13,3.6835,0.005,0,0
349.15,3.6402,0.005,0,0
354.78,3.546,0.005,0,0
350.49,3.4799,0.005,0,0
341.35,3.4071,0.005,0,0
348.42,3.3693,0.005,0,0
350.68,3.3165,0.005,0,0
348.6,3.1436,0.006,0,0
346.58,3.072,0.006,0,0
347.8,3.0127,0.004,0,0
341.48,2.9228,0,0,0
344.1,2.8271,0,0,0
344.27,2.4053,0,0,0.183635
365.93,2.0951,0,0,0.490545
490.71,36.5546,0.001,0,0.120535
532.62,36.2825,0.001,0,0.1617
353.31,6.8613,0,0,0
353.33,6.8358,0,0,0
352.27,6.8168,0,0,0
350.27,6.7809,0,0,0
351.44,6.7277,0,0,0
352.47,6.6024,0,0,0.01961
354.22,6.5499,0,0,0.07792
349.28,6.06,0,0,0.176015
349.36,5.9971,0,0,0.33602
352.84,3.969,0,0,0.315945
355.38,3.9331,0,0,0.211255
355.41,3.8869,0,0,0
354.51,3.7884,0,0,0
355.12,3.7079,0,0,0.01316
338.5,3.1633,0,0,0.691745
337.89,3.133,0,0,0.56845
339.3,3.0282,0,0,0.254545
507.35,29.2542,0,0,0.238775
507.81,29.0345,0,0,0.158255
499.72,28.8384,0,0,0.173955
471.58,11.3236,0,0,0.188405
473.18,11.2493,0,0,0.316685
514.59,11.187,0,0,0.10341
415.85,11.0866,0,0,0.102125
412.64,10.9459,0,0,0.107995
387.97,10.7861,0,0,0.130535
369.11,10.6376,0,0,0.08712
485.88,17.2825,0,0,0.15025
535.61,17.1117,0,0,0.23995
505.47,16.9471,0,0,0.335035
484.73,16.7176,0,0,0.34455
442.42,16.3874,0,0,0
441.23,15.0871,0,0,0
447.4,14.9192,0,0,0.09091
466,12.9718,0,0,0.1875
453.22,12.7597,0,0,0.48429
465.55,12.6249,0,0,0.529345
455.81,11.2626,0,0,0.611015
449.38,11.1541,0,0,0.318255
497.61,11.0001,0,0,0.432775
396.25,10.7279,0,0,0
403.39,10.5254,0,0,0.02174
406.16,10.344,0,0,0
391.69,10.0403,0,0,0
386.84,9.6364,0,0,0
390.75,9.4262,0,0,0.157525
402.53,7.6479,0,0,0.025315
395.58,7.3936,0,0,0.26623
401.69,7.2095,0,0,0.378505
391.82,7.0968,0,0,0.352405
407.3,5.5563,0,0,0
402.66,5.4953,0,0,0
398.59,5.4424,0,0,0
398.78,5.0396,0,0,0
396.16,4.9375,0,0,0
476.82,3.4394,0,0,0
508.33,2.7709,0,0,0
506.17,2.7172,0,0,0
507.89,2.6548,0,0,0
507.79,2.5508,0,0,0
1604.46,362.70731,0.015,2,0.134915
1687.01,361.55661,0.013,2,0.14196
1752.37,361.20432,0.013,2,0.20178
1822.47,360.3584,0.013,2,0.1575
1919.51,359.89801,0.013,2,0.15433
2080.26,357.8511,0.013,2,0.47027
2288.8,357.7565,0.013,2,0.27434
2583.82,353.75211,0.013,2,0.11107
2665.18,353.23019,0.012,2,0.098695
2626.19,351.34421,0.012,2,0.14073
305.93,13.6411,0.01,0,0.035
288.68,13.6027,0.01,0,0
288.73,13.5241,0.01,0,0
538.02,13.3523,0.01,0,0
297.24,9.5613,0.006,0,0
297.76,9.4879,0.006,0,0
258.92,8.7139,0.007,0,0
251.77,8.6147,0.007,0,0
246.76,8.5395,0.007,0,0.18889
271.66,8.4199,0.007,0,0.22785
274.96,8.2205,0.007,0,0.225
260.4,8.1327,0.005,0,0.212765
289.45,7.6368,0.003,0,0.041665
285,6.4289,0.002,0,0
287.19,5.8964,0,0,0
299.69,5.8469,0,0,0
331.94,5.7398,0,0,0
282.84,5.3717,0,0,0
276.63,4.7534,0,0,0
276.63,4.7451,0,0,0.096505
293.39,2.9447,0,0,0.596175
286.87,2.8387,0,0,0.482145
1881.83,337.52289,0.012,2,0.130155
2008.03,337.22491,0.012,2,0.093395
2520.28,335.59119,0.012,2,0.103915
2158.89,333.7576,0.011,2,0.05943
2477.56,333.11331,0.011,2,0.06322
556.77,17.5496,0.038,0,0
579.97,17.47,0.037,0,0.12329
641.92,17.3551,0.036,0,0
571.4,16.7424,0.036,0,0
729.02,16.6827,0.036,0,0
778.8,16.5542,0.034,0,0
1251.49,15.2474,0.033,0,0
766.07,13.8938,0.033,0,0
743.51,13.6758,0.034,0,0
717.84,13.54,0.031,0,0
695.22,13.3242,0.03,0,0
694.61,13.0077,0.029,0,0
712.78,12.8702,0.028,0,0
778,11.5133,0.03,0,0
711.43,11.3856,0.029,0,0
1231.37,11.2215,0.027,0,0
572.55,10.2067,0.024,0,0
564.59,10.1457,0.023,0,0
873.53,2.5287,0.016,0,0
1289.36,2.5032,0.013,0,0
913.46,2.4822,0.011,0,0
424.84,2.4268,0.009,0,0.4057
599.79,2.2459,0,0,0.205125
745.46,7.5027,0.023,0,0
755.47,6.7122,0.026,0,0
723.5,6.6091,0.026,0,0
710.26,6.3968,0.023,0,0
704.66,6.3775,0.023,0,0.191175
721.13,6.1743,0.022,0,0
727.37,5.9276,0.023,0,0
853.02,5.3106,0.026,0,0.137615
580.53,5.1335,0.027,0,0.43484
879.15,5.1053,0.027,0,0.085105
966.85,5.0127,0.027,0,0
2345.89,314.8949,0.01,2,0.05797
2289.29,313.035,0.009,2,0
2491.68,311.17691,0.009,2,0.02809
2363.97,308.8042,0.008,2,0
2357,307.86841,0.008,2,0
2282.17,307.1087,0.008,2,0
2375.71,303.69351,0.008,2,0
2312.48,303.27649,0.008,2,0.004545
2450.46,299.1217,0.008,2,0.080385
2684.78,298.54459,0.008,2,0
2649.61,297.28571,0.008,2,0
508.79,9.0755,0.013,0,0.05
462.25,9.0537,0.012,0,0.25
237.97,8.9998,0.011,0,0.42052
718.24,8.8697,0.008,0,0.466245
329.45,7.4299,0.005,0,0.480355
293.09,7.1671,0.005,0,0.565485
214.28,7.0976,0.005,0,0.519315
215.1,6.8183,0.005,0,0.24803
208.52,6.6888,0.005,0,0.194325
217.23,6.4685,0.005,0,0.45956
221.06,6.2038,0.006,0,0.639535
221.13,6.0599,0.006,0,0.99
221.95,5.8622,0.006,0,0.985715
2408.53,288.10901,0.008,2,0.093925
702.78,5.9581,0.022,0,0
701.5,5.9516,0.022,0,0
750.15,5.8292,0.023,0,0
801.12,5.7604,0.023,0,0
778.31,5.2792,0.025,0,0
762.32,5.2057,0.026,0,0
818.13,4.0712,0.033,0,0
665.88,4.0649,0.033,0,0
665.13,4.053,0.033,0,0
542.79,3.9196,0.03,0,0
310.41,3.8908,0.028,0,0
539.45,3.718,0.025,0,0
581.58,3.4478,0.013,0,0
584.48,3.4172,0.007,0,0
601.21,3.4073,0.005,0,0
610.36,3.4028,0.004,0,0
599.75,3.3965,0.003,0,0
303.27,3.3571,0,0,0
306.06,3.3126,0,0,0
302.33,3.2499,0,0,0
305.13,3.1565,0,0,0
262.89,3.0623,0,0,0
261.49,2.9257,0,0,0
249.11,2.8096,0,0,0.10952
246.77,2.6059,0,0,0.589285
2546.81,281.71851,0.008,2,0
2462.32,280.45889,0.007,2,0
2414.64,279.70859,0.007,2,0.05747
2398.81,276.93201,0.007,2,0.333335
2537.94,275.31671,0.007,2,0.177085
2147.46,269.96771,0.006,2,0.03322
217.49,12.682,0.014,0,0.145835
217.49,12.6757,0.014,0,0.328945
305.13,12.5839,0.008,0,0.25412
346.24,12.5421,0.007,0,0.39119
445.19,4.2304,0.012,0,0.883115
241.76,4.2074,0.011,0,0.385935
243.7,4.1277,0.011,0,0.057145
254.7,4.0179,0.012,0,0.418705
240.17,3.8399,0.012,0,0.389655
230.38,3.8037,0.012,0,0.076925
220.63,3.718,0.008,0,0.52406
218.13,3.675,0.007,0,0.419665
217.16,3.5889,0.002,0,0.14028
198.62,3.2644,0,0,0.18421
192.44,3.1999,0,0,0.46509
167.35,8.2257,0,0,0.69466
170.89,8.1337,0,0,0.474155
162.29,7.9755,0,0,0.210855
160.24,7.8681,0,0,0.199075
146.53,6.9599,0,0,0.297495
147.5,6.8996,0,0,0.534205
1967.44,256.92181,0.005,0,0.006025
1970.93,256.4209,0.005,0,0
2017.87,255.5325,0.004,0,0.115385
2052.64,254.5363,0.004,0,0.295565
2256.95,253.9339,0.004,0,0.17431
1741.71,252.7764,0.003,0,0.04065
2035.15,251.7868,0.003,0,0.095695
1947.64,247.7019,0.003,0,0.28095
1687.4,243.5062,0.003,0,0.47093
1932.61,243.16541,0.003,0,0.31314
1542.63,242.7588,0.003,0,0.477375
1601.46,242.2948,0.003,0,0.558685
1617.9,240.6006,0.003,0,0.825
1712.49,234.02589,0.003,0,0.615965
809.27,83.4017,0.003,0,0.12957
309.79,81.9381,0.003,0,0.32114
309.17,81.1729,0.003,0,0.079835
294.07,80.3332,0.003,0,0.218695
287.72,79.0387,0.003,0,0.40271
292.91,78.3692,0.003,0,0.442505
288.09,77.0091,0.003,0,0.817305
200.56,10.5519,0,0,0.88889
204.89,10.5024,0,0,0.761565
206.18,10.2875,0,0,0.849055
199.12,9.8452,0,0,0.955555
191.33,9.6431,0,0,0.935485
191.5,9.4189,0,0,0.99
190.04,9.2301,0,0,0.98718
194.25,9.0864,0,0,0.99
218.13,7.577,0,0,0.99
216.61,7.4728,0,0,0.99
218.23,7.3734,0,0,0.99
259.79,66.1723,0.003,0,0.56313
254.75,64.1198,0.003,0,0.651395
245.28,63.3342,0.003,0,0.716935
250.14,63.1591,0.003,0,0.767035
244.71,62.5622,0.003,0,0.463885
247.81,60.4544,0.003,0,0.666665
246.57,60.1823,0.003,0,0.526315
236.09,56.3964,0.003,0,0.161845
239.02,53.9721,0.003,0,0.13961
239.55,51.4577,0.003,0,0.463615
234.34,50.9355,0.004,0,0.38662
579.83,50.3594,0.004,0,0.18266
244.94,48.1717,0.003,0,0.241165
248.12,46.9974,0.003,0,0.331265
247.76,46.5546,0.003,0,0.25263
250.4,45.782,0.003,0,0.49338
249.82,45.0689,0.003,0,0.333335
300.63,11.7397,0,0,0
551.67,11.7084,0,0,0
299.87,11.6248,0,0,0
302.38,11.5354,0,0,0.131405
300.57,11.369,0,0,0.37681
299.89,11.26,0,0,0.189875
302.01,10.7582,0,0,0.285715
306.97,10.5099,0,0,0.80089
305.98,10.447,0,0,0.73721
303.03,10.1989,0,0,0.565555
301.42,9.973,0,0,0.478265
319.75,8.7892,0,0,0.60863
303.26,4.104,0,0,0.6034
302.84,4.0113,0,0,0.40745
294.47,3.5028,0,0,0.41349
302.85,3.1658,0,0,0.47942
300.81,3.138,0,0,0.598215
274.03,4.5731,0,0,0.13158
270.11,3.9729,0,0,0.551945
289.12,3.9379,0,0,0.49014
346.63,3.1885,0,0,0.892855
236.03,33.3269,0.004,0,0.216835
238.7,32.2632,0.005,0,0.139915
242.87,30.117,0.005,0,0.352825
245.92,27.6935,0.005,0,0.58629
245.9,27.4883,0.005,0,0.414685
246.21,27.1394,0.005,0,0.247835
247.71,26.7599,0.005,0,0.472265
322.46,20.749,0.006,0,0.34299
317.3,20.0856,0.007,0,0.383335
318.89,19.4975,0.007,0,0.207855
314.72,19.276,0.007,0,0.236865
367.24,3.8269,0.001,0,0.544645
366.93,3.8152,0.001,0,0.641305
322.98,3.7384,0.001,0,0.99
324.45,3.6761,0,0,0.569565
326.76,3.6374,0,0,0.203305
314.83,15.2416,0.009,0,0.560345
345.41,14.5482,0.009,0,0.53846
340.88,14.4327,0.009,0,0.565535
339.49,14.2813,0.009,0,0.53172
356.91,2.8544,0.01,0,0.99
365.78,2.8126,0.01,0,0.99
371.45,2.1869,0.012,0,0.99
388.28,2.1369,0.013,0,0.99
361.76,2.0823,0.013,0,0.931945
428.06,1.9832,0.014,0,0.636365
447.34,1.7554,0.015,0,0.45956
393.89,1.7122,0.016,0,0.275
264.94,11.0979,0.008,0,0.54612
264.36,11.0376,0.008,0,0.600945
288.41,10.7609,0.008,0,0.76147
274.43,10.5094,0.009,0,0.827585
302.41,10.3609,0.009,0,0.623
253.15,8.5727,0.01,0,0.469865
260.66,8.397,0.01,0,0.5303
266.57,8.236,0.01,0,0.62238
256.66,7.4312,0.012,0,0.469255
260.6,7.3332,0.012,0,0.4
211.1,4.159,0.005,0,0.839555
212.5,4.0904,0.005,0,0.886365
216.1,4.0023,0.005,0,0.90476
2345.74,150.14191,0.002,0,0.43214
1092.46,148.12,0.001,0,0.447415
1138.54,147.84309,0.001,0,0
839.53,147.7095,0.001,0,0.05
1032.68,146.8765,0.001,0,0.331405
1261.23,146.5612,0.001,0,0.17757
227.95,6.2646,0,0,0.25447
225.4,6.2085,0,0,0.21875
252.23,6.1066,0,0,0.57143
259.64,5.1548,0,0,0.62006
251.47,4.9619,0,0,0.296755
248.79,4.7863,0,0,0.205125
251.51,4.6478,0,0,0
223.23,4.3357,0,0,0.298965
224.74,4.2205,0,0,0.260455
221.24,4.0944,0,0,0.69836
227.39,4.0141,0,0,0.57547
212.23,3.8567,0,0,0.891565
821.59,139.6653,0.001,0,0.140925
926.31,139.09081,0.001,0,0.56605
961.26,138.5061,0.001,0,0.141245
391.91,10.8033,0,0,0
392.12,10.7658,0,0,0.15476
384.93,10.5103,0,0,0.25517
368.69,10.207,0,0,0.29543
369.19,10.1171,0,0,0.461905
367.47,9.89,0,0,0.51776
370.11,9.7276,0,0,0.32502
550.26,127.3781,0.002,0,0.678425
557.29,126.7247,0.002,0,0.455455
608.77,125.5137,0.002,0,0.402435
737.99,122.8683,0.002,0,0.571585
760.14,122.5726,0.002,0,0.439635
565.43,121.6666,0.002,0,0.367675
343.4,24.6392,0.001,0,0.3737
342.99,24.5842,0.001,0,0.71901
352.26,24.4038,0.001,0,0.47392
342.17,23.9733,0.001,0,0.598215
333.66,23.6114,0.001,0,0.64151
318.65,23.3391,0.001,0,0.76923
312.86,23.1368,0.001,0,0.598945
318.38,22.4001,0.001,0,0.54976
330.46,22.0924,0.001,0,0.856055
305.06,21.3296,0.001,0,0.99
306.64,20.772,0.001,0,0.89091
307.82,20.4905,0.001,0,0.86747
329.9,19.6391,0.002,0,0.730335
338.26,19.1661,0.002,0,0.538125
305.88,18.4292,0.002,0,0.56017
306.32,17.9491,0.002,0,0.522795
308.28,17.8338,0.002,0,0.555375
309.07,17.546,0.002,0,0.538515
293.3,16.6887,0.002,0,0.92414
296.19,15.8817,0.002,0,0.923075
385.29,6.0809,0,0,0.5314
391.41,6.0577,0,0,0.520835
419.48,5.8921,0,0,0.17285
404.83,5.6001,0,0,0.507475
400.74,5.5032,0,0,0.692525
408.46,5.3183,0,0,0.41146
398.12,5.1226,0,0,0.6307
396.61,4.5025,0,0,0.68254
397.73,4.4431,0,0,0.36264
400.1,4.3822,0,0,0.033335
463.77,96.9291,0.002,0,0.83278
491.83,95.7309,0.002,0,0.813685
377.77,18.4948,0.003,0,0.563975
378.32,18.3856,0.003,0,0.720125
375.63,18.2404,0.003,0,0.654635
368.59,17.7525,0.003,0,0.441435
374.46,17.3177,0.003,0,0.42392
357.47,16.9427,0.003,0,0.572945
359.02,16.8207,0.003,0,0.71642
348.55,16.3803,0.004,0,0.59649
342.82,16.1493,0.004,0,0.18644
337.14,15.5778,0.004,0,0.403385
325.09,15.389,0.004,0,0.52323
322.9,15.2175,0.004,0,0.946235
301.17,14.9185,0.004,0,0.885055
290.39,14.2065,0.004,0,0.91209
294.59,13.9608,0.004,0,0.912
285.43,13.2874,0.004,0,0.742425
288.22,13.0603,0.004,0,0.56247
283.85,12.8753,0.005,0,0.71642
271.71,12.1541,0.005,0,0.50987
271.17,11.9765,0.005,0,0.28758
271.08,11.6717,0.005,0,0.79798
269.94,11.3837,0.005,0,0.97647
264.24,11.144,0.005,0,0.895695
263.99,10.4777,0.001,0,0.567675
264.22,10.102,0.001,0,0.38314
283.89,9.0815,0,0,0.34296
283.96,8.9794,0,0,0.26348
444.6,77.1798,0.001,0,0.42288
439.22,75.679,0.001,0,0.5391
300.88,17.7802,0,0,0.210015
304.65,17.7212,0,0,0.516885
305.32,17.4738,0,0,0.43771
307.04,17.2986,0,0,0.31901
277.91,16.9767,0,0,0.262745
277.36,16.2567,0,0,0.3713
278.87,15.8254,0,0,0.20929
284.85,15.4337,0,0,0.337645
269.06,15.1178,0,0,0.201025
269.56,15.036,0,0,0.290595
268.21,14.5577,0,0,0.564105
272.83,13.8249,0,0,0.68466
274.05,13.7728,0,0,0.90909
326.38,13.477,0,0,0.69369
391.86,13.0832,0,0,0.57983
407.36,57.6789,0.002,0,0.25708
413.03,56.7356,0.002,0,0.367385
442.7,56.4427,0.002,0,0.53846
559.43,54.5226,0.002,0,0.24917
859.67,53.7512,0.002,0,0.243205
1227.71,21.7268,0.004,0,0.12304
1401.67,21.5866,0.002,0,0.263345
1543.09,21.2851,0.001,0,0.491875
686.11,21.0308,0.001,0,0.37143
786.94,20.6167,0.001,0,0.46091
756.08,20.2164,0.001,0,0.37862
638.39,19.1262,0.001,0,0.23217
674.57,18.7955,0.001,0,0.263965
287.63,18.3408,0.001,0,0.037315
284.46,17.1944,0.001,0,0.015685
353.13,16.6808,0.001,0,0.255355
339.14,16.0059,0.001,0,0.433925
342.26,15.9097,0.001,0,0.15278
305.67,15.294,0.001,0,0.23021
370.82,8.4596,0,0,0.39935
342,8.4081,0,0,0.11645
352.89,8.3387,0,0,0.151515
358.48,7.7561,0,0,0.422305
368.64,7.6619,0,0,0.233845
367.1,7.5102,0,0,0.617055
366.99,7.3874,0,0,0.86108
369.63,7.1449,0,0,0.529165
374.45,6.7212,0,0,0.923075
377,6.5672,0,0,0.385305
401.91,6.4758,0,0,0.170275
355.29,5.0537,0,0,0.44419
356.12,4.9843,0,0,0.56176
348.66,3.1611,0,0,0.742425
356.12,3.0844,0,0,0.685715
356.31,3.005,0,0,0.666665
352.91,2.8756,0,0,0.59722
356.06,2.5999,0,0,0.534485
361.01,2.4502,0,0,0.37931
358.2,2.3537,0,0,0
630.95,31.766,0,0,0.28914
530.6,31.2124,0,0,0.467855
506.74,30.4092,0,0,0.218135
306.91,30.1513,0,0,0.418105
305.34,29.4222,0,0,0.128975
304.82,28.697,0,0,0.39228
321.14,27.1921,0,0,0.663985
323.43,26.7552,0,0,0.465855
333.46,26.4991,0,0,0.39772
335.48,9.4549,0,0,0.154165
339.43,9.4108,0,0,0.375
346.91,8.4446,0,0,0.458105
344.02,8.3865,0,0,0.513015
342.45,8.2807,0,0,0.591825
331.94,8.1526,0,0,0.62207
317.4,7.9003,0,0,0.75682
319.48,7.7682,0,0,0.674785
320.36,7.4897,0,0,0.587905
323.05,7.4182,0,0,0.85357
352.74,6.972,0,0,0.99
359.44,6.8519,0,0,0.99
366.92,5.901,0,0,0.61211
367.33,5.3052,0,0,0.92
355.62,3.658,0,0,0.90164
358.62,3.6183,0,0,0.867925
364.97,3.5542,0,0,0.779815
395.85,3.4607,0,0,0.7753
431.94,3.0869,0,0,0.547285
352.42,3.0162,0,0,0.44525
344.84,2.9025,0,0,0.41026
357.67,16.7556,0,0,0.55509
363.44,16.6036,0,0,0.716255
344.4,16.3929,0,0,0.574145
364.82,15.799,0,0,0.64025
392.53,15.6816,0,0,0.358245
378.94,15.1485,0,0,0.55647
405.41,14.6811,0,0,0.627305
414.77,14.0297,0,0,0.42035
346.92,13.4615,0,0,0.18401
320.53,13.1837,0,0,0.326195
313.64,13.041,0,0,0.42857
312.16,12.5935,0,0,0.475
317.31,12.4135,0,0,0.747915
316.16,11.728,0,0,0.71617
317.06,11.3305,0,0,0.86607
322.99,11.2023,0,0,0.78993
289.34,4.7664,0,0,0.45103
289.2,4.6982,0,0,0.46642
296.39,4.5356,0,0,0.753835
303.85,4.3386,0,0,0.65517
314.4,4.2051,0,0,0.595505
325.92,4.0799,0,0,0.675
338.54,3.6151,0,0,0.488405
338.14,3.5811,0,0,0.36
352.75,3.4149,0,0,0.366195
351.51,3.2882,0,0,0.32916
374.06,3.049,0,0,0
351.62,2.3652,0,0,0
351.51,2.3631,0,0,0.26061
353.55,2.2678,0,0,0.234955
339.93,6.3353,0,0,0.566655
342.67,6.2736,0,0,0.714285
341.13,6.2384,0,0,0.916665
353.13,6.1379,0,0,0.90909
364.14,5.8109,0,0,0.833575
371.6,5.4537,0,0,0.649125
379.98,5.3672,0,0,0.549155
384.93,4.9915,0,0,0.40171
387.19,4.6978,0,0,0
389.04,4.6625,0,0,0
390.13,4.5258,0,0,0
397.45,3.9181,0,0,0
396.16,3.8034,0,0,0
747.63,2.1777,0.002,0,0
693.12,2.1052,0,0,0
722.5,4.6308,0.005,0,0
723.05,4.6151,0.003,0,0
414.25,4.5862,0,0,0
294.78,4.5018,0,0,0
305.68,4.1345,0,0,0
290.18,4.1132,0,0,0
294.04,4.0569,0,0,0
298.38,2.8463,0,0,0
280.88,2.8118,0,0,0.24
238.34,2.4868,0,0,0.433335
249.93,2.4494,0,0,0.38466
256.52,2.3547,0,0,0.326925
234.15,2.2914,0,0,0.290325
223.49,1.9657,0,0,0.3067
210.07,56.9596,0.009,0,0.122855
171.29,14.2925,0.001,0,0.36179
174.44,14.1592,0,0,0.1372
173.58,14.0739,0,0,0.600105
168.11,13.2465,0,0,0.51452
162.09,13.0818,0,0,0.24617
167.58,11.8245,0,0,0.094995
187.49,11.674,0,0,0.13123
192.53,11.264,0,0,0.07807
172.63,11.1583,0,0,0.31636
223.32,11.0594,0,0,0.3396
205.54,10.8544,0,0,0.0419
214.29,10.1855,0,0,0.29323
239.31,9.7022,0,0,0.08561
242.4,9.5313,0,0,0.161975
245.66,9.4556,0,0,0.11597
215.95,8.3496,0,0,0.06173
187.94,8.2874,0,0,0.29904
233.12,7.8101,0,0,0.110475
241.75,7.3674,0,0,0.282295
253.86,7.0633,0,0,0.142855
207.23,5.2592,0,0,0.04514
204.9,5.1804,0,0,0.111485
233.92,2.0071,0,0,0.15278
345.11,3.1068,0,0,0.42857
344.02,3.0921,0,0,0.32107
347,3.044,0,0,0.1562
274.25,2.0099,0,0,0.11875
274.01,1.9612,0,0,0.071745
256.17,1.6143,0,0,0.25422
253.82,1.551,0,0,0.16893
238.71,42.5192,0.012,0,0.112755
245.86,41.0463,0.009,0,0.09579
209.37,39.5343,0.008,0,0.119215
198.74,34.5852,0.008,0,0.09653
134.28,34.0539,0.005,0,0.21804
147.22,33.6279,0.005,0,0.16254
154.63,33.0429,0.006,0,0.20578
152.49,32.5325,0.006,0,0.19667
150.83,32.0064,0.006,0,0.231235
156.74,28.4751,0.006,0,0.061265
159.32,27.8556,0.007,0,0.555555
157.49,27.6749,0.007,0,0.192935
140.07,24.7137,0.007,0,0.09025
139.28,24.5369,0.007,0,0.049905
139.35,23.9073,0.008,0,0.138765
139.97,23.5664,0.008,0,0.102145
152.35,22.742,0.008,0,0.06729
176.47,21.0586,0.009,0,0.092225
173.37,20.8499,0.009,0,0.137525
173.58,20.3348,0.009,0,0.44822
177.51,20.0592,0.009,0,0.68204
173.56,19.8796,0.009,0,0.13735
173.62,19.3803,0.009,0,0.102425
170.56,18.8394,0.01,0,0.07143
180.35,17.044,0.011,0,0.04927
180.02,15.0367,0.012,0,0.05766
212.79,14.8962,0.012,0,0.056345
169.59,12.8396,0.013,0,0.0903
168.94,12.6613,0.013,0,0.098285
161.02,12.1555,0.013,0,0.05134
158.7,12.0009,0.013,0,0.05565
143.63,10.1866,0.014,0,0.06857
139.03,10.1035,0.014,0,0.07962
124.2,9.2916,0.01,0,0.16807
124.7,9.2062,0.011,0,0.03818
126.85,9.1323,0.009,0,0.03277
118.91,8.7973,0.002,0,0.03522
124.43,8.6694,0,0,0.08258
119.4,8.3339,0,0,0.0375
114.52,8.1367,0,0,0.15625
100.9,7.6158,0,0,0.061185
99.36,7.5344,0,0,0.14847
101.17,7.4691,0,0,0.239025
105.3,7.3517,0,0,0.037085
107.51,6.7846,0,0,0.075845
117.21,6.0865,0,0,0.060715
117.34,6.0178,0,0,0.107465
118.42,5.9559,0,0,0.188045
213.69,36.4576,0.002,0,0.0863
219.21,34.4806,0.001,0,0.06271
215.8,34.3796,0.001,0,0.052595
217.52,34.12,0.001,0,0.0347
215.71,32.6148,0.001,0,0.008065
216.39,32.0106,0.001,0,0.071715
215.31,30.0401,0.001,0,0.16667
214.58,29.8141,0.001,0,0.124835
213.95,29.6585,0.001,0,0.06676
219.7,28.5912,0.001,0,0.07681
224.93,27.3933,0.002,0,0.016805
184.6,27.2029,0.002,0,0.21513
179.53,26.2002,0.002,0,0.15451
177.11,25.7539,0.002,0,0
231.32,2.9427,0,0,0
230.79,2.9213,0,0,0
225.08,2.8665,0,0,0
222.9,2.8021,0,0,0
226.46,2.714,0,0,0
215.32,2.513,0,0,0
217.74,2.4473,0,0,0
224.06,22.6798,0.002,0,0
238.59,20.6285,0.002,0,0
229.14,20.4871,0.002,0,0
246.86,18.0131,0.002,0,0.117645
268.55,15.9778,0.001,0,0.035295
266.6,15.8631,0.001,0,0
268.36,15.73,0.001,0,0
260.14,13.6724,0.001,0,0
263.09,10.5316,0.001,0,0
263.49,10.3685,0.001,0,0
265.26,10.2024,0.002,0,0
264.78,9.865,0.002,0,0.025425
263.36,9.5939,0.002,0,0.2093
262.73,9.5233,0.002,0,0
263.65,9.1579,0.002,0,0.44186
311.44,11.0253,0.002,0,0.04185
196.93,10.9244,0,0,0
165.8,10.6053,0,0,0.266665
163.69,9.8128,0,0,0.270835
162.64,9.3198,0,0,0.269565
167.08,9.0473,0,0,0.166665
170.51,8.874,0,0,0.609075
170.25,8.5489,0,0,0.52485
165.85,8.3703,0,0,0.22256
166.14,7.9554,0,0,0.490305
166.98,7.7204,0,0,0.318715
166.86,7.6355,0,0,0.36709
140.77,6.2604,0,0,0.376035
141.3,6.0978,0,0,0.333335
143.08,5.8925,0,0,0.40625
139.23,5.4215,0,0,0.67335
138.54,5.349,0,0,0.75087
141.57,4.3136,0,0,0.083365
140.85,3.8795,0,0,0
141.33,3.7943,0,0,0
142.62,3.7488,0,0,0
158.88,3.6818,0,0,0
155.6,3.5789,0,0,0
140.83,3.3158,0,0,0
299.06,10.0239,0.004,0,0
294.87,9.9871,0.004,0,0
319.07,9.6664,0.002,0,0
319.07,9.6436,0.002,0,0
301.63,9.2216,0.002,0,0
370.13,7.3224,0.003,0,0
382.37,7.2652,0.003,0,0
349.53,7.2125,0.003,0,0
346.62,5.3929,0.002,0,0
346.27,5.3728,0.002,0,0.14634
345.24,5.3372,0,0,0.226985
343.48,5.2942,0,0,0.06331
397.46,4.5803,0,0,0.185185
397.09,4.5647,0,0,0.078125
344.54,4.3417,0,0,0.10694
324.22,4.2576,0,0,0.4652
337.52,4.2268,0,0,0.69697
340.68,4.1995,0,0,0.61111
372.74,3.3911,0,0,0.588315
213.79,71.1767,0.004,0,0.4625
211.3,70.9963,0.004,0,0.052195
209.56,70.6509,0.004,0,0.08244
209.6,68.7868,0.004,0,0.086155
209.95,67.9565,0.004,0,0.126665
219.2,66.8494,0.003,0,0.1046
194.3,63.7769,0.003,0,0.149335
190.82,60.0763,0.003,0,0.11384
211.26,59.6773,0.003,0,0.222785
222.99,58.1164,0.003,0,0.171105
332.53,57.5671,0.002,0,0.128855
220.2,55.1475,0,0,0.0936
303.99,54.5035,0,0,0.11633
298.9,53.7005,0,0,0.20746
235.19,53.151,0,0,0.27
244.01,52.7812,0,0,0.22443
257.26,52.2232,0,0,0.0875
260.09,50.6167,0,0,0.19618
180.47,50.2435,0,0,0.34978
159.36,49.7145,0,0,0.508675
163.92,49.127,0,0,0.53186
173.94,48.7347,0,0,0.52608
195.07,48.0699,0,0,0.6
175.55,46.5795,0,0,0.99
175.2,46.3744,0,0,0.56734
186.16,46.1334,0,0,0.135755
156.9,43.5911,0,0,0.40714
156.55,43.3104,0,0,0.177545
154.23,42.8091,0,0,0.372255
151.77,42.5227,0,0,0.362355
152.99,40.304,0,0,0.198875
148.24,40.0772,0,0,0.18419
145.85,39.9713,0,0,0.298745
128.37,38.575,0,0,0.57784
129.33,38.1985,0,0,0.43188
128.95,36.5204,0,0,0.67258
129.12,36.3277,0,0,0.243995
129.39,35.7882,0,0,0.38585
125.21,33.9841,0,0,0.5641
121.96,32.1406,0,0,0.99
118.7,31.0799,0,0,0.480875
128.03,30.5038,0,0,0.180055
131.05,29.8309,0,0,0.528325
132.51,29.6035,0,0,0.777055
127.88,27.6861,0,0,0.538315
141.32,24.7494,0,0,0.727015
137.66,24.6535,0,0,0.606385
136.83,24.4362,0,0,0.600795
136.72,24.0323,0,0,0.568835
135.33,8.2612,0,0,0.767855
133.53,8.236,0,0,0.13148
136.76,7.9692,0,0,0.32502
136.52,7.8014,0,0,0.472855
140.04,7.2413,0,0,0.99
146.82,6.9478,0,0,0.9
151.47,6.7511,0,0,0.11111
165.99,6.5425,0,0,0
166.26,6.5204,0,0,0.6875
171.18,6.3904,0,0,0.85313
133.87,15.5532,0,0,0.54412
133.96,15.427,0,0,0.52176
133.04,15.1282,0,0,0.38655
135.82,14.6915,0,0,0.1127
140.92,11.1816,0,0,0.14731
286.39,3.5686,0.01,0,0
289.93,3.5508,0.006,0,0
169.4,3.5071,0,0,0
170.8,3.441,0,0,0.03896
156.08,3.3873,0,0,0.48106
147.14,3.335,0,0,0.31579
135.62,3.2247,0,0,0.04706
144.76,3.0353,0,0,0
144.91,3.0017,0,0,0.28017
138,2.9069,0,0,0.265
812.74,10.5933,0.045,0,0
414.79,10.5268,0.039,0,0
404.5,10.4372,0.036,0,0
397.59,10.2782,0.031,0,0.009615
402.76,10.0293,0.03,0,0
239.23,8.7499,0.008,0,0
253.74,8.7077,0.005,0,0.09091
235.8,8.626,0.002,0,0
131.96,8.5228,0,0,0.014085
138.91,8.4377,0,0,0.060605
126.68,7.9674,0,0,0.11111
175.84,4.5625,0,0,0.276655
160.08,4.5286,0,0,0.475515
159.46,4.4432,0,0,0.59815
179.44,4.3765,0,0,0.496425
161.37,4.0827,0,0,0.453335
160.93,3.9401,0,0,0.58679
171.29,3.2003,0,0,0.99
461.99,20.867,0.025,0,0
409.59,18.715,0.028,0,0.052565
604.76,18.2675,0.027,0,0
603.01,12.7968,0.036,0,0.01923
511.07,12.6443,0.034,0,0.021505
446.4,12.2525,0.032,0,0
275.92,11.461,0.013,0,0
426.3,11.2619,0.007,0,0
249.46,11.0822,0.005,0,0
232.73,10.7565,0.004,0,0.02299
380.16,10.6422,0.003,0,0.19815
231.78,10.2224,0.003,0,0.155545
230.4,9.9518,0.003,0,0.61875
229.28,9.8415,0.003,0,0.64706
234.09,9.5772,0.003,0,0.658825
255.47,9.2201,0.003,0,0.99
263.34,8.3242,0.003,0,0.99
262.87,8.3005,0.003,0,0.99
266.25,8.2381,0.003,0,0.97561
129.22,45.3212,0.003,0,0
129.9,44.9006,0.003,0,0
127.24,42.783,0.003,0,0
145.27,41.0318,0.003,0,0.013395
153.28,40.6623,0.003,0,0.215605
179.03,2.4291,0,0,0
179.19,2.4253,0,0,0.22222
176.36,2.4048,0,0,0.575
175.75,2.3798,0,0,0.526975
170.82,2.3411,0,0,0.572545
178.21,2.3237,0,0,0.433335
179.34,2.3026,0,0,0.3125
177.22,2.2756,0,0,0.555555
174.91,2.2291,0,0,0.49183
161.57,2.1521,0,0,0.503605
162.73,2.0864,0,0,0.633335
152.23,37.992,0.003,0,0.272725
140.96,36.6015,0.002,0,0.200835
156.1,35.8003,0.002,0,0.38857
146.72,35.517,0.002,0,0.640445
145.77,33.6626,0.002,0,0.18332
142,32.9034,0.002,0,0.085715
140.97,32.163,0.002,0,0.15029
189.36,4.0267,0,0,0
189.95,4.0133,0,0,0
189.93,3.9989,0,0,0
193.98,3.9461,0,0,0
181.38,3.9107,0,0,0
167.73,3.85,0,0,0
159.58,3.8107,0,0,0
156.95,3.7571,0,0,0.136365
142.71,3.7169,0,0,0.25
140.71,3.671,0,0,0.709675
141,3.6464,0,0,0.81579
152.43,27.9265,0.003,0,0.25093
155.96,24.7256,0.002,0,0.66667
132.47,22.6799,0.002,0,0.294045
129.68,22.5467,0.002,0,0.11679
188.42,22.421,0.002,0,0.38028
285.65,19.9128,0.002,0,0
220.18,19.8268,0.001,0,0.071435
156.39,17.8489,0,0,0.294505
158.04,17.5334,0,0,0.60955
147.07,17.291,0,0,0.56225
146.28,15.6433,0,0,0.679245
146.38,15.5407,0,0,0.99
149.01,14.7137,0,0,0.97541
149.36,14.0766,0,0,0.99
146.94,14.0026,0,0,0.923555
144.26,11.7675,0,0,0.49658
144.85,11.6471,0,0,0.587365
136.55,9.6801,0,0,0.9
149.37,9.0653,0,0,0.80303
150.02,8.9389,0,0,0.99
150.55,8.6357,0,0,0.99
149.65,8.5586,0,0,0.99
141.25,6.0941,0,0,0.99
144.06,5.8366,0,0,0.99
142.27,5.8021,0,0,0.99
150.03,5.5236,0,0,0.99
149.11,5.4451,0,0,0.99
151.16,5.3808,0,0,0.99
151.85,4.9114,0,0,0.99
151.82,4.8713,0,0,0.99
170.09,4.604,0,0,0.99
173.03,4.5342,0,0,0.99
186.44,3.8234,0,0,0.666665
199.46,3.5703,0,0,0.402115
198.79,3.5203,0,0,0.43721
199.91,3.2491,0,0,0.591135
199.64,3.135,0,0,0.698415
175.18,3.0525,0,0,0.49415
174.04,2.9965,0,0,0.72
383.07,108.7076,0.033,1,0.21948
411.7,108.1841,0.033,1,0.45251
426.16,108.0936,0.033,1,0.58499
417.88,107.4079,0.033,1,0.408825
421.03,106.8717,0.033,1,0.144345
410.16,103.6076,0.033,1,0.10142
402.44,103.1133,0.033,1,0.125275
404.99,102.3265,0.034,1,0.380955
410.33,102.0457,0.034,1,0.441745
417.72,101.794,0.034,1,0.51076
440.33,101.2311,0.034,1,0.368095
442.33,99.8025,0.034,1,0.833335
499.54,98.9164,0.034,1,0.87597
483.64,98.2765,0.034,1,0.402235
407.63,95.225,0.034,1,0.280915
404.17,94.7369,0.034,1,0.18509
388.55,9.3339,0.001,0,0.05083
404.57,8.784,0.001,0,0
404.57,8.775,0.001,0,0
401.48,8.7487,0.001,0,0
403.03,8.6748,0.001,0,0
534.92,85.2792,0.038,1,0.091305
640.46,84.9028,0.038,1,0.249595
573.98,83.8469,0.038,1,0.11045
575.91,80.6709,0.036,1,0.452615
337.32,4.7117,0.029,0,0.933335
335,4.6941,0.028,0,0.857145
328.04,4.6851,0.028,0,0.17111
346.26,4.6451,0.026,0,0
344.28,4.5984,0.025,0,0
344.16,4.5498,0.025,0,0.11111
326.86,4.4999,0.023,0,0.745835
478.7,4.4676,0.022,0,0.329165
480.35,4.4442,0.019,0,0.17857
510.01,4.4067,0.013,0,0.22
287.18,4.3735,0.01,0,0.01613
274.24,3.9875,0.003,0,0
310.45,3.7169,0.003,0,0.085715
329.4,3.6948,0.003,0,0.251625
329.26,3.667,0.003,0,0.25647
251.66,2.6652,0.003,0,0.44857
257.55,2.6308,0.003,0,0.469075
319.77,2.587,0.003,0,0.60952
317.52,2.3995,0.004,0,0.676065
315.51,2.25,0,0,0.99
299.43,2.0803,0,0,0.81818
331.89,2.0368,0,0,0.64516
333.34,1.9882,0,0,0.65625
258.33,1.758,0,0,0.578945
448.32,75.6009,0.034,1,0.857145
448.01,75.3079,0.034,1,0.740115
708.88,74.4958,0.034,1,0.37377
373.16,69.6065,0.033,1,0.073975
365.04,69.2395,0.03,0,0.27445
326.42,65.9243,0.027,0,0.221245
277.42,64.6018,0.026,0,0.346665
288.05,61.5811,0.027,0,0.39702
320.55,55.6942,0.027,0,0.41452
318.42,55.0863,0.026,0,0.15063
318.03,54.1091,0.026,0,0.34979
395.05,51.6947,0.027,0,0.268745
308.05,47.239,0.028,0,0.498625
221.23,7.3605,0.014,0,0.169935
300.72,7.3481,0.014,0,0
321.95,7.322,0.012,0,0
336.21,39.024,0.029,0,0.26729
643.34,4.503,0.012,0,0.03896
640.26,4.4671,0.009,0,0.214285
286.14,4.2469,0.007,0,0.07792
353.12,4.1532,0.008,0,0
353.13,4.1505,0.008,0,0
340.09,4.1118,0.008,0,0
339.05,4.0983,0.008,0,0
337.58,4.0108,0.008,0,0
347.96,3.9037,0.008,0,0
321.38,2.8478,0.003,0,0
292.33,2.8064,0.003,0,0
264.69,2.7009,0.003,0,0
230.82,2.6235,0.003,0,0
224.99,2.6163,0.003,0,0
218.25,2.5352,0.004,0,0
211.72,2.4014,0.001,0,0
211.23,2.3762,0.001,0,0
296.72,34.3167,0.03,0,0.213045
298.29,34.1184,0.03,0,0.342305
296.67,32.9302,0.027,0,0.27152
463.57,8.9621,0.041,0,0.26923
451.84,7.4487,0.028,0,0.03226
450.42,7.4316,0.028,0,0
444.43,7.3857,0.028,0,0
301.57,6.0965,0.024,0,0
280.81,6.0446,0.024,0,0.24138
208.87,5.9646,0.02,0,0.493785
218.05,5.9322,0.02,0,0.30213
270.11,5.7831,0.017,0,0
230.49,5.4097,0.006,0,0
170.65,5.3998,0.006,0,0.24405
234.28,5.3049,0.006,0,0
163.53,5.2922,0.006,0,0.2336
177.51,4.504,0.007,0,0.166235
189.87,4.1069,0.004,0,0.266665
251.09,2.1653,0.007,0,0.269095
247.94,2.1107,0.004,0,0.72222
244.56,2.0487,0.004,0,0.72222
303.72,23.8439,0.022,0,0.109705
297.3,23.6888,0.022,0,0.09217
299.16,23.5924,0.022,0,0.12624
300.93,23.3705,0.022,0,0.176275
316.14,23.2781,0.022,0,0.134605
293.82,19.7732,0.016,0,0.06235
313.88,19.5311,0.016,0,0.024795
314.96,19.4534,0.016,0,0.096745
315.14,18.6633,0.016,0,0.10185
311.88,18.5725,0.016,0,0.043095
299.96,18.4949,0.016,0,0.013335
388.02,18.2622,0.016,0,0.014195
339.23,18.1098,0.016,0,0.079365
273.31,18.0185,0.015,0,0.34282
286.35,16.6303,0.016,0,0.170795
287.29,16.5661,0.016,0,0.19858
288.45,16.1485,0.017,0,0.519085
284.52,15.6151,0.018,0,0.564815
282.42,15.2902,0.018,0,0.436465
281.07,15.0695,0.018,0,0.30503
277.43,14.9059,0.018,0,0.605675
254.73,13.86,0.02,0,0.89041
255.96,13.7528,0.02,0,0.95588
255.57,13.5655,0.02,0,0.865385
254,13.4132,0.02,0,0.809525
253.94,13.293,0.02,0,0.69388
261.04,12.6044,0.019,0,0.99
256.28,12.3378,0.02,0,0.506295
272.66,12.2566,0.019,0,0.20982
330.29,10.7782,0.021,0,0.07229
324.01,9.9371,0.02,0,0
369.76,9.1732,0.021,0,0
322.76,8.8279,0.021,0,0
376.88,8.776,0.02,0,0.02469
312.13,8.3499,0.02,0,0
312.38,7.7898,0.021,0,0
299.73,7.5221,0.021,0,0
0,0,0,0,0
7500,750,0.15,3,1
7500,548.60681,0.01,3,0.055255
5928.45,547.20142,0.01,3,0.186815
360.14,52.3832,0.015,0,0.064775
657.51,44.6188,0.012,0,0
579.16,44.4605,0.01,0,0
326.91,11.1833,0.011,0,0.076925
386.66,11.1317,0.009,0,0
333.7,11.0555,0.007,0,0.185185
181.26,9.7057,0.005,0,0.188935
175.34,9.65,0.005,0,0.136365
187.61,8.7313,0.005,0,0.111115
185.55,8.6068,0.005,0,0.44463
189.26,8.4123,0.005,0,0.49707
245.44,7.9303,0.006,0,0.68116
220.93,7.8093,0.006,0,0.587155
215.38,7.542,0.001,0,0.764705
241.92,7.3697,0.001,0,0.62313
199.49,7.0373,0,0,0.325
186.68,6.5474,0,0,0.14815
186.38,6.179,0,0,0.466385
321.51,32.7868,0.005,0,0.059315
681.02,32.6283,0.004,0,0.117145
528.02,32.4254,0.004,0,0.04795
296.58,32.2115,0.003,0,0.12407
331.66,27.6621,0.003,0,0.04216
296.39,26.9704,0.003,0,0.169565
294.89,26.6144,0.003,0,0.10286
288.1,26.2724,0.003,0,0.139805
320.26,25.1558,0.003,0,0.098745
269.87,25.0055,0.002,0,0.1468
281.65,24.1266,0.002,0,0.341825
277.94,23.8169,0.002,0,0.189805
286.25,22.6051,0.002,0,0.12086
281.49,22.5325,0.002,0,0.091235
283.09,22.3257,0.002,0,0.238915
218.33,15.3608,0.001,0,0.661435
214.25,15.0357,0.001,0,0.22271
215.05,14.7172,0.001,0,0
214.94,14.5655,0.001,0,0
213.6,14.032,0,0,0
220.04,13.497,0,0,0
223.96,13.1582,0,0,0
227,12.7361,0,0,0
230.29,12.4545,0,0,0
234.64,12.2442,0,0,0.032525
214.93,10.8076,0,0,0.42246
220.5,10.5235,0,0,0
219.34,10.4057,0,0,0
224.51,8.9131,0,0,0.0625
216.45,7.2059,0,0,0.21739
217.43,7.1141,0,0,0.239555
213.69,6.7694,0,0,0.477445
216.02,6.5494,0,0,0.41795
206.26,6.4604,0,0,0.554385
234.88,5.135,0,0,0.75498
245.96,4.9743,0,0,0.51875
5791.29,494.77759,0.009,3,0
5730.66,494.49249,0.009,3,0
3662.29,494.31009,0.009,3,0.09918
3648.78,493.94611,0.009,3,0.43707
3653.85,493.22241,0.009,3,0.03226
3560.09,492.91739,0.009,3,0.146005
3189.7,492.35641,0.009,3,0.050575
3217.42,490.7796,0.009,3,0.06426
3226.04,489.7359,0.009,3,0.277175
3198.12,488.74469,0.009,3,0.20636
3203.95,488.22339,0.009,3,0.105265
2969.32,482.27811,0.009,3,0.071175
2976.11,481.6752,0.009,3,0.255305
2741.14,481.27802,0.009,3,0.27005
2796.97,479.86801,0.009,3,0.08955
2997.86,479.37039,0.009,3,0.07738
3030.06,478.6059,0.009,3,0.05488
2906.16,478.15079,0.009,3,0.092235
3068.48,477.46469,0.009,3,0.25332
5500.68,472.9754,0.009,3,0.471325
4468.52,471.5881,0.009,3,0.39074
615.51,123.8797,0.014,3,0.206555
626.93,123.1324,0.014,3,0.1452
754.47,122.8607,0.014,3,0.090245
764.53,122.4516,0.014,3,0.090345
843.51,120.7069,0.014,3,0.105525
527.7,119.8996,0.014,3,0.216955
539.61,118.7754,0.014,3,0.44543
708.66,118.0469,0.014,3,0.720945
848.55,117.32,0.014,3,0.621965
601.29,115.9727,0.014,3,0.736895
706.97,115.0329,0.014,3,0.493815
685.18,113.6339,0.014,3,0.4029
657.25,112.988,0.014,3,0.23683
910.69,111.7364,0.014,3,0.484215
510.79,110.534,0.014,3,0.461345
560.65,109.1468,0.013,3,0.568525
305.61,13.6515,0.005,0,0.5617
299.15,13.5605,0.005,0,0.44519
295.1,13.423,0.005,0,0.25175
280.73,4.1415,0.005,0,0.390875
283.96,9.1415,0.005,0,0.725
312.17,9.1256,0.005,0,0.459445
260.28,8.9613,0.004,0,0.44988
261.14,8.8742,0.004,0,0.36352
255.97,8.5579,0.001,0,0.15545
252.09,8.3422,0.001,0,0.46818
258.62,8.2737,0.001,0,0.368045
253.61,7.8669,0.001,0,0.066665
247.48,7.757,0.001,0,0.28846
259.86,7.628,0,0,0.633335
247.47,7.4707,0,0,0.762295
1249.38,95.2446,0.014,3,0.36691
1184.79,94.6441,0.014,3,0.606065
1116.12,87.715,0.014,3,0.369235
516.61,22.8848,0.024,1,0.101655
504.11,22.6989,0.023,0,0.03077
444.86,22.4585,0.021,0,0.292225
264.36,22.2325,0.02,0,0.42553
273.86,21.9883,0.02,0,0.34382
273.39,21.8902,0.02,0,0.232015
435.8,14.3967,0.012,0,0.103275
210.91,13.6877,0.011,0,0.439335
204.02,13.3289,0.01,0,0.29864
197.19,12.8827,0.01,0,0.160055
200.19,12.7016,0.009,0,0.137035
202.07,10.2385,0.012,0,0.42262
173.99,9.1862,0.009,0,0.389765
173.99,9.1297,0.009,0,0.14286
174,9.0465,0.009,0,0.10643
173.17,8.7534,0.009,0,0
156.39,8.5403,0.009,0,0.117425
606.45,64.1782,0.009,2,0.06496
334.44,63.8818,0.008,0,0.1562
804.92,62.5888,0.006,0,0
564.55,57.5376,0.003,0,0.21
314.4,7.268,0.015,0,0
188.8,7.2413,0.014,0,0
188.4,7.2,0.014,0,0.01695
189.6,7.152,0.014,0,0.085725
187.71,7.0834,0.014,0,0.073115
189.08,7.0084,0.015,0,0.09179
186.15,6.9174,0.014,0,0.055325
183.42,6.8008,0.013,0,0.239535
173.79,6.6799,0.011,0,0.24855
170.26,6.4796,0.01,0,0.306665
167.47,6.0579,0.011,0,0.46296
168.44,5.7986,0.011,0,0.374825
166.74,5.5312,0.01,0,0.525975
173.21,5.2938,0.009,0,0.72078
153.61,4.2071,0.008,0,0.727975
152.69,4.1286,0.008,0,0.723685
150.53,3.9171,0.009,0,0.751805
150.33,3.7494,0.009,0,0.44197
145.92,3.5505,0.01,0,0.37915
152.65,3.1462,0.011,0,0.767835
152.62,2.9479,0.012,0,0.8044
177.57,2.789,0.012,0,0.88889
178.91,2.5331,0.013,0,0.918365
473.54,50.1496,0.001,0,0.105265
221.05,18.5697,0,0,0
195.14,18.4563,0,0,0
196.11,18.2341,0,0,0.039475
195.54,17.8914,0,0,0.25118
194.04,17.4884,0,0,0.262945
185.38,17.0492,0,0,0.16418
180.03,16.6356,0,0,0
180.09,16.5016,0,0,0
178.51,16.3381,0,0,0.531265
201.79,7.2743,0,0,0.64256
206.43,7.2267,0,0,0
209.16,7.1764,0,0,0.054055
212.44,6.8659,0,0,0
207.56,6.8134,0,0,0.298075
204.95,6.7314,0,0,0.097345
200.77,6.2414,0,0,0.364405
204.28,6.1338,0,0,0.142855
198.49,5.2855,0,0,0
212.59,5.0904,0,0,0
185.9,4.9685,0,0,0.01282
179.55,4.7337,0,0,0
181.63,4.6236,0,0,0
175.33,4.2943,0,0,0.188885
140.79,8.6282,0,0,0.364585
138.34,8.5823,0,0,0.190475
136.92,8.4063,0,0,0.13889
135.23,8.3152,0,0,0.157895
138.35,7.9909,0,0,0.042255
137.39,7.8972,0,0,0
132.54,7.7787,0,0,0
128.88,7.5791,0,0,0.0375
127.33,7.3628,0,0,0.30769
124.43,7.2163,0,0,0.415385
121.81,7.1032,0,0,0.462965
123.62,7.0393,0,0,0.447815
127.16,6.6536,0,0,0.615385
127.63,6.5465,0,0,0.69565
128.76,6.2243,0,0,0.561405
250.96,31.4418,0.001,0,0.080355
272.52,31.3275,0.001,0,0.112995
241.44,31.0956,0.001,0,0.055675
239.48,30.2884,0,0,0.142345
245.3,29.7494,0,0,0.20408
243.8,29.3936,0,0,0.399035
241.12,28.6389,0,0,0.166665
244.93,28.2599,0,0,0
235.91,26.8473,0,0,0.285715
216.2,26.2955,0,0,0.208955
215.93,26.2177,0,0,0.009435
220.36,23.3621,0,0,0.08108
220.42,18.1122,0,0,0.02794
207.47,17.9908,0,0,0.22034
209.79,17.8545,0,0,0.168225
200.11,17.2736,0,0,0.123455
236.79,11.4836,0,0,0.286255
240.59,11.4304,0,0,0.01818
236.16,11.284,0,0,0
232.36,11.0656,0,0,0
255.18,10.5965,0,0,0.398335
264.02,10.3755,0,0,0.57778
224.44,8.8445,0,0,0.52751
225.03,8.7917,0,0,0.358335
221.5,8.5424,0,0,0.420835
140.71,4.0739,0,0,0.314815
139.9,4.0408,0,0,0.284465
137.44,3.9486,0,0,0.44626
137.25,3.895,0,0,0.50303
140.33,3.8342,0,0,0.15314
141.78,3.7295,0,0,0.178825
263.67,4.4105,0,0,0.275
262.26,4.3166,0,0,0.139635
238.18,3.3345,0,0,0.099035
237.61,3.2688,0,0,0.120395
236.1,3.1388,0,0,0.109975
3439.84,347.44019,0.007,3,0.06463
2279.73,347.27271,0.007,3,0.113035
2843.35,347.0484,0.007,3,0.466865
2444.48,346.7735,0.007,3,0.313875
2537.68,346.1384,0.007,3,0.20422
2657.21,345.58099,0.007,3,0.169465
6829.7,345.0538,0.007,3,0.12558
2768.4,344.46011,0.007,3,0.451575
3272.11,343.9299,0.007,3,0.193345
2909.98,343.2547,0.007,3,0.037145
2867.29,342.7374,0.007,3,0
3956.5,334.8154,0.006,3,0.321005
1726.18,157.11079,0.008,2,0.2563
1633.15,156.80721,0.007,1,0.463255
963.97,156.3734,0.007,1,0.205745
249.45,41.4948,0.005,0,0.60343
249.52,41.3364,0.005,0,0.57582
248.81,41.0748,0.005,0,0.214965
234.88,40.3231,0.005,0,0.666665
234.2,39.6268,0.005,0,0.274655
414.13,39.145,0.005,0,0.892345
229.6,38.7246,0.005,0,0.71815
409.4,38.2485,0.005,0,0.565215
219.05,37.2481,0.005,0,0.439575
211.02,36.6998,0.005,0,0.398215
210.26,36.3671,0.005,0,0.338785
368.61,35.0624,0.005,0,0.20171
348.73,32.9996,0.003,0,0.328785
203.09,32.2209,0.003,0,0.298255
206.44,31.2792,0.003,0,0.322345
234.34,28.154,0.002,0,0.436185
198.8,27.9784,0.002,0,0.084285
196.25,27.0209,0.002,0,0.51449
217.64,25.7987,0.002,0,0.12224
219.92,25.5841,0.002,0,0.17937
216.49,25.2688,0.002,0,0.097105
212.37,24.6102,0.002,0,0.27175
212.7,24.3319,0.002,0,0.37247
223.05,21.9878,0.003,0,0.30902
227.64,21.8178,0.003,0,0.347905
230.87,21.0807,0.003,0,0.4182
246.25,20.4355,0.003,0,0.09412
242.32,19.8677,0.003,0,0.316295
240.86,19.3369,0.003,0,0.50306
241.35,19.2273,0.003,0,0.193795
254.88,18.637,0.003,0,0.08741
254.66,18.4287,0.003,0,0.223725
337.4,15.0366,0.003,0,0.48901
265.66,14.4331,0.003,0,0.517645
266.42,14.3618,0.003,0,0.43124
493.44,12.3741,0.003,0,0.28889
306.66,11.7839,0.002,0,0.460255
306.29,11.7201,0.001,0,0.4721
260.34,10.5964,0,0,0.217785
262.89,10.4331,0,0,0.161185
243.72,9.8566,0,0,0.312775
243.24,9.3536,0,0,0.488905
246.2,8.8044,0,0,0.14232
245.8,8.6205,0,0,0.31222
252.09,8.066,0,0,0.62712
248.4,6.1342,0,0,0.031525
248.39,6.1028,0,0,0
248.86,5.9343,0,0,0.046875
252.56,5.6476,0,0,0.26923
253.45,5.5947,0,0,0.17143
838.57,114.4659,0.007,1,0.353695
468.05,114.0018,0.007,1,0.392125
398.77,113.3166,0.007,0,0.60712
468.96,112.5978,0.007,0,0.866335
440.42,111.9809,0.007,0,0.897945
458.64,109.5707,0.007,0,0.99
472.1,109.0462,0.007,0,0.99
467.52,108.3557,0.007,0,0.9375
464.31,107.7991,0.007,0,0.944785
502.19,106.9819,0.007,0,0.80155
449.08,103.9138,0.007,0,0.77922
411.9,102.2068,0.007,0,0.705385
168.26,9.5183,0.006,0,0.6914
169.18,9.4557,0.006,0,0.39386
170.4,9.3752,0.006,0,0.329835
169.55,9.3107,0.006,0,0.20059
169.9,9.2017,0.006,0,0.04415
175.65,8.9758,0.006,0,0.0625
171.94,8.6797,0.006,0,0.11905
166.93,8.5843,0.006,0,0.377215
167.86,8.3811,0.006,0,0.324325
184.65,7.0087,0.007,0,0.45718
187.71,6.9055,0.008,0,0.475095
196.27,6.6332,0.008,0,0.660205
197.96,6.4366,0.008,0,0.73016
198.81,6.2379,0.008,0,0.99
199.02,5.3546,0.008,0,0.99
200.84,5.0062,0.009,0,0.99
196.83,4.8684,0.009,0,0.99
200.43,4.6955,0.009,0,0.99
194.33,4.4346,0.01,0,0.99
203.39,3.8056,0,0,0.99
414.8,92.2541,0.007,0,0.73208
380.25,91.4116,0.007,0,0.950355
354.04,78.9449,0.008,0,0.634345
350.72,2.6542,0.009,0,0.551135
350.14,2.6384,0.009,0,0.42072
368.32,76.1945,0.007,0,0.57353
329.97,75.9659,0.008,0,0.493085
332.66,75.6987,0.008,0,0.41538
348.54,4.796,0.001,0,0.34375
348.36,4.7831,0.001,0,0.42328
349.83,4.7334,0.001,0,0.34375
368.12,4.6463,0.001,0,0.507545
365.38,4.5135,0.001,0,0.384925
387.02,4.0498,0.001,0,0.77647
378.1,3.9727,0.001,0,0.465805
376.13,3.8931,0.001,0,0.360715
370.74,3.8321,0.001,0,0.258065
381.8,3.7687,0.001,0,0.291665
390.39,3.6666,0.001,0,0.28431
376.54,3.3179,0.001,0,0.195075
372.4,3.2203,0.001,0,0.21875
427.45,3.0653,0.002,0,0.250715
411.2,2.8244,0.002,0,0.433335
377.82,2.4882,0.002,0,0.444445
321.75,70.1368,0.008,0,0.26461
436.91,6.5752,0.005,0,0.166665
208.59,6.551,0.004,0,0.39785
210.46,6.4592,0.004,0,0.50582
209.94,6.3736,0.004,0,0.63946
202.74,6.2652,0.004,0,0.793105
201.99,6.1756,0.004,0,0.8125
200.61,6.1325,0.004,0,0.349485
192.44,5.99,0.004,0,0.35441
189.87,5.86,0.004,0,0.397725
190.23,5.8055,0.004,0,0.42197
185.34,5.7381,0.004,0,0.232955
187.13,5.7054,0.004,0,0.403125
200.75,5.671,0.004,0,0.35823
199.22,5.6279,0.004,0,0.3745
327.59,63.486,0.008,0,0.554745
313.79,62.9216,0.008,0,0.38095
317.01,62.1635,0.008,0,0.81356
291.48,59.8776,0.008,0,0.87574
284.32,59.6163,0.008,0,0.78989
262.97,18.9466,0.007,0,0.99
254.29,16.9488,0.006,0,0.99
246.46,15.8942,0.006,0,0.98148
292,9.7148,0,0,0.69665
287.63,9.2577,0,0,0.429135
281.97,9.1349,0,0,0.42623
254.6,6.6872,0,0,0.60889
256.62,6.6121,0,0,0.714285
258.19,6.5487,0,0,0.393055
259.67,6.4599,0,0,0.29963
263.26,6.3392,0,0,0.64706
299.2,40.1882,0.008,0,0.99
293.5,39.7874,0.008,0,0.84778
289.8,39.6494,0.008,0,0.813725
287.69,39.4922,0.008,0,0.77711
300.83,38.6673,0.008,0,0.960265
258.2,36.6936,0.009,0,0.971965
271.37,35.6339,0.009,0,0.924
260.45,33.8925,0.01,0,0.95946
251.24,32.9762,0.01,0,0.857145
243.64,32.5224,0.009,0,0.786665
402.06,14.7834,0.008,0,0.57885
412.18,14.7378,0.008,0,0.72583
399.13,14.5132,0.008,0,0.75263
397.72,14.4438,0.008,0,0.631865
464.82,14.1666,0.007,0,0.55074
443.96,13.9435,0.007,0,0.77686
384.64,13.8136,0.005,0,0.38608
357.77,2.8653,0.007,0,0.180555
353.99,2.8563,0.008,0,0
351.15,2.84,0.008,0,0.207015
279.35,2.7005,0.005,0,0.301475
275.03,2.6547,0.005,0,0.290325
273.88,2.6322,0.005,0,0.781315
326.27,10.8682,0.005,0,0.11464
325.95,10.7013,0.005,0,0.048195
259.03,17.6537,0.009,0,0.417165
282.31,17.586,0.009,0,0.627585
260.15,17.0611,0.009,0,0.56994
262.1,16.9953,0.009,0,0.53791
261.89,16.8614,0.009,0,0.529915
239.77,4.9184,0.006,0,0.88889
242.36,4.9008,0.006,0,0.588235
319.93,11.7466,0.01,0,0.515875
301.05,8.1347,0.001,0,0.381015
302.8,8.0714,0.001,0,0.429825
343.56,7.7653,0.001,0,0.885055
391.07,7.7192,0.001,0,0.77143
306.47,3.8354,0,0,0.49123
306.31,3.8128,0,0,0.68276
359.84,3.1024,0,0,0.73077
351.26,3.0785,0,0,0.944445
347.6,3.0613,0,0,0.564105
344.06,3.0155,0,0,0.25
344.06,2.9943,0,0,0.458335
2469.94,177.13921,0.005,3,0.39487
2085.01,174.1129,0.005,3,0.4151
446.67,11.8034,0,0,0.70645
464.34,11.7619,0,0,0.419645
465.41,11.6808,0,0,0.32308
430.27,11.6111,0,0,0.68421
452,11.2644,0,0,0.105555
452.46,10.405,0,0,0.32821
452.15,10.2467,0,0,0
550.15,9.811,0,0,0
550.15,9.8064,0,0,0.779205
472.59,9.72,0,0,0.99
546.41,9.6502,0,0,0.99
481.48,9.4842,0,0,0.99
472.18,9.2726,0,0,0.98795
469.91,9.162,0,0,0.77343
455.57,6.0898,0,0,0.533335
477.17,5.6797,0,0,0.387595
475.93,5.6353,0,0,0.46574
1531.34,162.1738,0.005,3,0.464415
1954.38,161.7695,0.005,3,0.167835
1237.25,160.4874,0.005,2,0.28726
1846.22,160.2209,0.005,2,0.533835
1435.27,157.77361,0.005,2,0.465335
1825.05,157.1769,0.005,2,0.52008
1379.58,154.42979,0.005,2,0.523925
1399.02,152.9422,0.005,2,0.767855
651.23,8.2751,0.008,0,0
372.18,6.8984,0.002,0,0
1742.3,163.29041,0.009,3,0.10639
310.14,3.1614,0,0,0
