{
  "urn" : "local:stefano.balbi:im.alice.ireland:estuary_conv",
  "version" : "0.0.1",
  "adapterType" : "raster",
  "localPath" : "im.alice.ireland/resources/estuary_conv.v0.0.1",
  "geometry" : "S2(555,746){bbox=[-6.43953092933957 -6.01552874262883 53.9993008940784 54.3345260884618],proj=EPSG:4326}",
  "projectName" : "im.alice.ireland",
  "localName" : "estuary_conv.tiff",
  "type" : "NUMBER",
  "resourceTimestamp" : 1611583920213,
  "metadata" : { },
  "parameters" : { },
  "localPaths" : "im.alice.ireland/resources/estuary_conv.v0.0.1/estuary_conv.tiff",
  "history" : [ ],
  "notifications" : [ ],
  "attributes" : [ ],
  "spatialExtent" : {
    "east" : -6.01552874262883,
    "west" : -6.43953092933957,
    "north" : 54.3345260884618,
    "south" : 53.9993008940784,
    "gridResolution" : null,
    "gridUnit" : null
  },
  "dependencies" : null,
  "outputs" : null,
  "exportFormats" : {
    "tiff" : "GeoTiff"
  }
}