@relation solid_suspension_mass_to_water_volume_ratio_during_winter_of_reach_instances-weka.filters.unsupervised.attribute.Discretize-Y-B3-M-1.0-R1-precision6-weka.filters.unsupervised.attribute.Discretize-Y-B3-M-1.0-R2-precision6-weka.filters.unsupervised.attribute.Discretize-Y-B3-M-1.0-R3-precision6-weka.filters.unsupervised.attribute.Discretize-Y-B3-M-1.0-R4-precision6

@attribute solid_suspension_mass_to_water_volume_ratio_during_winter_of_reach {'\'B1of3\'','\'B2of3\'','\'B3of3\''}
@attribute volume_of_estuary_site {'\'B1of3\'','\'B2of3\'','\'B3of3\''}
@attribute solid_suspension_mass_during_winter_to_area_of_watershed_ratio {'\'B1of3\'','\'B2of3\'','\'B3of3\''}
@attribute water_volume_during_winter {'\'B1of3\'','\'B2of3\'','\'B3of3\''}

@data
'\'B1of3\'','\'B1of3\'','\'B1of3\'','\'B1of3\''
'\'B1of3\'','\'B1of3\'','\'B1of3\'','\'B1of3\''
'\'B1of3\'','\'B1of3\'','\'B1of3\'','\'B1of3\''
'\'B2of3\'','\'B1of3\'','\'B1of3\'','\'B1of3\''
'\'B1of3\'','\'B1of3\'','\'B1of3\'','\'B1of3\''
'\'B1of3\'','\'B1of3\'','\'B1of3\'','\'B1of3\''
'\'B1of3\'','\'B1of3\'','\'B1of3\'','\'B1of3\''
'\'B2of3\'','\'B1of3\'','\'B1of3\'','\'B1of3\''
'\'B1of3\'','\'B1of3\'','\'B1of3\'','\'B1of3\''
'\'B1of3\'','\'B1of3\'','\'B1of3\'','\'B1of3\''
'\'B1of3\'','\'B1of3\'','\'B1of3\'','\'B1of3\''
'\'B1of3\'','\'B1of3\'','\'B1of3\'','\'B1of3\''
'\'B1of3\'','\'B1of3\'','\'B1of3\'','\'B1of3\''
'\'B1of3\'','\'B3of3\'','\'B2of3\'','\'B1of3\''
'\'B1of3\'','\'B2of3\'','\'B2of3\'','\'B1of3\''
'\'B1of3\'','\'B2of3\'','\'B2of3\'','\'B1of3\''
'\'B1of3\'','\'B2of3\'','\'B2of3\'','\'B1of3\''
'\'B1of3\'','\'B2of3\'','\'B2of3\'','\'B1of3\''
'\'B1of3\'','\'B2of3\'','\'B2of3\'','\'B1of3\''
'\'B1of3\'','\'B2of3\'','\'B2of3\'','\'B1of3\''
'\'B1of3\'','\'B2of3\'','\'B2of3\'','\'B1of3\''
'\'B1of3\'','\'B2of3\'','\'B2of3\'','\'B1of3\''
'\'B1of3\'','\'B2of3\'','\'B2of3\'','\'B1of3\''
'\'B1of3\'','\'B2of3\'','\'B2of3\'','\'B1of3\''
'\'B1of3\'','\'B2of3\'','\'B2of3\'','\'B1of3\''
'\'B1of3\'','\'B2of3\'','\'B2of3\'','\'B1of3\''
'\'B1of3\'','\'B2of3\'','\'B2of3\'','\'B1of3\''
'\'B1of3\'','\'B1of3\'','\'B3of3\'','\'B3of3\''
'\'B1of3\'','\'B1of3\'','\'B3of3\'','\'B2of3\''
'\'B1of3\'','\'B1of3\'','\'B3of3\'','\'B2of3\''
'\'B1of3\'','\'B1of3\'','\'B3of3\'','\'B3of3\''
'\'B1of3\'','\'B1of3\'','\'B3of3\'','\'B2of3\''
'\'B1of3\'','\'B1of3\'','\'B3of3\'','\'B3of3\''
'\'B1of3\'','\'B1of3\'','\'B3of3\'','\'B2of3\''
'\'B1of3\'','\'B1of3\'','\'B3of3\'','\'B3of3\''
'\'B1of3\'','\'B1of3\'','\'B3of3\'','\'B2of3\''
'\'B1of3\'','\'B1of3\'','\'B3of3\'','\'B1of3\''
'\'B1of3\'','\'B1of3\'','\'B3of3\'','\'B2of3\''
'\'B1of3\'','\'B1of3\'','\'B3of3\'','\'B2of3\''
'\'B1of3\'','\'B1of3\'','\'B3of3\'','\'B2of3\''
'\'B1of3\'','\'B1of3\'','\'B2of3\'','\'B1of3\''
'\'B1of3\'','\'B1of3\'','\'B2of3\'','\'B1of3\''
'\'B1of3\'','\'B1of3\'','\'B2of3\'','\'B2of3\''
'\'B1of3\'','\'B1of3\'','\'B2of3\'','\'B1of3\''
'\'B1of3\'','\'B1of3\'','\'B2of3\'','\'B1of3\''
'\'B1of3\'','\'B1of3\'','\'B2of3\'','\'B2of3\''
'\'B1of3\'','\'B1of3\'','\'B2of3\'','\'B2of3\''
'\'B1of3\'','\'B1of3\'','\'B2of3\'','\'B1of3\''
'\'B1of3\'','\'B1of3\'','\'B2of3\'','\'B1of3\''
'\'B1of3\'','\'B1of3\'','\'B2of3\'','\'B1of3\''
'\'B1of3\'','\'B1of3\'','\'B1of3\'','\'B1of3\''
'\'B1of3\'','\'B1of3\'','\'B1of3\'','\'B1of3\''
'\'B1of3\'','\'B1of3\'','\'B1of3\'','\'B1of3\''
'\'B1of3\'','\'B1of3\'','\'B1of3\'','\'B1of3\''
'\'B1of3\'','\'B1of3\'','\'B1of3\'','\'B1of3\''
'\'B1of3\'','\'B1of3\'','\'B1of3\'','\'B1of3\''
'\'B1of3\'','\'B1of3\'','\'B1of3\'','\'B1of3\''
'\'B1of3\'','\'B1of3\'','\'B1of3\'','\'B1of3\''
'\'B1of3\'','\'B1of3\'','\'B1of3\'','\'B1of3\''
'\'B1of3\'','\'B1of3\'','\'B1of3\'','\'B1of3\''
'\'B1of3\'','\'B1of3\'','\'B1of3\'','\'B1of3\''
'\'B1of3\'','\'B1of3\'','\'B1of3\'','\'B1of3\''
'\'B1of3\'','\'B1of3\'','\'B1of3\'','\'B1of3\''
'\'B1of3\'','\'B1of3\'','\'B1of3\'','\'B1of3\''
'\'B1of3\'','\'B1of3\'','\'B1of3\'','\'B1of3\''
'\'B1of3\'','\'B1of3\'','\'B1of3\'','\'B1of3\''
'\'B2of3\'','\'B1of3\'','\'B1of3\'','\'B1of3\''
'\'B1of3\'','\'B1of3\'','\'B1of3\'','\'B1of3\''
'\'B1of3\'','\'B1of3\'','\'B1of3\'','\'B1of3\''
'\'B1of3\'','\'B1of3\'','\'B1of3\'','\'B1of3\''
'\'B1of3\'','\'B1of3\'','\'B1of3\'','\'B1of3\''
'\'B1of3\'','\'B1of3\'','\'B1of3\'','\'B1of3\''
'\'B1of3\'','\'B1of3\'','\'B1of3\'','\'B1of3\''
'\'B1of3\'','\'B1of3\'','\'B1of3\'','\'B1of3\''
'\'B1of3\'','\'B1of3\'','\'B1of3\'','\'B1of3\''
'\'B1of3\'','\'B1of3\'','\'B1of3\'','\'B1of3\''
'\'B1of3\'','\'B1of3\'','\'B2of3\'','\'B3of3\''
'\'B1of3\'','\'B1of3\'','\'B2of3\'','\'B2of3\''
'\'B1of3\'','\'B1of3\'','\'B2of3\'','\'B3of3\''
'\'B1of3\'','\'B1of3\'','\'B2of3\'','\'B3of3\''
'\'B1of3\'','\'B1of3\'','\'B2of3\'','\'B2of3\''
'\'B1of3\'','\'B1of3\'','\'B2of3\'','\'B3of3\''
'\'B1of3\'','\'B1of3\'','\'B2of3\'','\'B2of3\''
'\'B1of3\'','\'B1of3\'','\'B2of3\'','\'B3of3\''
'\'B1of3\'','\'B1of3\'','\'B2of3\'','\'B2of3\''
'\'B1of3\'','\'B1of3\'','\'B2of3\'','\'B3of3\''
'\'B1of3\'','\'B1of3\'','\'B2of3\'','\'B3of3\''
'\'B1of3\'','\'B1of3\'','\'B2of3\'','\'B2of3\''
'\'B1of3\'','\'B1of3\'','\'B2of3\'','\'B3of3\''
'\'B1of3\'','\'B1of3\'','\'B1of3\'','\'B1of3\''
'\'B1of3\'','\'B1of3\'','\'B1of3\'','\'B1of3\''
'\'B1of3\'','\'B1of3\'','\'B1of3\'','\'B1of3\''
'\'B1of3\'','\'B1of3\'','\'B1of3\'','\'B1of3\''
'\'B1of3\'','\'B1of3\'','\'B1of3\'','\'B1of3\''
'\'B1of3\'','\'B1of3\'','\'B1of3\'','\'B1of3\''
'\'B1of3\'','\'B1of3\'','\'B1of3\'','\'B1of3\''
'\'B1of3\'','\'B1of3\'','\'B1of3\'','\'B1of3\''
'\'B1of3\'','\'B1of3\'','\'B1of3\'','\'B1of3\''
'\'B1of3\'','\'B1of3\'','\'B1of3\'','\'B1of3\''
'\'B1of3\'','\'B1of3\'','\'B1of3\'','\'B1of3\''
'\'B1of3\'','\'B1of3\'','\'B1of3\'','\'B1of3\''
'\'B1of3\'','\'B1of3\'','\'B1of3\'','\'B1of3\''
'\'B1of3\'','\'B1of3\'','\'B1of3\'','\'B2of3\''
'\'B1of3\'','\'B1of3\'','\'B1of3\'','\'B1of3\''
'\'B1of3\'','\'B1of3\'','\'B1of3\'','\'B2of3\''
'\'B1of3\'','\'B1of3\'','\'B1of3\'','\'B2of3\''
'\'B3of3\'','\'B1of3\'','\'B1of3\'','\'B2of3\''
'\'B1of3\'','\'B1of3\'','\'B1of3\'','\'B2of3\''
'\'B1of3\'','\'B1of3\'','\'B1of3\'','\'B1of3\''
'\'B1of3\'','\'B1of3\'','\'B1of3\'','\'B2of3\''
'\'B1of3\'','\'B1of3\'','\'B1of3\'','\'B1of3\''
'\'B1of3\'','\'B1of3\'','\'B1of3\'','\'B1of3\''
'\'B1of3\'','\'B1of3\'','\'B1of3\'','\'B1of3\''
'\'B1of3\'','\'B1of3\'','\'B1of3\'','\'B1of3\''
'\'B1of3\'','\'B1of3\'','\'B1of3\'','\'B2of3\''
'\'B1of3\'','\'B1of3\'','\'B1of3\'','\'B2of3\''
'\'B1of3\'','\'B1of3\'','\'B1of3\'','\'B2of3\''
'\'B1of3\'','\'B1of3\'','\'B1of3\'','\'B2of3\''
'\'B1of3\'','\'B1of3\'','\'B1of3\'','\'B2of3\''
'\'B2of3\'','\'B1of3\'','\'B1of3\'','\'B2of3\''
'\'B1of3\'','\'B1of3\'','\'B1of3\'','\'B2of3\''
'\'B1of3\'','\'B1of3\'','\'B1of3\'','\'B2of3\''
'\'B1of3\'','\'B1of3\'','\'B1of3\'','\'B3of3\''
'\'B1of3\'','\'B1of3\'','\'B1of3\'','\'B2of3\''
'\'B1of3\'','\'B1of3\'','\'B1of3\'','\'B2of3\''
'\'B1of3\'','\'B1of3\'','\'B1of3\'','\'B2of3\''
'\'B1of3\'','\'B1of3\'','\'B1of3\'','\'B1of3\''
'\'B1of3\'','\'B1of3\'','\'B1of3\'','\'B2of3\''
'\'B1of3\'','\'B1of3\'','\'B1of3\'','\'B1of3\''
'\'B1of3\'','\'B1of3\'','\'B1of3\'','\'B1of3\''
'\'B1of3\'','\'B1of3\'','\'B1of3\'','\'B1of3\''
'\'B2of3\'','\'B1of3\'','\'B1of3\'','\'B1of3\''
'\'B1of3\'','\'B1of3\'','\'B1of3\'','\'B1of3\''
'\'B1of3\'','\'B1of3\'','\'B1of3\'','\'B1of3\''
'\'B1of3\'','\'B1of3\'','\'B1of3\'','\'B1of3\''
'\'B2of3\'','\'B1of3\'','\'B1of3\'','\'B1of3\''
'\'B1of3\'','\'B1of3\'','\'B1of3\'','\'B1of3\''
'\'B1of3\'','\'B1of3\'','\'B1of3\'','\'B1of3\''
'\'B1of3\'','\'B1of3\'','\'B1of3\'','\'B1of3\''
'\'B1of3\'','\'B1of3\'','\'B1of3\'','\'B1of3\''
'\'B1of3\'','\'B1of3\'','\'B1of3\'','\'B1of3\''
'\'B1of3\'','\'B3of3\'','\'B2of3\'','\'B1of3\''
'\'B1of3\'','\'B2of3\'','\'B2of3\'','\'B1of3\''
'\'B1of3\'','\'B2of3\'','\'B2of3\'','\'B1of3\''
'\'B1of3\'','\'B2of3\'','\'B2of3\'','\'B1of3\''
'\'B1of3\'','\'B2of3\'','\'B2of3\'','\'B1of3\''
'\'B1of3\'','\'B2of3\'','\'B2of3\'','\'B1of3\''
'\'B1of3\'','\'B2of3\'','\'B2of3\'','\'B1of3\''
'\'B1of3\'','\'B2of3\'','\'B2of3\'','\'B1of3\''
'\'B1of3\'','\'B2of3\'','\'B2of3\'','\'B1of3\''
'\'B1of3\'','\'B2of3\'','\'B2of3\'','\'B1of3\''
'\'B1of3\'','\'B2of3\'','\'B2of3\'','\'B1of3\''
'\'B1of3\'','\'B2of3\'','\'B2of3\'','\'B1of3\''
'\'B1of3\'','\'B2of3\'','\'B2of3\'','\'B1of3\''
'\'B1of3\'','\'B2of3\'','\'B2of3\'','\'B1of3\''
'\'B1of3\'','\'B1of3\'','\'B3of3\'','\'B3of3\''
'\'B1of3\'','\'B1of3\'','\'B3of3\'','\'B2of3\''
'\'B1of3\'','\'B1of3\'','\'B3of3\'','\'B2of3\''
'\'B1of3\'','\'B1of3\'','\'B3of3\'','\'B3of3\''
'\'B1of3\'','\'B1of3\'','\'B3of3\'','\'B2of3\''
'\'B1of3\'','\'B1of3\'','\'B3of3\'','\'B3of3\''
'\'B1of3\'','\'B1of3\'','\'B3of3\'','\'B2of3\''
'\'B1of3\'','\'B1of3\'','\'B3of3\'','\'B3of3\''
'\'B1of3\'','\'B1of3\'','\'B3of3\'','\'B2of3\''
'\'B1of3\'','\'B1of3\'','\'B3of3\'','\'B1of3\''
'\'B1of3\'','\'B1of3\'','\'B3of3\'','\'B2of3\''
'\'B1of3\'','\'B1of3\'','\'B3of3\'','\'B2of3\''
'\'B1of3\'','\'B1of3\'','\'B3of3\'','\'B2of3\''
'\'B1of3\'','\'B1of3\'','\'B2of3\'','\'B1of3\''
'\'B1of3\'','\'B1of3\'','\'B2of3\'','\'B1of3\''
'\'B1of3\'','\'B1of3\'','\'B2of3\'','\'B2of3\''
'\'B1of3\'','\'B1of3\'','\'B2of3\'','\'B1of3\''
'\'B1of3\'','\'B1of3\'','\'B2of3\'','\'B1of3\''
'\'B1of3\'','\'B1of3\'','\'B2of3\'','\'B2of3\''
'\'B1of3\'','\'B1of3\'','\'B2of3\'','\'B2of3\''
'\'B1of3\'','\'B1of3\'','\'B2of3\'','\'B1of3\''
'\'B1of3\'','\'B1of3\'','\'B2of3\'','\'B1of3\''
'\'B1of3\'','\'B1of3\'','\'B2of3\'','\'B1of3\''
'\'B1of3\'','\'B1of3\'','\'B1of3\'','\'B1of3\''
'\'B1of3\'','\'B1of3\'','\'B1of3\'','\'B1of3\''
'\'B1of3\'','\'B1of3\'','\'B1of3\'','\'B1of3\''
'\'B1of3\'','\'B1of3\'','\'B1of3\'','\'B1of3\''
'\'B1of3\'','\'B1of3\'','\'B1of3\'','\'B1of3\''
'\'B1of3\'','\'B1of3\'','\'B1of3\'','\'B1of3\''
'\'B1of3\'','\'B1of3\'','\'B1of3\'','\'B1of3\''
'\'B1of3\'','\'B1of3\'','\'B1of3\'','\'B1of3\''
'\'B1of3\'','\'B1of3\'','\'B1of3\'','\'B1of3\''
'\'B1of3\'','\'B1of3\'','\'B1of3\'','\'B1of3\''
'\'B1of3\'','\'B1of3\'','\'B1of3\'','\'B1of3\''
'\'B1of3\'','\'B1of3\'','\'B1of3\'','\'B1of3\''
'\'B1of3\'','\'B1of3\'','\'B1of3\'','\'B1of3\''
'\'B1of3\'','\'B1of3\'','\'B1of3\'','\'B1of3\''
'\'B1of3\'','\'B1of3\'','\'B1of3\'','\'B1of3\''
'\'B1of3\'','\'B1of3\'','\'B1of3\'','\'B1of3\''
'\'B2of3\'','\'B1of3\'','\'B1of3\'','\'B1of3\''
'\'B1of3\'','\'B1of3\'','\'B1of3\'','\'B1of3\''
'\'B1of3\'','\'B1of3\'','\'B1of3\'','\'B1of3\''
'\'B1of3\'','\'B1of3\'','\'B1of3\'','\'B1of3\''
'\'B1of3\'','\'B1of3\'','\'B1of3\'','\'B1of3\''
'\'B1of3\'','\'B1of3\'','\'B1of3\'','\'B1of3\''
'\'B1of3\'','\'B1of3\'','\'B1of3\'','\'B1of3\''
'\'B1of3\'','\'B1of3\'','\'B1of3\'','\'B1of3\''
'\'B1of3\'','\'B1of3\'','\'B1of3\'','\'B1of3\''
'\'B1of3\'','\'B1of3\'','\'B1of3\'','\'B1of3\''
'\'B1of3\'','\'B1of3\'','\'B2of3\'','\'B3of3\''
'\'B1of3\'','\'B1of3\'','\'B2of3\'','\'B2of3\''
'\'B1of3\'','\'B1of3\'','\'B2of3\'','\'B3of3\''
'\'B1of3\'','\'B1of3\'','\'B2of3\'','\'B3of3\''
'\'B1of3\'','\'B1of3\'','\'B2of3\'','\'B2of3\''
'\'B1of3\'','\'B1of3\'','\'B2of3\'','\'B3of3\''
'\'B1of3\'','\'B1of3\'','\'B2of3\'','\'B2of3\''
'\'B1of3\'','\'B1of3\'','\'B2of3\'','\'B3of3\''
'\'B1of3\'','\'B1of3\'','\'B2of3\'','\'B2of3\''
'\'B1of3\'','\'B1of3\'','\'B2of3\'','\'B3of3\''
'\'B1of3\'','\'B1of3\'','\'B2of3\'','\'B3of3\''
'\'B1of3\'','\'B1of3\'','\'B2of3\'','\'B2of3\''
'\'B1of3\'','\'B1of3\'','\'B2of3\'','\'B3of3\''
'\'B1of3\'','\'B1of3\'','\'B1of3\'','\'B1of3\''
'\'B1of3\'','\'B1of3\'','\'B1of3\'','\'B1of3\''
'\'B1of3\'','\'B1of3\'','\'B1of3\'','\'B1of3\''
'\'B1of3\'','\'B1of3\'','\'B1of3\'','\'B1of3\''
'\'B1of3\'','\'B1of3\'','\'B1of3\'','\'B1of3\''
'\'B1of3\'','\'B1of3\'','\'B1of3\'','\'B1of3\''
'\'B1of3\'','\'B1of3\'','\'B1of3\'','\'B1of3\''
'\'B1of3\'','\'B1of3\'','\'B1of3\'','\'B1of3\''
'\'B1of3\'','\'B1of3\'','\'B1of3\'','\'B1of3\''
'\'B1of3\'','\'B1of3\'','\'B1of3\'','\'B1of3\''
'\'B1of3\'','\'B1of3\'','\'B1of3\'','\'B1of3\''
'\'B1of3\'','\'B1of3\'','\'B1of3\'','\'B1of3\''
'\'B1of3\'','\'B1of3\'','\'B1of3\'','\'B1of3\''
'\'B1of3\'','\'B1of3\'','\'B1of3\'','\'B2of3\''
'\'B1of3\'','\'B1of3\'','\'B1of3\'','\'B1of3\''
'\'B1of3\'','\'B1of3\'','\'B1of3\'','\'B2of3\''
'\'B1of3\'','\'B1of3\'','\'B1of3\'','\'B2of3\''
'\'B3of3\'','\'B1of3\'','\'B1of3\'','\'B2of3\''
'\'B1of3\'','\'B1of3\'','\'B1of3\'','\'B2of3\''
'\'B1of3\'','\'B1of3\'','\'B1of3\'','\'B1of3\''
'\'B1of3\'','\'B1of3\'','\'B1of3\'','\'B2of3\''
'\'B1of3\'','\'B1of3\'','\'B1of3\'','\'B1of3\''
'\'B1of3\'','\'B1of3\'','\'B1of3\'','\'B1of3\''
'\'B1of3\'','\'B1of3\'','\'B1of3\'','\'B1of3\''
'\'B1of3\'','\'B1of3\'','\'B1of3\'','\'B1of3\''
'\'B1of3\'','\'B1of3\'','\'B1of3\'','\'B2of3\''
'\'B1of3\'','\'B1of3\'','\'B1of3\'','\'B2of3\''
'\'B1of3\'','\'B1of3\'','\'B1of3\'','\'B2of3\''
'\'B1of3\'','\'B1of3\'','\'B1of3\'','\'B2of3\''
'\'B1of3\'','\'B1of3\'','\'B1of3\'','\'B2of3\''
'\'B2of3\'','\'B1of3\'','\'B1of3\'','\'B2of3\''
'\'B1of3\'','\'B1of3\'','\'B1of3\'','\'B2of3\''
'\'B1of3\'','\'B1of3\'','\'B1of3\'','\'B2of3\''
'\'B1of3\'','\'B1of3\'','\'B1of3\'','\'B3of3\''
'\'B1of3\'','\'B1of3\'','\'B1of3\'','\'B2of3\''
'\'B1of3\'','\'B1of3\'','\'B1of3\'','\'B2of3\''
'\'B1of3\'','\'B1of3\'','\'B1of3\'','\'B2of3\''
'\'B1of3\'','\'B1of3\'','\'B1of3\'','\'B1of3\''
'\'B1of3\'','\'B1of3\'','\'B1of3\'','\'B2of3\''
