{
  "urn" : "local:amarquez:im.alice.ireland:bau_gepdel",
  "version" : "0.0.1",
  "adapterType" : "raster",
  "localPath" : "im.alice.ireland/resources/bau_gepdel.v0.0.1",
  "geometry" : "t1{tstart=2524608000000,ttype=physical}S2(960,729){bbox=[-6.449316488095656 -6.017928581864569 54.02763271273819 54.355217904032415],proj=EPSG:4326}",
  "projectName" : "im.alice.ireland",
  "localName" : "bau_gepdel.tif",
  "type" : "NUMBER",
  "resourceTimestamp" : 1612796291329,
  "metadata" : {
    "im:keywords" : "",
    "dc:comment" : "",
    "im:notes" : "",
    "dc:title" : "",
    "dc:url" : "",
    "dc:creator" : "",
    "im:thematic-area" : "",
    "dc:originator" : "",
    "im:geographic-area" : "",
    "dc:source" : ""
  },
  "parameters" : {
    "nodata" : "-3.4028234663852886E38"
  },
  "localPaths" : [ "im.alice.ireland/resources/bau_gepdel.v0.0.1/bau_gepdel.tif", "im.alice.ireland/resources/bau_gepdel.v0.0.1/bau_gepdel.tif.ovr", "im.alice.ireland/resources/bau_gepdel.v0.0.1/bau_gepdel.tif.aux.xml", "im.alice.ireland/resources/bau_gepdel.v0.0.1/bau_gepdel.tfw" ],
  "history" : [ ],
  "notifications" : [ ],
  "attributes" : [ ],
  "spatialExtent" : {
    "east" : -6.017928581864569,
    "west" : -6.449316488095656,
    "north" : 54.355217904032415,
    "south" : 54.02763271273819,
    "gridResolution" : null,
    "gridUnit" : null
  },
  "dependencies" : null,
  "outputs" : null,
  "exportFormats" : {
    "tiff" : "GeoTiff"
  }
}