{
  "urn" : "local:amarquez:im.alice.ireland:northireland_precipitation_dryseason_cclm_85_2045_2055",
  "version" : "0.0.1",
  "adapterType" : "wcs",
  "localPath" : "im.alice.ireland/resources/northireland_precipitation_dryseason_cclm_85_2045_2055.v0.0.1",
  "geometry" : "t1{tend=2713824000000,tstart=2366841600000,ttype=physical}S2(59,55){bbox=[-6.455 -5.855 53.885 54.445],proj=EPSG:4326}",
  "projectName" : "im.alice.ireland",
  "localName" : "northireland_precipitation_dryseason_cclm_85_2045_2055",
  "type" : "NUMBER",
  "resourceTimestamp" : 1601305671790,
  "metadata" : {
    "im:keywords" : "",
    "dc:comment" : "",
    "im:notes" : "",
    "dc:title" : "",
    "dc:url" : "",
    "dc:creator" : "",
    "im:thematic-area" : "",
    "dc:originator" : "",
    "im:geographic-area" : "",
    "dc:source" : ""
  },
  "parameters" : {
    "wcsIdentifier" : "im-alice-spain__northireland_precipitation_dryseason_cclm_85_2045_2055",
    "serviceUrl" : "https://integratedmodelling.org/dev-geoserver/ows/",
    "band" : "0",
    "nodata" : "-3.4E38",
    "wcsVersion" : "2.0.1"
  },
  "localPaths" : [ ],
  "history" : [ ],
  "notifications" : [ ],
  "attributes" : [ ],
  "spatialExtent" : {
    "east" : -5.855,
    "west" : -6.455,
    "north" : 54.445,
    "south" : 53.885,
    "gridResolution" : null,
    "gridUnit" : null
  },
  "dependencies" : null,
  "outputs" : null,
  "exportFormats" : { }
}