{
  "urn" : "local:stefano.balbi:im.alice.ireland:futureBGIN_Estuary_vo",
  "version" : "0.0.1",
  "adapterType" : "raster",
  "localPath" : "im.alice.ireland/resources/futureBGIN_Estuary_vo.v0.0.1",
  "geometry" : "S2(960,729){bbox=[-6.449316488095656 -6.017928581864569 54.02763271273819 54.355217904032415],proj=EPSG:4326}",
  "projectName" : "im.alice.ireland",
  "localName" : "futureBGIN_Estuary_vo.tif",
  "type" : "NUMBER",
  "resourceTimestamp" : 1615285415467,
  "metadata" : { },
  "parameters" : {
    "transform" : "",
    "nodata" : "-1.7976931348623157E308"
  },
  "localPaths" : "im.alice.ireland/resources/futureBGIN_Estuary_vo.v0.0.1/futureBGIN_Estuary_vo.tif",
  "history" : [ ],
  "notifications" : [ ],
  "attributes" : [ ],
  "spatialExtent" : {
    "east" : -6.017928581864569,
    "west" : -6.449316488095656,
    "north" : 54.355217904032415,
    "south" : 54.02763271273819,
    "gridResolution" : null,
    "gridUnit" : null
  },
  "dependencies" : null,
  "outputs" : null,
  "categorizables" : [ ],
  "exportFormats" : {
    "tiff" : "GeoTiff"
  }
}