@relation adult_salmonidae_biomass_of_reach_instances-weka.filters.unsupervised.attribute.Discretize-Y-B3-M-1.0-R1-precision6-weka.filters.unsupervised.attribute.Discretize-Y-B3-M-1.0-R2-precision6-weka.filters.unsupervised.attribute.Discretize-Y-B3-M-1.0-R3-precision6-weka.filters.unsupervised.attribute.Discretize-Y-B3-M-1.0-R4-precision6-weka.filters.unsupervised.attribute.Discretize-Y-B3-M-1.0-R5-precision6

@attribute adult_salmonidae_biomass_of_reach {'\'B1of3\'','\'B2of3\'','\'B3of3\''}
@attribute water_temperature_during_summer {'\'B1of3\'','\'B2of3\'','\'B3of3\''}
@attribute minimum_omass_to_water_volume_ratio {'\'B1of3\'','\'B2of3\'','\'B3of3\''}
@attribute stream_width {'\'B1of3\'','\'B2of3\'','\'B3of3\''}
@attribute width_of_habitat_region {'\'B1of3\'','\'B2of3\'','\'B3of3\''}

@data
'\'B1of3\'','\'B1of3\'','\'B2of3\'','\'B2of3\'','\'B3of3\''
'\'B1of3\'','\'B2of3\'','\'B1of3\'','\'B2of3\'','\'B3of3\''
'\'B1of3\'','\'B1of3\'','\'B1of3\'','\'B2of3\'','\'B3of3\''
'\'B1of3\'','\'B2of3\'','\'B1of3\'','\'B2of3\'','\'B3of3\''
'\'B1of3\'','\'B1of3\'','\'B1of3\'','\'B2of3\'','\'B3of3\''
'\'B1of3\'','\'B2of3\'','\'B2of3\'','\'B2of3\'','\'B3of3\''
'\'B1of3\'','\'B1of3\'','\'B1of3\'','\'B2of3\'','\'B3of3\''
'\'B1of3\'','\'B3of3\'','\'B3of3\'','\'B2of3\'','\'B3of3\''
'\'B1of3\'','\'B1of3\'','\'B1of3\'','\'B2of3\'','\'B1of3\''
'\'B1of3\'','\'B1of3\'','\'B2of3\'','\'B1of3\'','\'B2of3\''
'\'B1of3\'','\'B1of3\'','\'B2of3\'','\'B2of3\'','\'B2of3\''
'\'B1of3\'','\'B1of3\'','\'B1of3\'','\'B2of3\'','\'B1of3\''
'\'B1of3\'','\'B2of3\'','\'B2of3\'','\'B2of3\'','\'B1of3\''
'\'B1of3\'','\'B1of3\'','\'B2of3\'','\'B2of3\'','\'B1of3\''
'\'B1of3\'','\'B1of3\'','\'B1of3\'','\'B2of3\'','\'B1of3\''
'\'B1of3\'','\'B3of3\'','\'B2of3\'','\'B2of3\'','\'B1of3\''
'\'B1of3\'','\'B1of3\'','\'B1of3\'','\'B2of3\'','\'B1of3\''
'\'B1of3\'','\'B2of3\'','\'B1of3\'','\'B2of3\'','\'B1of3\''
'\'B1of3\'','\'B2of3\'','\'B1of3\'','\'B2of3\'','\'B1of3\''
'\'B2of3\'','\'B2of3\'','\'B1of3\'','\'B3of3\'','\'B3of3\''
'\'B1of3\'','\'B3of3\'','\'B1of3\'','\'B3of3\'','\'B2of3\''
'\'B1of3\'','\'B1of3\'','\'B1of3\'','\'B3of3\'','\'B2of3\''
'\'B1of3\'','\'B1of3\'','\'B2of3\'','\'B3of3\'','\'B2of3\''
'\'B1of3\'','\'B1of3\'','\'B1of3\'','\'B3of3\'','\'B2of3\''
'\'B1of3\'','\'B3of3\'','\'B1of3\'','\'B3of3\'','\'B2of3\''
'\'B1of3\'','\'B3of3\'','\'B1of3\'','\'B3of3\'','\'B2of3\''
'\'B1of3\'','\'B2of3\'','\'B1of3\'','\'B3of3\'','\'B2of3\''
'\'B1of3\'','\'B1of3\'','\'B1of3\'','\'B3of3\'','\'B2of3\''
'\'B1of3\'','\'B1of3\'','\'B1of3\'','\'B3of3\'','\'B2of3\''
'\'B1of3\'','\'B1of3\'','\'B1of3\'','\'B2of3\'','\'B2of3\''
'\'B1of3\'','\'B2of3\'','\'B1of3\'','\'B2of3\'','\'B2of3\''
'\'B1of3\'','\'B1of3\'','\'B1of3\'','\'B2of3\'','\'B2of3\''
'\'B1of3\'','\'B1of3\'','\'B2of3\'','\'B2of3\'','\'B3of3\''
'\'B1of3\'','\'B3of3\'','\'B1of3\'','\'B2of3\'','\'B3of3\''
'\'B1of3\'','\'B1of3\'','\'B1of3\'','\'B2of3\'','\'B3of3\''
'\'B1of3\'','\'B1of3\'','\'B1of3\'','\'B2of3\'','\'B3of3\''
'\'B1of3\'','\'B1of3\'','\'B1of3\'','\'B2of3\'','\'B3of3\''
'\'B1of3\'','\'B1of3\'','\'B1of3\'','\'B2of3\'','\'B3of3\''
'\'B1of3\'','\'B3of3\'','\'B1of3\'','\'B2of3\'','\'B3of3\''
'\'B1of3\'','\'B1of3\'','\'B1of3\'','\'B2of3\'','\'B3of3\''
'\'B1of3\'','\'B1of3\'','\'B1of3\'','\'B1of3\'','\'B3of3\''
'\'B1of3\'','\'B1of3\'','\'B1of3\'','\'B1of3\'','\'B3of3\''
'\'B1of3\'','\'B1of3\'','\'B1of3\'','\'B1of3\'','\'B3of3\''
'\'B1of3\'','\'B2of3\'','\'B1of3\'','\'B1of3\'','\'B3of3\''
'\'B2of3\'','\'B2of3\'','\'B1of3\'','\'B1of3\'','\'B3of3\''
'\'B2of3\'','\'B1of3\'','\'B2of3\'','\'B2of3\'','\'B3of3\''
'\'B1of3\'','\'B1of3\'','\'B1of3\'','\'B2of3\'','\'B3of3\''
'\'B1of3\'','\'B2of3\'','\'B1of3\'','\'B2of3\'','\'B3of3\''
'\'B1of3\'','\'B1of3\'','\'B2of3\'','\'B2of3\'','\'B3of3\''
'\'B1of3\'','\'B3of3\'','\'B1of3\'','\'B2of3\'','\'B3of3\''
'\'B1of3\'','\'B2of3\'','\'B1of3\'','\'B1of3\'','\'B3of3\''
'\'B1of3\'','\'B2of3\'','\'B2of3\'','\'B3of3\'','\'B1of3\''
'\'B1of3\'','\'B3of3\'','\'B1of3\'','\'B3of3\'','\'B1of3\''
'\'B1of3\'','\'B1of3\'','\'B2of3\'','\'B3of3\'','\'B1of3\''
'\'B1of3\'','\'B1of3\'','\'B1of3\'','\'B3of3\'','\'B1of3\''
'\'B1of3\'','\'B3of3\'','\'B2of3\'','\'B3of3\'','\'B1of3\''
'\'B1of3\'','\'B2of3\'','\'B3of3\'','\'B3of3\'','\'B1of3\''
'\'B1of3\'','\'B2of3\'','\'B1of3\'','\'B3of3\'','\'B1of3\''
'\'B2of3\'','\'B1of3\'','\'B1of3\'','\'B3of3\'','\'B3of3\''
'\'B1of3\'','\'B2of3\'','\'B2of3\'','\'B2of3\'','\'B1of3\''
'\'B1of3\'','\'B2of3\'','\'B2of3\'','\'B2of3\'','\'B1of3\''
'\'B1of3\'','\'B1of3\'','\'B1of3\'','\'B2of3\'','\'B1of3\''
'\'B1of3\'','\'B2of3\'','\'B1of3\'','\'B2of3\'','\'B1of3\''
'\'B2of3\'','\'B3of3\'','\'B1of3\'','\'B2of3\'','\'B1of3\''
'\'B1of3\'','\'B1of3\'','\'B1of3\'','\'B2of3\'','\'B1of3\''
'\'B1of3\'','\'B1of3\'','\'B1of3\'','\'B2of3\'','\'B1of3\''
'\'B1of3\'','\'B2of3\'','\'B1of3\'','\'B2of3\'','\'B1of3\''
'\'B1of3\'','\'B1of3\'','\'B1of3\'','\'B2of3\'','\'B2of3\''
'\'B1of3\'','\'B1of3\'','\'B1of3\'','\'B2of3\'','\'B2of3\''
'\'B1of3\'','\'B1of3\'','\'B1of3\'','\'B2of3\'','\'B2of3\''
'\'B1of3\'','\'B3of3\'','\'B1of3\'','\'B2of3\'','\'B2of3\''
'\'B1of3\'','\'B1of3\'','\'B1of3\'','\'B2of3\'','\'B2of3\''
'\'B1of3\'','\'B1of3\'','\'B2of3\'','\'B2of3\'','\'B2of3\''
'\'B1of3\'','\'B1of3\'','\'B2of3\'','\'B2of3\'','\'B2of3\''
'\'B1of3\'','\'B1of3\'','\'B2of3\'','\'B2of3\'','\'B2of3\''
'\'B1of3\'','\'B2of3\'','\'B1of3\'','\'B2of3\'','\'B1of3\''
'\'B1of3\'','\'B1of3\'','\'B1of3\'','\'B2of3\'','\'B1of3\''
'\'B1of3\'','\'B3of3\'','\'B1of3\'','\'B2of3\'','\'B1of3\''
'\'B1of3\'','\'B3of3\'','\'B1of3\'','\'B2of3\'','\'B1of3\''
'\'B1of3\'','\'B2of3\'','\'B1of3\'','\'B2of3\'','\'B1of3\''
'\'B1of3\'','\'B1of3\'','\'B1of3\'','\'B2of3\'','\'B1of3\''
'\'B1of3\'','\'B2of3\'','\'B1of3\'','\'B2of3\'','\'B1of3\''
'\'B1of3\'','\'B1of3\'','\'B1of3\'','\'B2of3\'','\'B1of3\''
'\'B1of3\'','\'B3of3\'','\'B1of3\'','\'B2of3\'','\'B3of3\''
'\'B1of3\'','\'B1of3\'','\'B1of3\'','\'B2of3\'','\'B3of3\''
'\'B1of3\'','\'B1of3\'','\'B1of3\'','\'B2of3\'','\'B3of3\''
'\'B1of3\'','\'B1of3\'','\'B2of3\'','\'B3of3\'','\'B1of3\''
'\'B1of3\'','\'B2of3\'','\'B1of3\'','\'B3of3\'','\'B2of3\''
'\'B1of3\'','\'B1of3\'','\'B2of3\'','\'B3of3\'','\'B2of3\''
'\'B2of3\'','\'B1of3\'','\'B1of3\'','\'B3of3\'','\'B1of3\''
'\'B2of3\'','\'B2of3\'','\'B1of3\'','\'B3of3\'','\'B2of3\''
'\'B1of3\'','\'B2of3\'','\'B2of3\'','\'B2of3\'','\'B2of3\''
'\'B1of3\'','\'B2of3\'','\'B1of3\'','\'B1of3\'','\'B2of3\''
'\'B1of3\'','\'B1of3\'','\'B2of3\'','\'B3of3\'','\'B2of3\''
'\'B1of3\'','\'B1of3\'','\'B1of3\'','\'B3of3\'','\'B1of3\''
'\'B1of3\'','\'B3of3\'','\'B1of3\'','\'B3of3\'','\'B1of3\''
'\'B1of3\'','\'B1of3\'','\'B1of3\'','\'B1of3\'','\'B2of3\''
'\'B1of3\'','\'B2of3\'','\'B1of3\'','\'B2of3\'','\'B2of3\''
'\'B1of3\'','\'B2of3\'','\'B1of3\'','\'B1of3\'','\'B2of3\''
'\'B1of3\'','\'B1of3\'','\'B1of3\'','\'B3of3\'','\'B2of3\''
'\'B1of3\'','\'B1of3\'','\'B1of3\'','\'B2of3\'','\'B1of3\''
'\'B1of3\'','\'B1of3\'','\'B1of3\'','\'B1of3\'','\'B1of3\''
'\'B1of3\'','\'B1of3\'','\'B1of3\'','\'B2of3\'','\'B2of3\''
'\'B1of3\'','\'B1of3\'','\'B1of3\'','\'B1of3\'','\'B3of3\''
'\'B1of3\'','\'B2of3\'','\'B2of3\'','\'B2of3\'','\'B2of3\''
'\'B1of3\'','\'B2of3\'','\'B1of3\'','\'B3of3\'','\'B1of3\''
'\'B1of3\'','\'B3of3\'','\'B2of3\'','\'B2of3\'','\'B3of3\''
'\'B1of3\'','\'B1of3\'','\'B2of3\'','\'B1of3\'','\'B1of3\''
'\'B1of3\'','\'B2of3\'','\'B1of3\'','\'B3of3\'','\'B2of3\''
'\'B1of3\'','\'B1of3\'','\'B1of3\'','\'B1of3\'','\'B1of3\''
'\'B1of3\'','\'B1of3\'','\'B2of3\'','\'B2of3\'','\'B2of3\''
'\'B1of3\'','\'B1of3\'','\'B1of3\'','\'B1of3\'','\'B2of3\''
'\'B1of3\'','\'B1of3\'','\'B1of3\'','\'B2of3\'','\'B2of3\''
'\'B1of3\'','\'B1of3\'','\'B1of3\'','\'B1of3\'','\'B1of3\''
'\'B1of3\'','\'B2of3\'','\'B1of3\'','\'B3of3\'','\'B2of3\''
'\'B1of3\'','\'B3of3\'','\'B1of3\'','\'B2of3\'','\'B1of3\''
'\'B2of3\'','\'B2of3\'','\'B1of3\'','\'B2of3\'','\'B3of3\''
'\'B2of3\'','\'B3of3\'','\'B1of3\'','\'B2of3\'','\'B3of3\''
'\'B2of3\'','\'B2of3\'','\'B1of3\'','\'B2of3\'','\'B3of3\''
'\'B2of3\'','\'B1of3\'','\'B1of3\'','\'B2of3\'','\'B3of3\''
'\'B1of3\'','\'B2of3\'','\'B1of3\'','\'B2of3\'','\'B3of3\''
'\'B1of3\'','\'B3of3\'','\'B1of3\'','\'B2of3\'','\'B3of3\''
'\'B1of3\'','\'B3of3\'','\'B1of3\'','\'B3of3\'','\'B3of3\''
'\'B1of3\'','\'B1of3\'','\'B1of3\'','\'B3of3\'','\'B3of3\''
'\'B1of3\'','\'B2of3\'','\'B1of3\'','\'B3of3\'','\'B3of3\''
'\'B1of3\'','\'B1of3\'','\'B1of3\'','\'B3of3\'','\'B3of3\''
'\'B1of3\'','\'B2of3\'','\'B2of3\'','\'B3of3\'','\'B3of3\''
'\'B2of3\'','\'B1of3\'','\'B1of3\'','\'B3of3\'','\'B3of3\''
'\'B1of3\'','\'B2of3\'','\'B1of3\'','\'B3of3\'','\'B2of3\''
'\'B1of3\'','\'B1of3\'','\'B1of3\'','\'B2of3\'','\'B1of3\''
'\'B1of3\'','\'B3of3\'','\'B2of3\'','\'B2of3\'','\'B3of3\''
'\'B1of3\'','\'B3of3\'','\'B2of3\'','\'B2of3\'','\'B3of3\''
'\'B1of3\'','\'B3of3\'','\'B2of3\'','\'B2of3\'','\'B3of3\''
'\'B1of3\'','\'B1of3\'','\'B1of3\'','\'B2of3\'','\'B3of3\''
'\'B1of3\'','\'B1of3\'','\'B1of3\'','\'B2of3\'','\'B3of3\''
'\'B3of3\'','\'B2of3\'','\'B2of3\'','\'B2of3\'','\'B2of3\''
'\'B1of3\'','\'B1of3\'','\'B1of3\'','\'B3of3\'','\'B1of3\''
'\'B2of3\'','\'B2of3\'','\'B3of3\'','\'B2of3\'','\'B3of3\''
'\'B1of3\'','\'B2of3\'','\'B2of3\'','\'B3of3\'','\'B3of3\''
'\'B1of3\'','\'B2of3\'','\'B2of3\'','\'B3of3\'','\'B3of3\''
'\'B1of3\'','\'B2of3\'','\'B3of3\'','\'B3of3\'','\'B3of3\''
'\'B1of3\'','\'B2of3\'','\'B3of3\'','\'B3of3\'','\'B3of3\''
'\'B1of3\'','\'B2of3\'','\'B3of3\'','\'B3of3\'','\'B3of3\''
'\'B1of3\'','\'B2of3\'','\'B3of3\'','\'B3of3\'','\'B3of3\''
'\'B1of3\'','\'B2of3\'','\'B3of3\'','\'B1of3\'','\'B3of3\''
'\'B1of3\'','\'B1of3\'','\'B1of3\'','\'B3of3\'','\'B3of3\''
'\'B1of3\'','\'B2of3\'','\'B2of3\'','\'B3of3\'','\'B3of3\''
'\'B1of3\'','\'B2of3\'','\'B3of3\'','\'B3of3\'','\'B3of3\''
'\'B1of3\'','\'B3of3\'','\'B2of3\'','\'B3of3\'','\'B3of3\''
'\'B1of3\'','\'B2of3\'','\'B2of3\'','\'B3of3\'','\'B3of3\''
'\'B1of3\'','\'B1of3\'','\'B2of3\'','\'B1of3\'','\'B3of3\''
'\'B1of3\'','\'B2of3\'','\'B1of3\'','\'B1of3\'','\'B3of3\''
'\'B1of3\'','\'B1of3\'','\'B1of3\'','\'B1of3\'','\'B3of3\''
'\'B1of3\'','\'B3of3\'','\'B2of3\'','\'B1of3\'','\'B3of3\''
'\'B1of3\'','\'B1of3\'','\'B1of3\'','\'B1of3\'','\'B3of3\''
'\'B1of3\'','\'B1of3\'','\'B2of3\'','\'B1of3\'','\'B3of3\''
'\'B1of3\'','\'B2of3\'','\'B1of3\'','\'B1of3\'','\'B3of3\''
'\'B1of3\'','\'B2of3\'','\'B1of3\'','\'B1of3\'','\'B3of3\''
'\'B1of3\'','\'B1of3\'','\'B2of3\'','\'B3of3\'','\'B3of3\''
'\'B1of3\'','\'B3of3\'','\'B2of3\'','\'B3of3\'','\'B3of3\''
'\'B1of3\'','\'B1of3\'','\'B1of3\'','\'B3of3\'','\'B3of3\''
'\'B1of3\'','\'B2of3\'','\'B1of3\'','\'B3of3\'','\'B3of3\''
'\'B1of3\'','\'B1of3\'','\'B1of3\'','\'B3of3\'','\'B3of3\''
'\'B1of3\'','\'B2of3\'','\'B1of3\'','\'B3of3\'','\'B3of3\''
'\'B1of3\'','\'B3of3\'','\'B1of3\'','\'B3of3\'','\'B3of3\''
'\'B1of3\'','\'B1of3\'','\'B1of3\'','\'B3of3\'','\'B3of3\''
'\'B1of3\'','\'B2of3\'','\'B1of3\'','\'B3of3\'','\'B3of3\''
'\'B1of3\'','\'B1of3\'','\'B1of3\'','\'B3of3\'','\'B3of3\''
'\'B1of3\'','\'B2of3\'','\'B1of3\'','\'B3of3\'','\'B3of3\''
'\'B1of3\'','\'B1of3\'','\'B1of3\'','\'B3of3\'','\'B3of3\''
'\'B1of3\'','\'B1of3\'','\'B1of3\'','\'B3of3\'','\'B3of3\''
'\'B1of3\'','\'B1of3\'','\'B1of3\'','\'B3of3\'','\'B3of3\''
'\'B1of3\'','\'B1of3\'','\'B1of3\'','\'B3of3\'','\'B3of3\''
'\'B1of3\'','\'B1of3\'','\'B2of3\'','\'B3of3\'','\'B3of3\''
'\'B1of3\'','\'B1of3\'','\'B1of3\'','\'B2of3\'','\'B3of3\''
'\'B1of3\'','\'B2of3\'','\'B1of3\'','\'B2of3\'','\'B3of3\''
'\'B1of3\'','\'B2of3\'','\'B1of3\'','\'B2of3\'','\'B3of3\''
'\'B1of3\'','\'B1of3\'','\'B1of3\'','\'B2of3\'','\'B3of3\''
'\'B1of3\'','\'B2of3\'','\'B1of3\'','\'B2of3\'','\'B3of3\''
'\'B1of3\'','\'B2of3\'','\'B2of3\'','\'B2of3\'','\'B3of3\''
'\'B1of3\'','\'B2of3\'','\'B2of3\'','\'B3of3\'','\'B3of3\''
'\'B1of3\'','\'B2of3\'','\'B2of3\'','\'B3of3\'','\'B3of3\''
'\'B1of3\'','\'B1of3\'','\'B1of3\'','\'B3of3\'','\'B3of3\''
'\'B1of3\'','\'B2of3\'','\'B1of3\'','\'B3of3\'','\'B3of3\''
'\'B1of3\'','\'B1of3\'','\'B1of3\'','\'B3of3\'','\'B3of3\''
'\'B1of3\'','\'B2of3\'','\'B1of3\'','\'B3of3\'','\'B3of3\''
'\'B1of3\'','\'B1of3\'','\'B1of3\'','\'B2of3\'','\'B3of3\''
'\'B1of3\'','\'B2of3\'','\'B2of3\'','\'B2of3\'','\'B3of3\''
'\'B1of3\'','\'B1of3\'','\'B1of3\'','\'B1of3\'','\'B3of3\''
'\'B2of3\'','\'B1of3\'','\'B1of3\'','\'B2of3\'','\'B2of3\''
'\'B3of3\'','\'B2of3\'','\'B3of3\'','\'B2of3\'','\'B2of3\''
'\'B1of3\'','\'B2of3\'','\'B3of3\'','\'B2of3\'','\'B2of3\''
'\'B1of3\'','\'B2of3\'','\'B3of3\'','\'B2of3\'','\'B2of3\''
'\'B2of3\'','\'B2of3\'','\'B3of3\'','\'B2of3\'','\'B2of3\''
'\'B1of3\'','\'B2of3\'','\'B3of3\'','\'B2of3\'','\'B2of3\''
'\'B1of3\'','\'B2of3\'','\'B3of3\'','\'B2of3\'','\'B2of3\''
'\'B1of3\'','\'B1of3\'','\'B1of3\'','\'B2of3\'','\'B3of3\''
'\'B1of3\'','\'B2of3\'','\'B3of3\'','\'B1of3\'','\'B3of3\''
'\'B1of3\'','\'B1of3\'','\'B1of3\'','\'B3of3\'','\'B3of3\''
'\'B1of3\'','\'B2of3\'','\'B2of3\'','\'B1of3\'','\'B3of3\''
'\'B1of3\'','\'B2of3\'','\'B3of3\'','\'B1of3\'','\'B3of3\''
'\'B1of3\'','\'B2of3\'','\'B3of3\'','\'B1of3\'','\'B3of3\''
'\'B1of3\'','\'B2of3\'','\'B3of3\'','\'B1of3\'','\'B3of3\''
'\'B1of3\'','\'B1of3\'','\'B1of3\'','\'B1of3\'','\'B3of3\''
'\'B2of3\'','\'B3of3\'','\'B1of3\'','\'B1of3\'','\'B3of3\''
'\'B1of3\'','\'B2of3\'','\'B3of3\'','\'B2of3\'','\'B3of3\''
'\'B1of3\'','\'B2of3\'','\'B3of3\'','\'B2of3\'','\'B3of3\''
'\'B1of3\'','\'B2of3\'','\'B3of3\'','\'B2of3\'','\'B3of3\''
'\'B1of3\'','\'B2of3\'','\'B3of3\'','\'B2of3\'','\'B3of3\''
'\'B1of3\'','\'B2of3\'','\'B3of3\'','\'B2of3\'','\'B3of3\''
'\'B1of3\'','\'B2of3\'','\'B3of3\'','\'B2of3\'','\'B3of3\''
'\'B2of3\'','\'B2of3\'','\'B1of3\'','\'B2of3\'','\'B3of3\''
'\'B1of3\'','\'B2of3\'','\'B1of3\'','\'B1of3\'','\'B3of3\''
'\'B1of3\'','\'B1of3\'','\'B3of3\'','\'B2of3\'','\'B3of3\''
'\'B1of3\'','\'B2of3\'','\'B3of3\'','\'B2of3\'','\'B3of3\''
'\'B1of3\'','\'B2of3\'','\'B3of3\'','\'B2of3\'','\'B3of3\''
'\'B1of3\'','\'B2of3\'','\'B3of3\'','\'B2of3\'','\'B3of3\''
'\'B1of3\'','\'B1of3\'','\'B3of3\'','\'B2of3\'','\'B3of3\''
'\'B1of3\'','\'B2of3\'','\'B3of3\'','\'B2of3\'','\'B3of3\''
'\'B1of3\'','\'B2of3\'','\'B1of3\'','\'B2of3\'','\'B3of3\''
'\'B1of3\'','\'B1of3\'','\'B1of3\'','\'B1of3\'','\'B3of3\''
'\'B1of3\'','\'B1of3\'','\'B1of3\'','\'B1of3\'','\'B3of3\''
'\'B1of3\'','\'B1of3\'','\'B3of3\'','\'B1of3\'','\'B3of3\''
'\'B1of3\'','\'B1of3\'','\'B3of3\'','\'B1of3\'','\'B3of3\''
'\'B1of3\'','\'B1of3\'','\'B3of3\'','\'B1of3\'','\'B3of3\''
'\'B1of3\'','\'B1of3\'','\'B3of3\'','\'B1of3\'','\'B3of3\''
'\'B1of3\'','\'B1of3\'','\'B3of3\'','\'B1of3\'','\'B3of3\''
'\'B1of3\'','\'B1of3\'','\'B3of3\'','\'B1of3\'','\'B3of3\''
'\'B1of3\'','\'B2of3\'','\'B1of3\'','\'B2of3\'','\'B2of3\''
'\'B1of3\'','\'B2of3\'','\'B1of3\'','\'B2of3\'','\'B2of3\''
'\'B1of3\'','\'B1of3\'','\'B1of3\'','\'B2of3\'','\'B3of3\''
'\'B1of3\'','\'B2of3\'','\'B2of3\'','\'B1of3\'','\'B3of3\''
'\'B2of3\'','\'B2of3\'','\'B1of3\'','\'B3of3\'','\'B2of3\''
'\'B1of3\'','\'B1of3\'','\'B1of3\'','\'B1of3\'','\'B3of3\''
'\'B1of3\'','\'B1of3\'','\'B1of3\'','\'B1of3\'','\'B3of3\''
'\'B1of3\'','\'B1of3\'','\'B1of3\'','\'B1of3\'','\'B3of3\''
'\'B1of3\'','\'B2of3\'','\'B1of3\'','\'B1of3\'','\'B3of3\''
'\'B1of3\'','\'B2of3\'','\'B2of3\'','\'B1of3\'','\'B3of3\''
'\'B1of3\'','\'B1of3\'','\'B1of3\'','\'B1of3\'','\'B3of3\''
'\'B1of3\'','\'B3of3\'','\'B2of3\'','\'B1of3\'','\'B1of3\''
'\'B1of3\'','\'B1of3\'','\'B2of3\'','\'B3of3\'','\'B1of3\''
'\'B1of3\'','\'B1of3\'','\'B1of3\'','\'B2of3\'','\'B1of3\''
'\'B1of3\'','\'B1of3\'','\'B2of3\'','\'B3of3\'','\'B2of3\''
'\'B1of3\'','\'B1of3\'','\'B2of3\'','\'B1of3\'','\'B1of3\''
'\'B1of3\'','\'B3of3\'','\'B1of3\'','\'B3of3\'','\'B1of3\''
'\'B1of3\'','\'B1of3\'','\'B3of3\'','\'B2of3\'','\'B3of3\''
'\'B1of3\'','\'B2of3\'','\'B2of3\'','\'B2of3\'','\'B3of3\''
'\'B1of3\'','\'B2of3\'','\'B2of3\'','\'B2of3\'','\'B3of3\''
'\'B1of3\'','\'B2of3\'','\'B2of3\'','\'B2of3\'','\'B3of3\''
'\'B1of3\'','\'B2of3\'','\'B2of3\'','\'B2of3\'','\'B3of3\''
'\'B1of3\'','\'B2of3\'','\'B2of3\'','\'B2of3\'','\'B3of3\''
'\'B1of3\'','\'B1of3\'','\'B2of3\'','\'B1of3\'','\'B3of3\''
'\'B1of3\'','\'B2of3\'','\'B3of3\'','\'B1of3\'','\'B2of3\''
'\'B1of3\'','\'B2of3\'','\'B2of3\'','\'B3of3\'','\'B3of3\''
'\'B1of3\'','\'B2of3\'','\'B2of3\'','\'B2of3\'','\'B3of3\''
'\'B1of3\'','\'B1of3\'','\'B2of3\'','\'B1of3\'','\'B3of3\''
'\'B1of3\'','\'B2of3\'','\'B1of3\'','\'B3of3\'','\'B3of3\''
'\'B1of3\'','\'B1of3\'','\'B1of3\'','\'B3of3\'','\'B3of3\''
'\'B1of3\'','\'B2of3\'','\'B2of3\'','\'B3of3\'','\'B3of3\''
'\'B1of3\'','\'B2of3\'','\'B1of3\'','\'B3of3\'','\'B3of3\''
'\'B1of3\'','\'B1of3\'','\'B1of3\'','\'B3of3\'','\'B3of3\''
'\'B1of3\'','\'B1of3\'','\'B1of3\'','\'B3of3\'','\'B3of3\''
'\'B1of3\'','\'B1of3\'','\'B1of3\'','\'B3of3\'','\'B3of3\''
'\'B1of3\'','\'B3of3\'','\'B1of3\'','\'B3of3\'','\'B3of3\''
'\'B1of3\'','\'B2of3\'','\'B3of3\'','\'B1of3\'','\'B1of3\''
'\'B1of3\'','\'B3of3\'','\'B1of3\'','\'B2of3\'','\'B2of3\''
'\'B1of3\'','\'B2of3\'','\'B1of3\'','\'B1of3\'','\'B3of3\''
'\'B1of3\'','\'B1of3\'','\'B1of3\'','\'B1of3\'','\'B3of3\''
'\'B1of3\'','\'B2of3\'','\'B3of3\'','\'B1of3\'','\'B3of3\''
'\'B1of3\'','\'B1of3\'','\'B1of3\'','\'B2of3\'','\'B1of3\''
'\'B1of3\'','\'B1of3\'','\'B2of3\'','\'B2of3\'','\'B2of3\''
'\'B1of3\'','\'B1of3\'','\'B1of3\'','\'B3of3\'','\'B1of3\''
'\'B1of3\'','\'B2of3\'','\'B2of3\'','\'B3of3\'','\'B1of3\''
'\'B1of3\'','\'B1of3\'','\'B1of3\'','\'B3of3\'','\'B1of3\''
'\'B2of3\'','\'B1of3\'','\'B1of3\'','\'B3of3\'','\'B1of3\''
'\'B1of3\'','\'B2of3\'','\'B1of3\'','\'B3of3\'','\'B1of3\''
'\'B1of3\'','\'B2of3\'','\'B1of3\'','\'B2of3\'','\'B2of3\''
'\'B1of3\'','\'B1of3\'','\'B1of3\'','\'B2of3\'','\'B2of3\''
'\'B1of3\'','\'B2of3\'','\'B1of3\'','\'B2of3\'','\'B2of3\''
'\'B1of3\'','\'B2of3\'','\'B2of3\'','\'B2of3\'','\'B2of3\''
'\'B1of3\'','\'B1of3\'','\'B1of3\'','\'B2of3\'','\'B2of3\''
'\'B1of3\'','\'B1of3\'','\'B1of3\'','\'B2of3\'','\'B2of3\''
'\'B2of3\'','\'B1of3\'','\'B1of3\'','\'B2of3\'','\'B2of3\''
'\'B1of3\'','\'B1of3\'','\'B1of3\'','\'B2of3\'','\'B2of3\''
'\'B2of3\'','\'B2of3\'','\'B3of3\'','\'B2of3\'','\'B1of3\''
'\'B1of3\'','\'B2of3\'','\'B3of3\'','\'B2of3\'','\'B3of3\''
'\'B1of3\'','\'B2of3\'','\'B3of3\'','\'B2of3\'','\'B1of3\''
'\'B1of3\'','\'B1of3\'','\'B1of3\'','\'B1of3\'','\'B1of3\''
'\'B1of3\'','\'B1of3\'','\'B1of3\'','\'B1of3\'','\'B1of3\''
'\'B1of3\'','\'B2of3\'','\'B2of3\'','\'B1of3\'','\'B2of3\''
'\'B1of3\'','\'B3of3\'','\'B1of3\'','\'B1of3\'','\'B3of3\''
'\'B1of3\'','\'B1of3\'','\'B1of3\'','\'B1of3\'','\'B3of3\''
'\'B1of3\'','\'B2of3\'','\'B2of3\'','\'B1of3\'','\'B3of3\''
'\'B1of3\'','\'B2of3\'','\'B2of3\'','\'B1of3\'','\'B2of3\''
'\'B1of3\'','\'B2of3\'','\'B3of3\'','\'B2of3\'','\'B3of3\''
'\'B1of3\'','\'B2of3\'','\'B3of3\'','\'B3of3\'','\'B3of3\''
'\'B1of3\'','\'B2of3\'','\'B2of3\'','\'B1of3\'','\'B3of3\''
'\'B1of3\'','\'B1of3\'','\'B1of3\'','\'B3of3\'','\'B3of3\''
'\'B1of3\'','\'B1of3\'','\'B1of3\'','\'B3of3\'','\'B3of3\''
'\'B1of3\'','\'B2of3\'','\'B1of3\'','\'B3of3\'','\'B3of3\''
'\'B1of3\'','\'B1of3\'','\'B1of3\'','\'B3of3\'','\'B3of3\''
'\'B2of3\'','\'B1of3\'','\'B2of3\'','\'B3of3\'','\'B3of3\''
'\'B1of3\'','\'B2of3\'','\'B3of3\'','\'B2of3\'','\'B3of3\''
'\'B1of3\'','\'B3of3\'','\'B2of3\'','\'B2of3\'','\'B3of3\''
'\'B1of3\'','\'B2of3\'','\'B3of3\'','\'B2of3\'','\'B3of3\''
'\'B1of3\'','\'B1of3\'','\'B3of3\'','\'B1of3\'','\'B3of3\''
'\'B1of3\'','\'B2of3\'','\'B3of3\'','\'B1of3\'','\'B3of3\''
'\'B1of3\'','\'B2of3\'','\'B3of3\'','\'B1of3\'','\'B3of3\''
'\'B1of3\'','\'B2of3\'','\'B3of3\'','\'B1of3\'','\'B3of3\''
'\'B1of3\'','\'B2of3\'','\'B3of3\'','\'B1of3\'','\'B3of3\''
'\'B1of3\'','\'B2of3\'','\'B3of3\'','\'B1of3\'','\'B3of3\''
'\'B1of3\'','\'B2of3\'','\'B3of3\'','\'B2of3\'','\'B3of3\''
'\'B1of3\'','\'B3of3\'','\'B1of3\'','\'B2of3\'','\'B3of3\''
'\'B1of3\'','\'B2of3\'','\'B1of3\'','\'B1of3\'','\'B3of3\''
'\'B1of3\'','\'B2of3\'','\'B2of3\'','\'B2of3\'','\'B3of3\''
'\'B1of3\'','\'B1of3\'','\'B1of3\'','\'B2of3\'','\'B3of3\''
'\'B2of3\'','\'B1of3\'','\'B1of3\'','\'B2of3\'','\'B3of3\''
'\'B2of3\'','\'B3of3\'','\'B1of3\'','\'B2of3\'','\'B3of3\''
'\'B1of3\'','\'B1of3\'','\'B2of3\'','\'B2of3\'','\'B3of3\''
'\'B1of3\'','\'B1of3\'','\'B1of3\'','\'B2of3\'','\'B3of3\''
'\'B1of3\'','\'B1of3\'','\'B1of3\'','\'B2of3\'','\'B3of3\''
'\'B2of3\'','\'B2of3\'','\'B2of3\'','\'B2of3\'','\'B3of3\''
'\'B1of3\'','\'B2of3\'','\'B2of3\'','\'B1of3\'','\'B3of3\''
'\'B1of3\'','\'B2of3\'','\'B1of3\'','\'B1of3\'','\'B3of3\''
'\'B1of3\'','\'B2of3\'','\'B3of3\'','\'B1of3\'','\'B3of3\''
'\'B1of3\'','\'B2of3\'','\'B3of3\'','\'B1of3\'','\'B3of3\''
'\'B1of3\'','\'B2of3\'','\'B3of3\'','\'B1of3\'','\'B3of3\''
'\'B1of3\'','\'B2of3\'','\'B3of3\'','\'B1of3\'','\'B3of3\''
'\'B1of3\'','\'B1of3\'','\'B3of3\'','\'B1of3\'','\'B3of3\''
'\'B1of3\'','\'B2of3\'','\'B1of3\'','\'B1of3\'','\'B2of3\''
'\'B1of3\'','\'B1of3\'','\'B3of3\'','\'B1of3\'','\'B2of3\''
'\'B1of3\'','\'B1of3\'','\'B3of3\'','\'B1of3\'','\'B2of3\''
'\'B1of3\'','\'B1of3\'','\'B3of3\'','\'B1of3\'','\'B2of3\''
'\'B1of3\'','\'B1of3\'','\'B3of3\'','\'B1of3\'','\'B2of3\''
'\'B1of3\'','\'B1of3\'','\'B3of3\'','\'B1of3\'','\'B2of3\''
'\'B1of3\'','\'B1of3\'','\'B3of3\'','\'B1of3\'','\'B2of3\''
'\'B1of3\'','\'B2of3\'','\'B1of3\'','\'B1of3\'','\'B2of3\''
'\'B1of3\'','\'B1of3\'','\'B2of3\'','\'B3of3\'','\'B1of3\''
'\'B1of3\'','\'B1of3\'','\'B1of3\'','\'B1of3\'','\'B2of3\''
'\'B1of3\'','\'B2of3\'','\'B1of3\'','\'B3of3\'','\'B3of3\''
'\'B1of3\'','\'B2of3\'','\'B1of3\'','\'B3of3\'','\'B3of3\''
'\'B1of3\'','\'B2of3\'','\'B1of3\'','\'B3of3\'','\'B3of3\''
'\'B1of3\'','\'B1of3\'','\'B1of3\'','\'B3of3\'','\'B3of3\''
'\'B1of3\'','\'B2of3\'','\'B1of3\'','\'B3of3\'','\'B3of3\''
'\'B1of3\'','\'B2of3\'','\'B1of3\'','\'B3of3\'','\'B3of3\''
'\'B1of3\'','\'B2of3\'','\'B1of3\'','\'B3of3\'','\'B3of3\''
'\'B1of3\'','\'B2of3\'','\'B1of3\'','\'B3of3\'','\'B3of3\''
'\'B1of3\'','\'B2of3\'','\'B1of3\'','\'B3of3\'','\'B3of3\''
'\'B1of3\'','\'B2of3\'','\'B2of3\'','\'B3of3\'','\'B1of3\''
'\'B2of3\'','\'B1of3\'','\'B1of3\'','\'B3of3\'','\'B1of3\''
'\'B2of3\'','\'B2of3\'','\'B1of3\'','\'B3of3\'','\'B1of3\''
'\'B1of3\'','\'B1of3\'','\'B1of3\'','\'B3of3\'','\'B1of3\''
'\'B1of3\'','\'B2of3\'','\'B1of3\'','\'B3of3\'','\'B1of3\''
'\'B1of3\'','\'B2of3\'','\'B1of3\'','\'B3of3\'','\'B1of3\''
'\'B1of3\'','\'B1of3\'','\'B1of3\'','\'B3of3\'','\'B1of3\''
'\'B2of3\'','\'B1of3\'','\'B1of3\'','\'B3of3\'','\'B1of3\''
'\'B1of3\'','\'B3of3\'','\'B2of3\'','\'B3of3\'','\'B2of3\''
'\'B1of3\'','\'B2of3\'','\'B2of3\'','\'B3of3\'','\'B2of3\''
'\'B1of3\'','\'B3of3\'','\'B2of3\'','\'B3of3\'','\'B2of3\''
'\'B1of3\'','\'B3of3\'','\'B2of3\'','\'B3of3\'','\'B2of3\''
'\'B1of3\'','\'B2of3\'','\'B3of3\'','\'B2of3\'','\'B3of3\''
'\'B1of3\'','\'B2of3\'','\'B1of3\'','\'B2of3\'','\'B3of3\''
'\'B1of3\'','\'B2of3\'','\'B1of3\'','\'B2of3\'','\'B3of3\''
'\'B1of3\'','\'B1of3\'','\'B1of3\'','\'B2of3\'','\'B3of3\''
'\'B1of3\'','\'B1of3\'','\'B1of3\'','\'B2of3\'','\'B3of3\''
'\'B1of3\'','\'B2of3\'','\'B1of3\'','\'B2of3\'','\'B3of3\''
'\'B1of3\'','\'B1of3\'','\'B1of3\'','\'B2of3\'','\'B3of3\''
'\'B1of3\'','\'B1of3\'','\'B2of3\'','\'B3of3\'','\'B3of3\''
'\'B1of3\'','\'B3of3\'','\'B1of3\'','\'B3of3\'','\'B3of3\''
'\'B1of3\'','\'B1of3\'','\'B1of3\'','\'B3of3\'','\'B3of3\''
'\'B1of3\'','\'B1of3\'','\'B1of3\'','\'B2of3\'','\'B3of3\''
'\'B1of3\'','\'B2of3\'','\'B2of3\'','\'B2of3\'','\'B3of3\''
'\'B1of3\'','\'B1of3\'','\'B1of3\'','\'B2of3\'','\'B3of3\''
'\'B1of3\'','\'B2of3\'','\'B1of3\'','\'B2of3\'','\'B3of3\''
'\'B1of3\'','\'B1of3\'','\'B1of3\'','\'B2of3\'','\'B3of3\''
'\'B1of3\'','\'B1of3\'','\'B1of3\'','\'B2of3\'','\'B3of3\''
'\'B1of3\'','\'B2of3\'','\'B2of3\'','\'B2of3\'','\'B3of3\''
'\'B1of3\'','\'B1of3\'','\'B2of3\'','\'B2of3\'','\'B3of3\''
'\'B1of3\'','\'B1of3\'','\'B1of3\'','\'B2of3\'','\'B3of3\''
'\'B1of3\'','\'B2of3\'','\'B1of3\'','\'B2of3\'','\'B3of3\''
'\'B1of3\'','\'B3of3\'','\'B2of3\'','\'B2of3\'','\'B3of3\''
'\'B1of3\'','\'B2of3\'','\'B3of3\'','\'B3of3\'','\'B1of3\''
'\'B1of3\'','\'B3of3\'','\'B2of3\'','\'B3of3\'','\'B1of3\''
'\'B1of3\'','\'B3of3\'','\'B2of3\'','\'B1of3\'','\'B3of3\''
'\'B2of3\'','\'B1of3\'','\'B1of3\'','\'B1of3\'','\'B3of3\''
'\'B1of3\'','\'B1of3\'','\'B1of3\'','\'B1of3\'','\'B3of3\''
'\'B1of3\'','\'B1of3\'','\'B2of3\'','\'B1of3\'','\'B3of3\''
'\'B1of3\'','\'B1of3\'','\'B3of3\'','\'B1of3\'','\'B3of3\''
'\'B1of3\'','\'B1of3\'','\'B3of3\'','\'B1of3\'','\'B3of3\''
'\'B1of3\'','\'B1of3\'','\'B3of3\'','\'B1of3\'','\'B3of3\''
'\'B1of3\'','\'B1of3\'','\'B3of3\'','\'B1of3\'','\'B3of3\''
'\'B1of3\'','\'B2of3\'','\'B2of3\'','\'B1of3\'','\'B3of3\''
'\'B1of3\'','\'B2of3\'','\'B3of3\'','\'B1of3\'','\'B3of3\''
'\'B1of3\'','\'B2of3\'','\'B3of3\'','\'B1of3\'','\'B3of3\''
'\'B1of3\'','\'B2of3\'','\'B3of3\'','\'B1of3\'','\'B3of3\''
'\'B1of3\'','\'B2of3\'','\'B3of3\'','\'B1of3\'','\'B3of3\''
'\'B1of3\'','\'B2of3\'','\'B3of3\'','\'B1of3\'','\'B3of3\''
'\'B1of3\'','\'B2of3\'','\'B3of3\'','\'B3of3\'','\'B3of3\''
'\'B1of3\'','\'B2of3\'','\'B3of3\'','\'B3of3\'','\'B3of3\''
'\'B1of3\'','\'B2of3\'','\'B3of3\'','\'B3of3\'','\'B3of3\''
'\'B1of3\'','\'B2of3\'','\'B3of3\'','\'B3of3\'','\'B3of3\''
'\'B1of3\'','\'B1of3\'','\'B1of3\'','\'B1of3\'','\'B3of3\''
'\'B1of3\'','\'B1of3\'','\'B3of3\'','\'B1of3\'','\'B3of3\''
'\'B1of3\'','\'B2of3\'','\'B3of3\'','\'B1of3\'','\'B3of3\''
'\'B1of3\'','\'B2of3\'','\'B3of3\'','\'B1of3\'','\'B3of3\''
'\'B1of3\'','\'B2of3\'','\'B3of3\'','\'B1of3\'','\'B3of3\''
'\'B1of3\'','\'B2of3\'','\'B3of3\'','\'B1of3\'','\'B3of3\''
'\'B1of3\'','\'B2of3\'','\'B3of3\'','\'B1of3\'','\'B3of3\''
'\'B1of3\'','\'B3of3\'','\'B1of3\'','\'B2of3\'','\'B3of3\''
'\'B1of3\'','\'B1of3\'','\'B2of3\'','\'B2of3\'','\'B1of3\''
'\'B1of3\'','\'B2of3\'','\'B1of3\'','\'B1of3\'','\'B3of3\''
'\'B1of3\'','\'B2of3\'','\'B1of3\'','\'B2of3\'','\'B2of3\''
'\'B1of3\'','\'B3of3\'','\'B1of3\'','\'B1of3\'','\'B1of3\''
'\'B1of3\'','\'B1of3\'','\'B1of3\'','\'B3of3\'','\'B2of3\''
'\'B1of3\'','\'B1of3\'','\'B1of3\'','\'B2of3\'','\'B1of3\''
'\'B1of3\'','\'B1of3\'','\'B2of3\'','\'B3of3\'','\'B1of3\''
'\'B1of3\'','\'B1of3\'','\'B1of3\'','\'B2of3\'','\'B1of3\''
'\'B1of3\'','\'B2of3\'','\'B1of3\'','\'B2of3\'','\'B3of3\''
'\'B1of3\'','\'B2of3\'','\'B1of3\'','\'B2of3\'','\'B3of3\''
'\'B1of3\'','\'B1of3\'','\'B1of3\'','\'B2of3\'','\'B3of3\''
'\'B1of3\'','\'B1of3\'','\'B1of3\'','\'B2of3\'','\'B3of3\''
'\'B1of3\'','\'B1of3\'','\'B1of3\'','\'B2of3\'','\'B3of3\''
'\'B1of3\'','\'B2of3\'','\'B1of3\'','\'B2of3\'','\'B3of3\''
'\'B1of3\'','\'B1of3\'','\'B1of3\'','\'B2of3\'','\'B3of3\''
'\'B1of3\'','\'B2of3\'','\'B1of3\'','\'B2of3\'','\'B3of3\''
'\'B1of3\'','\'B1of3\'','\'B1of3\'','\'B2of3\'','\'B3of3\''
'\'B1of3\'','\'B1of3\'','\'B1of3\'','\'B1of3\'','\'B1of3\''
'\'B1of3\'','\'B2of3\'','\'B1of3\'','\'B1of3\'','\'B2of3\''
'\'B1of3\'','\'B2of3\'','\'B1of3\'','\'B2of3\'','\'B2of3\''
'\'B1of3\'','\'B1of3\'','\'B2of3\'','\'B2of3\'','\'B3of3\''
'\'B1of3\'','\'B1of3\'','\'B1of3\'','\'B2of3\'','\'B3of3\''
'\'B1of3\'','\'B2of3\'','\'B3of3\'','\'B1of3\'','\'B3of3\''
'\'B1of3\'','\'B1of3\'','\'B1of3\'','\'B1of3\'','\'B3of3\''
'\'B1of3\'','\'B1of3\'','\'B1of3\'','\'B1of3\'','\'B3of3\''
'\'B1of3\'','\'B1of3\'','\'B1of3\'','\'B2of3\'','\'B3of3\''
'\'B1of3\'','\'B1of3\'','\'B1of3\'','\'B2of3\'','\'B3of3\''
'\'B1of3\'','\'B3of3\'','\'B1of3\'','\'B2of3\'','\'B3of3\''
'\'B1of3\'','\'B1of3\'','\'B1of3\'','\'B2of3\'','\'B3of3\''
'\'B1of3\'','\'B2of3\'','\'B1of3\'','\'B2of3\'','\'B3of3\''
'\'B1of3\'','\'B2of3\'','\'B1of3\'','\'B2of3\'','\'B3of3\''
'\'B1of3\'','\'B2of3\'','\'B1of3\'','\'B2of3\'','\'B3of3\''
'\'B1of3\'','\'B3of3\'','\'B1of3\'','\'B2of3\'','\'B3of3\''
'\'B1of3\'','\'B2of3\'','\'B2of3\'','\'B1of3\'','\'B2of3\''
'\'B1of3\'','\'B1of3\'','\'B2of3\'','\'B1of3\'','\'B2of3\''
'\'B1of3\'','\'B2of3\'','\'B1of3\'','\'B3of3\'','\'B1of3\''
'\'B1of3\'','\'B1of3\'','\'B1of3\'','\'B1of3\'','\'B2of3\''
'\'B1of3\'','\'B1of3\'','\'B1of3\'','\'B1of3\'','\'B2of3\''
'\'B1of3\'','\'B1of3\'','\'B1of3\'','\'B2of3\'','\'B3of3\''
'\'B1of3\'','\'B1of3\'','\'B2of3\'','\'B2of3\'','\'B2of3\''
'\'B1of3\'','\'B1of3\'','\'B1of3\'','\'B1of3\'','\'B3of3\''
'\'B1of3\'','\'B1of3\'','\'B2of3\'','\'B1of3\'','\'B1of3\''
'\'B1of3\'','\'B1of3\'','\'B1of3\'','\'B2of3\'','\'B1of3\''
'\'B1of3\'','\'B1of3\'','\'B1of3\'','\'B2of3\'','\'B1of3\''
'\'B1of3\'','\'B3of3\'','\'B1of3\'','\'B2of3\'','\'B2of3\''
'\'B1of3\'','\'B2of3\'','\'B1of3\'','\'B3of3\'','\'B2of3\''
'\'B1of3\'','\'B1of3\'','\'B1of3\'','\'B1of3\'','\'B2of3\''
'\'B1of3\'','\'B2of3\'','\'B1of3\'','\'B2of3\'','\'B2of3\''
'\'B1of3\'','\'B3of3\'','\'B2of3\'','\'B2of3\'','\'B2of3\''
'\'B1of3\'','\'B3of3\'','\'B1of3\'','\'B1of3\'','\'B1of3\''
'\'B1of3\'','\'B1of3\'','\'B2of3\'','\'B1of3\'','\'B1of3\''
'\'B1of3\'','\'B3of3\'','\'B2of3\'','\'B1of3\'','\'B2of3\''
'\'B1of3\'','\'B1of3\'','\'B1of3\'','\'B3of3\'','\'B2of3\''
'\'B1of3\'','\'B2of3\'','\'B1of3\'','\'B3of3\'','\'B1of3\''
'\'B1of3\'','\'B1of3\'','\'B1of3\'','\'B3of3\'','\'B2of3\''
'\'B1of3\'','\'B1of3\'','\'B1of3\'','\'B2of3\'','\'B1of3\''
'\'B1of3\'','\'B2of3\'','\'B1of3\'','\'B3of3\'','\'B1of3\''
'\'B1of3\'','\'B2of3\'','\'B1of3\'','\'B3of3\'','\'B1of3\''
'\'B1of3\'','\'B1of3\'','\'B1of3\'','\'B3of3\'','\'B1of3\''
'\'B1of3\'','\'B1of3\'','\'B1of3\'','\'B3of3\'','\'B1of3\''
'\'B2of3\'','\'B3of3\'','\'B1of3\'','\'B3of3\'','\'B1of3\''
'\'B1of3\'','\'B1of3\'','\'B2of3\'','\'B3of3\'','\'B1of3\''
'\'B1of3\'','\'B3of3\'','\'B1of3\'','\'B3of3\'','\'B1of3\''
'\'B1of3\'','\'B3of3\'','\'B1of3\'','\'B3of3\'','\'B1of3\''
'\'B1of3\'','\'B1of3\'','\'B1of3\'','\'B3of3\'','\'B3of3\''
'\'B1of3\'','\'B1of3\'','\'B2of3\'','\'B1of3\'','\'B3of3\''
'\'B1of3\'','\'B1of3\'','\'B1of3\'','\'B1of3\'','\'B3of3\''
'\'B1of3\'','\'B1of3\'','\'B1of3\'','\'B1of3\'','\'B3of3\''
'\'B1of3\'','\'B1of3\'','\'B1of3\'','\'B1of3\'','\'B3of3\''
'\'B1of3\'','\'B1of3\'','\'B2of3\'','\'B1of3\'','\'B3of3\''
'\'B1of3\'','\'B2of3\'','\'B1of3\'','\'B1of3\'','\'B3of3\''
'\'B1of3\'','\'B1of3\'','\'B2of3\'','\'B1of3\'','\'B3of3\''
'\'B2of3\'','\'B3of3\'','\'B1of3\'','\'B3of3\'','\'B1of3\''
'\'B2of3\'','\'B2of3\'','\'B2of3\'','\'B3of3\'','\'B1of3\''
'\'B1of3\'','\'B2of3\'','\'B1of3\'','\'B3of3\'','\'B2of3\''
'\'B1of3\'','\'B1of3\'','\'B1of3\'','\'B3of3\'','\'B2of3\''
'\'B1of3\'','\'B1of3\'','\'B1of3\'','\'B3of3\'','\'B2of3\''
'\'B1of3\'','\'B1of3\'','\'B1of3\'','\'B3of3\'','\'B2of3\''
'\'B1of3\'','\'B2of3\'','\'B2of3\'','\'B3of3\'','\'B2of3\''
'\'B1of3\'','\'B1of3\'','\'B1of3\'','\'B3of3\'','\'B2of3\''
'\'B1of3\'','\'B3of3\'','\'B2of3\'','\'B3of3\'','\'B2of3\''
'\'B1of3\'','\'B3of3\'','\'B1of3\'','\'B3of3\'','\'B2of3\''
'\'B1of3\'','\'B1of3\'','\'B1of3\'','\'B3of3\'','\'B2of3\''
'\'B2of3\'','\'B1of3\'','\'B1of3\'','\'B2of3\'','\'B3of3\''
'\'B1of3\'','\'B2of3\'','\'B1of3\'','\'B2of3\'','\'B3of3\''
'\'B1of3\'','\'B2of3\'','\'B2of3\'','\'B2of3\'','\'B3of3\''
'\'B1of3\'','\'B1of3\'','\'B1of3\'','\'B2of3\'','\'B3of3\''
'\'B1of3\'','\'B1of3\'','\'B2of3\'','\'B2of3\'','\'B3of3\''
'\'B1of3\'','\'B1of3\'','\'B2of3\'','\'B2of3\'','\'B3of3\''
'\'B1of3\'','\'B2of3\'','\'B2of3\'','\'B2of3\'','\'B3of3\''
'\'B1of3\'','\'B2of3\'','\'B1of3\'','\'B2of3\'','\'B3of3\''
'\'B1of3\'','\'B1of3\'','\'B1of3\'','\'B2of3\'','\'B3of3\''
'\'B1of3\'','\'B2of3\'','\'B1of3\'','\'B2of3\'','\'B3of3\''
'\'B1of3\'','\'B3of3\'','\'B1of3\'','\'B2of3\'','\'B3of3\''
'\'B1of3\'','\'B2of3\'','\'B1of3\'','\'B2of3\'','\'B3of3\''
'\'B1of3\'','\'B2of3\'','\'B3of3\'','\'B2of3\'','\'B3of3\''
'\'B1of3\'','\'B1of3\'','\'B1of3\'','\'B3of3\'','\'B1of3\''
'\'B1of3\'','\'B1of3\'','\'B1of3\'','\'B3of3\'','\'B1of3\''
'\'B1of3\'','\'B2of3\'','\'B1of3\'','\'B3of3\'','\'B1of3\''
'\'B1of3\'','\'B2of3\'','\'B1of3\'','\'B3of3\'','\'B1of3\''
'\'B1of3\'','\'B1of3\'','\'B1of3\'','\'B3of3\'','\'B1of3\''
'\'B1of3\'','\'B2of3\'','\'B1of3\'','\'B3of3\'','\'B1of3\''
'\'B1of3\'','\'B1of3\'','\'B1of3\'','\'B3of3\'','\'B1of3\''
'\'B1of3\'','\'B1of3\'','\'B1of3\'','\'B3of3\'','\'B1of3\''
'\'B2of3\'','\'B1of3\'','\'B1of3\'','\'B2of3\'','\'B3of3\''
'\'B1of3\'','\'B2of3\'','\'B1of3\'','\'B3of3\'','\'B1of3\''
'\'B1of3\'','\'B2of3\'','\'B2of3\'','\'B3of3\'','\'B3of3\''
'\'B1of3\'','\'B1of3\'','\'B2of3\'','\'B3of3\'','\'B3of3\''
'\'B1of3\'','\'B1of3\'','\'B1of3\'','\'B3of3\'','\'B2of3\''
'\'B1of3\'','\'B1of3\'','\'B2of3\'','\'B1of3\'','\'B1of3\''
'\'B1of3\'','\'B2of3\'','\'B1of3\'','\'B2of3\'','\'B1of3\''
'\'B1of3\'','\'B1of3\'','\'B1of3\'','\'B3of3\'','\'B3of3\''
'\'B1of3\'','\'B1of3\'','\'B1of3\'','\'B3of3\'','\'B2of3\''
'\'B1of3\'','\'B2of3\'','\'B1of3\'','\'B2of3\'','\'B1of3\''
'\'B1of3\'','\'B2of3\'','\'B1of3\'','\'B2of3\'','\'B2of3\''
'\'B1of3\'','\'B2of3\'','\'B1of3\'','\'B2of3\'','\'B1of3\''
'\'B1of3\'','\'B2of3\'','\'B2of3\'','\'B2of3\'','\'B2of3\''
'\'B1of3\'','\'B2of3\'','\'B1of3\'','\'B3of3\'','\'B1of3\''
'\'B2of3\'','\'B1of3\'','\'B1of3\'','\'B3of3\'','\'B1of3\''
'\'B1of3\'','\'B1of3\'','\'B2of3\'','\'B3of3\'','\'B1of3\''
'\'B1of3\'','\'B1of3\'','\'B1of3\'','\'B3of3\'','\'B1of3\''
'\'B1of3\'','\'B3of3\'','\'B1of3\'','\'B3of3\'','\'B1of3\''
'\'B1of3\'','\'B1of3\'','\'B1of3\'','\'B3of3\'','\'B1of3\''
'\'B1of3\'','\'B1of3\'','\'B1of3\'','\'B3of3\'','\'B1of3\''
'\'B1of3\'','\'B2of3\'','\'B1of3\'','\'B3of3\'','\'B1of3\''
'\'B1of3\'','\'B3of3\'','\'B1of3\'','\'B3of3\'','\'B3of3\''
'\'B1of3\'','\'B2of3\'','\'B1of3\'','\'B3of3\'','\'B3of3\''
'\'B2of3\'','\'B2of3\'','\'B1of3\'','\'B3of3\'','\'B3of3\''
'\'B2of3\'','\'B2of3\'','\'B1of3\'','\'B3of3\'','\'B3of3\''
'\'B2of3\'','\'B2of3\'','\'B1of3\'','\'B3of3\'','\'B3of3\''
'\'B1of3\'','\'B1of3\'','\'B1of3\'','\'B3of3\'','\'B3of3\''
'\'B1of3\'','\'B1of3\'','\'B1of3\'','\'B3of3\'','\'B3of3\''
'\'B1of3\'','\'B2of3\'','\'B1of3\'','\'B3of3\'','\'B3of3\''
'\'B1of3\'','\'B3of3\'','\'B1of3\'','\'B3of3\'','\'B3of3\''
'\'B1of3\'','\'B1of3\'','\'B1of3\'','\'B3of3\'','\'B1of3\''
'\'B1of3\'','\'B1of3\'','\'B1of3\'','\'B3of3\'','\'B1of3\''
'\'B1of3\'','\'B2of3\'','\'B3of3\'','\'B1of3\'','\'B3of3\''
'\'B1of3\'','\'B1of3\'','\'B1of3\'','\'B1of3\'','\'B1of3\''
'\'B1of3\'','\'B1of3\'','\'B1of3\'','\'B2of3\'','\'B3of3\''
'\'B1of3\'','\'B1of3\'','\'B1of3\'','\'B2of3\'','\'B3of3\''
'\'B2of3\'','\'B2of3\'','\'B2of3\'','\'B2of3\'','\'B3of3\''
'\'B1of3\'','\'B1of3\'','\'B2of3\'','\'B2of3\'','\'B3of3\''
'\'B2of3\'','\'B3of3\'','\'B1of3\'','\'B2of3\'','\'B3of3\''
'\'B1of3\'','\'B1of3\'','\'B1of3\'','\'B2of3\'','\'B3of3\''
'\'B1of3\'','\'B1of3\'','\'B1of3\'','\'B2of3\'','\'B3of3\''
'\'B1of3\'','\'B1of3\'','\'B1of3\'','\'B3of3\'','\'B3of3\''
'\'B2of3\'','\'B1of3\'','\'B1of3\'','\'B3of3\'','\'B3of3\''
'\'B1of3\'','\'B1of3\'','\'B2of3\'','\'B3of3\'','\'B3of3\''
'\'B2of3\'','\'B1of3\'','\'B1of3\'','\'B3of3\'','\'B3of3\''
'\'B1of3\'','\'B1of3\'','\'B1of3\'','\'B3of3\'','\'B3of3\''
'\'B1of3\'','\'B1of3\'','\'B1of3\'','\'B3of3\'','\'B3of3\''
'\'B1of3\'','\'B1of3\'','\'B1of3\'','\'B3of3\'','\'B3of3\''
'\'B1of3\'','\'B1of3\'','\'B1of3\'','\'B3of3\'','\'B3of3\''
'\'B1of3\'','\'B1of3\'','\'B1of3\'','\'B3of3\'','\'B3of3\''
'\'B1of3\'','\'B2of3\'','\'B1of3\'','\'B2of3\'','\'B3of3\''
'\'B1of3\'','\'B1of3\'','\'B1of3\'','\'B2of3\'','\'B3of3\''
'\'B2of3\'','\'B2of3\'','\'B2of3\'','\'B3of3\'','\'B3of3\''
'\'B1of3\'','\'B1of3\'','\'B2of3\'','\'B3of3\'','\'B3of3\''
'\'B2of3\'','\'B2of3\'','\'B2of3\'','\'B2of3\'','\'B2of3\''
'\'B2of3\'','\'B1of3\'','\'B1of3\'','\'B2of3\'','\'B2of3\''
'\'B2of3\'','\'B1of3\'','\'B1of3\'','\'B2of3\'','\'B2of3\''
'\'B1of3\'','\'B2of3\'','\'B1of3\'','\'B2of3\'','\'B2of3\''
'\'B2of3\'','\'B1of3\'','\'B1of3\'','\'B2of3\'','\'B2of3\''
'\'B1of3\'','\'B1of3\'','\'B2of3\'','\'B2of3\'','\'B2of3\''
'\'B1of3\'','\'B1of3\'','\'B1of3\'','\'B2of3\'','\'B2of3\''
'\'B1of3\'','\'B2of3\'','\'B1of3\'','\'B2of3\'','\'B2of3\''
'\'B2of3\'','\'B2of3\'','\'B1of3\'','\'B2of3\'','\'B2of3\''
'\'B1of3\'','\'B2of3\'','\'B2of3\'','\'B2of3\'','\'B2of3\''
'\'B1of3\'','\'B2of3\'','\'B3of3\'','\'B2of3\'','\'B2of3\''
'\'B1of3\'','\'B2of3\'','\'B3of3\'','\'B2of3\'','\'B2of3\''
'\'B1of3\'','\'B1of3\'','\'B2of3\'','\'B2of3\'','\'B2of3\''
'\'B1of3\'','\'B1of3\'','\'B1of3\'','\'B2of3\'','\'B2of3\''
'\'B1of3\'','\'B1of3\'','\'B1of3\'','\'B2of3\'','\'B2of3\''
'\'B1of3\'','\'B1of3\'','\'B1of3\'','\'B2of3\'','\'B2of3\''
'\'B1of3\'','\'B1of3\'','\'B2of3\'','\'B2of3\'','\'B3of3\''
'\'B2of3\'','\'B1of3\'','\'B2of3\'','\'B2of3\'','\'B3of3\''
'\'B1of3\'','\'B2of3\'','\'B2of3\'','\'B2of3\'','\'B3of3\''
