{
  "urn" : "local:amarquez:im.alice.ireland:NI_erosion_current_gepcum",
  "version" : "0.0.1",
  "adapterType" : "raster",
  "localPath" : "im.alice.ireland/resources/NI_erosion_current_gepcum.v0.0.1",
  "geometry" : "S2(960,729){bbox=[-6.449316488095656 -6.017928581864569 54.02763271273819 54.355217904032415],proj=EPSG:4326}",
  "projectName" : "im.alice.ireland",
  "localName" : "NI_erosion_current_gepcum.tif",
  "type" : "NUMBER",
  "resourceTimestamp" : 1611564162058,
  "metadata" : { },
  "parameters" : {
    "nodata" : "-3.4028234663852886E38"
  },
  "localPaths" : [ "im.alice.ireland/resources/NI_erosion_current_gepcum.v0.0.1/NI_erosion_current_gepcum.tif.ovr", "im.alice.ireland/resources/NI_erosion_current_gepcum.v0.0.1/NI_erosion_current_gepcum.tif", "im.alice.ireland/resources/NI_erosion_current_gepcum.v0.0.1/NI_erosion_current_gepcum.tfw", "im.alice.ireland/resources/NI_erosion_current_gepcum.v0.0.1/NI_erosion_current_gepcum.tif.aux.xml" ],
  "history" : [ ],
  "notifications" : [ ],
  "attributes" : [ ],
  "spatialExtent" : {
    "east" : -6.017928581864569,
    "west" : -6.449316488095656,
    "north" : 54.355217904032415,
    "south" : 54.02763271273819,
    "gridResolution" : null,
    "gridUnit" : null
  },
  "dependencies" : null,
  "outputs" : null,
  "exportFormats" : {
    "tiff" : "GeoTiff"
  }
}