@relation highly_sensitive_ohc_proportion_macro_invertebrate_individual_count_of_reach_instances

@attribute highly_sensitive_ohc_proportion_macro_invertebrate_individual_count_of_reach numeric
@attribute nitrate_mass_to_water_volume_ratio numeric
@attribute solid_suspension_mass_to_water_volume_ratio numeric
@attribute water_temperature_during_summer numeric
@attribute riparian_broadleaf_forest_proportion_area_of_watershed numeric

@data
0,1.67,2,14.66,0
0.027442,3.31,52.4,15.4,0.117189
0,1.83,19,14.03,0.63964
0,2.91,0,14.02,0.01
0,1.63,6,11.08,0.01
0.174622,1.16,5,12.54,0.01
0,0.95,24.58,13.86,0.132075
0,1.54,25.56,13.38,0.25281
0,1.27,43.27,10.38,0.770829
0,0.85,5,14.34,0.01
0,0.42,5,11.49,0.816665
0,0.84,1,20,0.333335
0,0.84,4,21,0.01
0,0.76,2,8.41,0.01
0,1.56,5,8.38,0.01
0,0.67,10.6,11.86,0.99
0.120919,1.5,5.2,15.87,0.752133
0,1.6,40,14.83,0.55
0,0.8,8.6,16.14,0.42
0,0.62,15.6,14.24,0.796876
0,0.2,23.4,12.25,0.99
0,1.57,54.4,13.25,0.43
0,0.85,18.4,13.85,0.223684
0.045086,1.31,33.8,14.94,0.99
0.502513,1.45,7.4,15.85,0.34
0,0.45,19,14.13,0.79
0,1,18.2,14.12,0.52
0,0.87,27.6,13.71,0.618
0,0.24,3.4,16.7,0.109
0,0.15,3.2,12.15,0
0,0,22.4,14.39,0
0,1.52,35.8,15.13,0.686275
0,1.59,31.8,13.19,0.26
0,0.14,8.6,12.29,0
0,0.67,11.6,13.93,0.736844
0,0.71,46.2,14.87,0.343282
0.062461,1.77,36.2,16.4,0.214951
0.555556,2.62,75,15.5,0.688797
0.019877,1.67,29.6,13.46,0.575759
0,1.16,16.4,12.68,0.589929
0.033278,1.32,44.89,16.23,0.24
0.254453,1.41,50.59,14.88,0.27
0,1.32,43.56,14.72,0.3
0,1.23,37.56,14.62,0.14
0.124378,1.86,51.56,17,0.71
0.03084,2.07,48.89,16.66,0
0.214395,2.69,46.4,18.5,0.09
0.082497,1.94,47.4,16.46,0.1
0.028114,2.2,55.2,13.66,0.1
0,2.41,64.8,13.18,0.1
0.391304,1.51,41.33,13.38,0.465406
0,1.44,39.33,12.6,0.280301
0,0.92,32,9.32,0
0,0.72,32.89,9.06,0
0,1.54,45.2,13.44,0.590361
0.087515,1.97,2,19.58,0.322
0.244349,1.36,6,16.64,0.474
0,0.76,5,15.56,0.435
0,0.97,4,23,0.508
0.107181,1.45,3,16.16,0.477
0,1.61,3,16.24,0.138
0.461133,0.55,1,16.47,0.322
0,0.52,4,17.25,0.474
0,0.47,6,15.03,0.435
0.085179,0.46,3,18.9,0.508
0,0.67,3,15.99,0.477
0,0.73,4,16.42,0.138
15,2.03,7,17.11,0.322
0,1.67,4,15.97,0.474
0,1.09,4,14.68,0.435
0.206612,0.74,6,18.42,0.508
0,1.45,2,16.1,0.477
0.165426,1.96,2,17.11,0.138
0,1.99,2,17.01,0.322
0,0.84,2,5,0.01
0,1.15,5,14.99,0.435
0,1.04,4,18.87,0.508
0,1.71,4,15.49,0.477
0,1.86,1,15.59,0.138
0,0.84,2,18,0.01
0,0.84,2,16,0.01
0,0.84,7,13,0
0,0.84,3,5,0.01
0,0.84,1,14,0.01
0,0.84,7,12,0.01
0,0.84,4,11,0.01
0,0.84,5,20,0.01
0,0.84,3,18,0.01
0,0.84,2,13,0.01
0,0.84,6,5,0.01
0,0.84,6,6,0.01
0,0.84,3,20,0.01
0,0.84,5,8,0.01
0,0.84,2,5,0.01
0,0.84,4,5,0
0,0.84,4,9,0.01
0,0.84,6,5,0.01
0,0.84,3,5,0.01
0,0.84,5,13,0.01
0,0.84,3,21,0.01
0,0.84,6,20,0.01
0,0.84,5,7,0.01
0,0.84,2,7,0.01
0,0.84,6,13,0.01
0,0.84,5,18,0.01
0,0.64,2,9.01,0.132075
0,1,6,7,0.25281
0,1.15,4,12,0
0,0,2,10.65,0.75
0,0.75,1,10.81,0.96581
0,2.7,3,13.24,0
0,1.57,2,9.63,0
0,1.86,4,11.22,0.63964
0,1.26,2,8.24,0.648934
0,0.44,5,5,0.816665
0,0.44,5,5,0.333335
0,0,1,8.53,0.661974
0,0.87,3,12,0.99
0,1.67,3,14.66,0
0,0.84,2,21,0.01
0,2.91,4,14.02,0
0,1.63,6,11.08,0
0.174622,1.16,3,12.54,0.75
0,0.84,3,11,0.01
0,0.84,6,17,0.796876
0,0.85,4,14.34,0.96581
0,0.42,7,11.49,0.816665
0,0.52,5,11.81,0.333335
0,0.84,5,10,0.01
0,0.76,6,8.41,0.66
0,1.56,3,8.38,0.65
0,2.16,2,14.26,0
0,1.21,6,15.03,0.63964
0,1.12,4,14.69,0
0.066578,0.65,3,12.9,0.75
0,0.82,4,11.02,0.132075
0,0.42,4,12.52,0.816665
0,0.92,4,12.96,0.25281
0,0.38,5,11.42,0.333335
0,0.91,4,8.79,0.648934
0,0.52,5,8.6,0.661974
0,1.16,2,11.75,0
0,0.6,6,10.01,0.99
0,0.6,4,14.28,0.96581
0,1.27,3,14.01,0
0,0.84,7,14.16,0.63964
0,0.64,1,14.27,0
0,0.55,5,12.65,0.75
0,0.33,5,13.86,0.132075
0,0.33,1,12.24,0.816665
0,0.46,1,12.14,0.25281
0,0.32,2,11.31,0.333335
0,0.73,3,8.57,0.648934
0,0.32,1,8.54,0.661974
0,0.73,3,11.35,0
0,0.44,6,9.91,0.99
0,0.44,2,13.92,0.96581
0,3.53,3,13.23,0
0,1.99,2,12.11,0.63964
0,1.32,3,12.97,0
0.191205,1.19,3,12.42,0.75
0,0.51,1,14.34,0.132075
0,0.6,6,13.02,0.816665
0,1.12,4,12.96,0.25281
0,0.75,6,11.25,0.333335
0,1.71,5,9.34,0.648934
0,1.29,2,9.14,0.661974
0,1.66,6,10.26,0
0,0.97,4,9.86,0.99
0,0.78,6,12.94,0.96581
0.037272,3.18,6,13.83,0
0,1.65,2,13.49,0.63964
0,1.36,7,14.09,0
0,1.11,3,12.84,0.75
0,0.86,2,13.69,0.132075
0,0.68,3,9.66,0.816665
0,1.31,4,11.96,0.25281
0,0.66,4,11.44,0.333335
0,1.46,1,8.69,0.648934
0,0.89,2,8.31,0.661974
0,1.51,3,11.02,0
0,0.65,1,9.87,0.99
0,0.75,2,13.77,0.96581
0,1.19,3,15.954273,0
1.694095,0.34,5,14.456998,0
0,0.17,4,11.85715,0.325
0,1.32,4,11.97841,0.276
0,0.01,6,13.057037,0.031
0,0.37,1,12.374734,0.16
0,2.49,5,15.508835,0.377
0,0.3,6,16.777532,0.439
0,15,4,14.816732,0.882
0,1,5,16.173788,0.505
0,0.23,1,12.478926,0.231
0,1.23,6,16.572544,0.125
0.08331,1.74,6,15.458425,0.282
0,1.91,5,18.367193,0.382
0,0.46,6,11.854301,0.645
0,0.63,4,15.191341,0.269
0,1.61,1,7,0.265
0,1.61,7,15.673504,0.235
0,3.96,0,13.022529,0.341
0,0.42,1,13.391676,0
0,0.34,2,13.328293,0.325
0,1.13,4,9.707156,0.276
0,0.88,7,12.254559,0.031
0,0.4,4,11.946445,0.16
0.397219,1.49,7,16.428366,0.377
0,0.86,4,18.942291,0.439
0,6.24,2,16.263194,0.882
0,1.55,4,5,0.505
0,1.22,1,10.657112,0.231
0.026725,0.9,5,17.039108,0.125
0.065232,1.38,5,16.764563,0.282
0,1.69,1,18.565021,0.382
0,0.67,7,12.676148,0.645
0,0.46,5,16.766077,0.269
0,1,2,11.778279,0.265
0,0.68,7,17.086774,0.235
0,3.36,6,13.536783,0.341
