@relation value_of_benthic_richness_of_reach_instances

@attribute value_of_benthic_richness_of_reach numeric
@attribute volume_of_estuary_site numeric
@attribute water_volume_during_summer numeric

@data
15,1.12,0.23
22,1.12,0.23
8,1.12,0.23
8,1.12,0.23
12,1.12,0.23
21,1.12,0.23
15,1.12,0.23
12,1.12,0.1
6,1.12,0
7,1.12,0.23
7,1.12,0.23
8,1.12,0.23
11,1.12,0.23
150,300,0.47
110,133.31,0.39
141,133.31,0.13
128,133.31,2.58
158,133.31,0.54
136,133.31,0.81
168,133.31,4.89
125,133.31,0.5
71,133.31,0.37
68,133.31,2.23
62,133.31,0.41
87,133.31,1.33
102,133.31,0.87
90,133.31,2.22
80,66.59,1.56
75,66.59,2.31
73,66.59,2.57
48,66.59,6
101,66.59,2.72
87,66.59,3.93
91,66.59,6
58,66.59,2.6
52,66.59,4.18
40,66.59,3.39
43,66.59,2.23
69,66.59,2.77
62,66.59,2.77
16,5.57,0.13
12,5.57,0.2
10,5.57,0.48
11,5.57,0.83
14,5.57,1.33
9,5.57,2.07
3,5.57,0.58
7,5.57,0.64
7,5.57,1.08
15,5.57,4.15
21,1,0.23
21,0,1.13
6,1,0.28
7,1,1.88
13,1,0.26
18,1,0.44
11,1,0.47
11,1,0.93
9,1,0.23
4,1,0.13
8,1,0.14
18,1,0.21
15,1,1.13
15,1.14,0.5
24,1.14,0.5
14,1.14,0.5
11,1.14,0.5
18,1.14,0.5
16,1.14,0.5
14,1.14,0.5
9,1.14,0.5
7,1.14,0.5
17,1.14,0.5
10,1.14,0.5
12,1.14,0.5
21,1.14,0.5
13,13.4,5.14
10,13.4,5.18
25,13.4,4.8
16,13.4,6
20,13.4,5.41
19,13.4,6
16,13.4,1.47
9,13.4,5.53
16,13.4,6
14,13.4,6
16,13.4,3.92
13,13.4,4.52
12,13.4,4.16
36,13,0.39
36,13,0.39
38,13,0.39
26,13,0.39
35,13,0.39
37,13,0.39
26,13,0.39
26,13,0.58
19,13,0.37
18,13,0.39
22,13,0.39
21,13,0.39
23,13,0.39
7,3.02,5.04
8,3.02,6
9,3.02,6
6,3.02,6
7,3.02,6
13,3.02,6
7,3.02,6
7,3.02,6
6,3.02,6
6,3.02,6
5,3.02,6
7,3.02,6
13,3.02,6
11,4.58,3.44
18,4.58,3.44
13,4.58,3.44
11,4.58,3.44
9,4.58,3.44
16,4.58,3.44
9,4.58,3.44
10,4.58,3.44
3,4.58,3.44
7,4.58,3.44
10,4.58,3.44
10,4.58,3.44
18,4.58,3.44
