{
  "urn" : "local:stefano.balbi:im.alice.ireland:current_flowsum",
  "version" : "0.0.1",
  "adapterType" : "raster",
  "localPath" : "im.alice.ireland/resources/current_flowsum.v0.0.1",
  "geometry" : "S2(960,729){bbox=[-6.449316488095656 -6.017928581864569 54.02763271273819 54.355217904032415],proj=EPSG:4326}",
  "projectName" : "im.alice.ireland",
  "localName" : "current_flowsum.tif",
  "type" : "NUMBER",
  "resourceTimestamp" : 1611574765898,
  "metadata" : { },
  "parameters" : {
    "nodata" : "-3.4028234663852886E38"
  },
  "localPaths" : "im.alice.ireland/resources/current_flowsum.v0.0.1/current_flowsum.tif",
  "history" : [ ],
  "notifications" : [ ],
  "attributes" : [ ],
  "spatialExtent" : {
    "east" : -6.017928581864569,
    "west" : -6.449316488095656,
    "north" : 54.355217904032415,
    "south" : 54.02763271273819,
    "gridResolution" : null,
    "gridUnit" : null
  },
  "dependencies" : null,
  "outputs" : null,
  "exportFormats" : {
    "tiff" : "GeoTiff"
  }
}